{
    "compCode": "08",
    "effDate": "2018-01-08 15:21:13",
    "expDate": "2047-01-08 17:51:33",
    "fHeight": "",
    "footer": {
        "en": "<p>test</p>",
        "zh-Hant": "<p></p>"
    },
    "hHeight": "",
    "header": {
        "en": "<div style=\"height: 8px;\"/>\n<table style=\"width: 100%;\">\n<tr>\n<td>\n<div class=\"fx-intro-logo\"/>\n</td>\n</tr>\n</table>",
        "zh-Hant": "<p></p>"
    },
    "launchDate": "2018-01-08 17:51:13",
    "pdfCode": "FX_PROD_SUM",
    "pdfName": {
        "en": "Product Summary Cover Page",
        "zh-Hant": "-",
        "zh-tw": "-"
    },
    "ref_no": "FX_PROD_SUM_001",
    "releaseDate": "2018-06-19 15:50:47",
    "remarks": {
        "en": "-",
        "zh-tw": "-"
    },
    "status": "A",
    "style": ".vpd8{margin:8px 0;}.w24{width:24px;}",
    "task_desc": "FX_PROD_SUM",
    "template": {
        "en": [
            "<!-- FLEXI ACKNOWLEDGEMENT PAGE 1 -->\n\n<div class=\"tcenter b\">ACKNOWLEDGEMENT</div>\n<table class=\"w100\" style=\"margin-top: 16px;\">\n  <tr>\n    <td class=\"vtop\" style=\"width: 25%;\">\n      <div class=\"b u\">Presented to:\n        <br/>\n      </div>\n      <br/>\n    </td>\n    <td class=\"vtop\">\n      <div class=\"vpd8\"></div>\n    </td>\n  </tr>\n  <xsl:if test=\"*/mainInfo/sameAs='N'\">\n    <tr>\n      <td class=\"vtop\">\n        <div class=\"vpd2\">Name of Proposer\n          </div>\n      </td>\n      <td class=\"vtop\">\n        <div class=\"vpd2\">:\n          <xsl:value-of select=\"*/cover/proposer/name\" />\n        </div>\n      </td>\n    </tr>\n  </xsl:if>\n  <tr>\n    <td class=\"vtop\" style=\"width: 25%;\">\n      <div class=\"vpd2\">Name of Life Assured\n        <br/> </div>\n    </td>\n    <td class=\"vtop\">\n      <div class=\"vpd2\">:\n        <xsl:value-of select=\"*/cover/insured/name\" />\n      </div>\n    </td>\n  </tr>\n</table>\n<br/>\n<div class=\"b u\">Your Plan and Rider(s), if any:</div>\n<br/>\n<xsl:for-each select=\"*/cover/plans\">\n  <div>\n    <xsl:value-of select=\"name\" />\n  </div>\n</xsl:for-each>\n<br/>\n<div class=\"b u\">Client(s) Acknowledgement: </div>\n<br/>\n<table class=\"w100\">\n  <tr>\n    <td class=\"vtop w24\">1.</td>\n    <td class=\"vtop\">\n      <div>I / We confirm that I / We have received all pages of the Policy Illustration for the basic plan / all riders listed\n        above, where applicable.</div>\n      <br/>\n    </td>\n  </tr>\n  <tr>\n    <td class=\"vtop w24\">2.</td>\n    <td class=\"vtop\">\n      <div>I / We confirm that I / We have received all pages of the Product Summary for the basic plan and riders listed above\n        where applicable, and all Product Highlight Sheet(s) of the selected fund(s) (applicable only to investment-linked\n        plan).</div>\n      <br/>\n    </td>\n  </tr>\n  <tr>\n    <td class=\"vtop w24\">3.</td>\n    <td class=\"vtop\">\n      <div>The terms and conditions of the policy and riders (if applicable) as set out in the Product Summary and Product Highlight\n        Sheet(s) have been explained to me / Us and that I / We understand the features of the policy and riders (if applicable),\n        including the applicable fees and charges.</div>\n      <br/>\n    </td>\n  </tr>\n</table>\n\n<xsl:if test=\"not(*/mainInfo/quickQuote='Y')\">\n  <div class=\"footer\"><div class=\"global_prodSumm\" style=\"position:absolute; bottom: 0px;\">\n    <div style=\"width: 100%;\">\n      <table style=\"text-align: left; table-layout: fixed; width: 100%; font-size: 10pt; margin: 0 auto;\">\n        <tbody>\n          <tr style=\"color: white;\">\n            <td style=\"padding-left: 50px;\">\n              <div style=\"border-bottom: solid 1px black; width: 80%;\">ADVISOR_SIGNATURE</div>\n            </td>\n            <td style=\"padding-left: 50px;\">\n              <div style=\"border-bottom: solid 1px  black; width: 80%;\">PROPOSER_SIGNATURE</div>\n            </td>\n          </tr>\n          <tr>\n            <td style=\"padding-left: 50px; padding-top: 10px;\">Adviser's Signature</td>\n            <td style=\"padding-left: 50px; padding-top: 10px;\">Proposer's Signature</td>\n          </tr>\n          <tr>\n            <td style=\"padding-left: 50px;\">Date:</td>\n            <td style=\"padding-left: 50px;\">Date:</td>\n          </tr>\n        </tbody>\n      </table>\n    </div>\n  </div>\n</div></xsl:if>"
        ],
        "zh-Hant": []
    },
    "type": "pdfTemplate",
    "version": 2
}