{
    "allowBackdate": "N",
    "budgetRules": [
        "RP"
    ],
    "ccyDesc": {},
    "compCode": "08",
    "corpInd": "N",
    "covCode": "EPB",
    "covName": {
        "en": "Extended TPD Benefit",
        "zh-Hant": "-"
    },
    "create": "KENNY.CHAN  on 18 Dec 2017 10:58:15",
    "ctyGroup": [
        "*"
    ],
    "currencies": [
        {
            "ccy": [
                "SGD"
            ],
            "country": "*"
        }
    ],
    "dealerGroup": [
        "AGENCY",
        "DIRECT",
        "SINGPOST",
        "FUSION",
        "BROKER",
        "SYNERGY"
    ],
    "effDate": "2017-12-19 00:00:00",
    "entryAge": [
        {
            "country": "*",
            "imaxAge": 50,
            "imaxAgeUnit": "nearestAge",
            "iminAge": 16,
            "iminAgeUnit": "nearestAge",
            "omaxAge": 70,
            "omaxAgeUnit": "nearestAge",
            "ominAge": 18,
            "ominAgeUnit": "year",
            "sameAsOwner": "N"
        }
    ],
    "expDate": "2118-01-01 00:00:00",
    "formulas": {
        "calcQuotFunc": "function (quotation, planInfo, planDetails) {var planDetail = planDetails[planInfo.covCode]; var saInput = planDetail.inputConfig.saInput; var premInput = planDetail.inputConfig.premInput; var closestPrem = null; var closestSA = null; var bsa = quotation.plans[0].sumInsured || 0, minSa = 75000; closestSA = bsa * 0.1 < minSa? bsa * 0.1: minSa; planInfo.sumInsured = closestSA; planInfo.saViewInd = 'Y'; quotation.sumInsured = math.number(math.add(math.number(quotation.sumInsured || 0), closestSA)); }",
        "illustrateFunc": "",
        "polTermsFunc": "function (planDetail, quotation) {var iAge = quotation.iAge;return [{ value: \"yrs\"+(55-iAge), title: (55-iAge)+\" Years\", default: true}];}",
        "premFunc": "",
        "premTermsFunc": "",
        "prepareClassConfig": "",
        "prepareSAPremConfig": "function (planDetail, quotation, planDetails) {var covCode = planDetail.covCode; var basicSa = math.number(quotation.plans[0].sumInsured || 0); planDetail.inputConfig.canEditSumAssured = false; planDetail.inputConfig.canViewSumAssured = true; planDetail.inputConfig.canViewPremium = false; for(var i in quotation.plans){ var plan = quotation.plans[i]; if(plan.covCode == covCode && basicSa){ plan.sumInsured = math.number(basicSa * 0.1 > 75000? 75000: basicSa * 0.1); } } return planDetail;}",
        "prepareTermConfig": "",
        "saFunc": "",
        "validAfterCalcFunc": "function (quotation, planInfo, planDetail) {var benefit = quotation.policyOptions.basicBenefit;quotValid.validatePlanAfterCalc(quotation, planInfo, planDetail);planInfo.planCode = 'EPB' + (benefit == 'M'? 'B': benefit == 'C'? 'A' : '');planInfo.premTerm = planInfo.policyTerm;planInfo.premTermDesc = planInfo.polTermDesc;if(planInfo.policyTerm){ var year = planInfo.policyTerm.substring(3, planInfo.policyTerm.length); planInfo.policyTermYr = math.number(year); planInfo.premTermYr = math.number(year);}}",
        "validBeforeCalcFunc": "",
        "validQuotFunc": "",
        "willValidQuotFunc": ""
    },
    "genderInd": "*",
    "insuredAgeDesc": {},
    "jointLives": "N",
    "keyProdFeatures": {
        "en": "-",
        "zh-Hant": ""
    },
    "licence": [
        ""
    ],
    "payMethodsDesc": {},
    "payModeDesc": {},
    "payModes": [
        {
            "covMonth": 1,
            "default": "",
            "factor": 12,
            "mode": "M",
            "operator": "D"
        },
        {
            "covMonth": 3,
            "default": "",
            "factor": 4,
            "mode": "Q",
            "operator": "D"
        },
        {
            "covMonth": 6,
            "default": "",
            "factor": 2,
            "mode": "S",
            "operator": "D"
        },
        {
            "covMonth": 12,
            "default": "",
            "factor": 1,
            "mode": "A",
            "operator": "D"
        }
    ],
    "paymentMethods": [
        "crCard",
        "chequeCashierOrder",
        "eNets",
        "cash",
        "dbsCrCardIpp",
        "teleTransfter",
        "axasam"
    ],
    "planCodeMapping": {
        "basicBenefit": [
            "C",
            "M"
        ],
        "planCode": [
            "EPBA",
            "EPBB"
        ]
    },
    "planInd": "R",
    "polMatSameAsPremMat": "N",
    "polMaturities": [],
    "polTermDesc": {},
    "polTermInd": "Y",
    "polTermRule": "na",
    "policyMatSameAsBasic": "N",
    "premMatSameAsBasic": "N",
    "premMatSameAsPolMat": "N",
    "premMaturities": [],
    "premTermDesc": {},
    "premTermInd": "N",
    "premTermRule": "BT",
    "prodFeature": {},
    "prod_summary_1": 638920,
    "productCategory": "ilp",
    "productLine": "IL",
    "ref_no": "EPB001",
    "releaseDate": "2018-06-21 18:29:26",
    "remarks": {
        "en": "-"
    },
    "smokeInd": "*",
    "status": "A",
    "task_desc": "Extended TPD Benefit",
    "type": "product",
    "upd": "KENNY.CHAN  on 10 Jan 2018 18:19:54",
    "version": 2,
    "wholeLifeInd": "N"
}