{
    "compCode": "08",
    "effDate": "2018-07-01 00:00:00",
    "expDate": "2019-07-12 15:55:28",
    "footer": {
        "en": "<div class=\"global_main\"><xsl:if test=\"*/mainInfo/quickQuote='Y'\">\n<table style=\"text-align: left; table-layout: fixed; width: 100%; font-size: 10pt; margin: 0 auto;\">\n<tbody>\n<tr style=\"color: white;\">\n<td style=\"padding-left: 50px;\">\n<div style=\"border-bottom: solid 1px black; width: 80%;\">1</div>\n</td>\n<td style=\"padding-left: 50px;\">\n<div style=\"border-bottom: solid 1px black; width: 80%;\">2</div>\n</td>\n</tr>\n<tr>\n<td style=\"padding-left: 50px; padding-top: 10px;\">Adviser's Signature</td>\n<td style=\"padding-left: 50px; padding-top: 10px;\">Proposer's Signature</td>\n</tr>\n<tr>\n<td style=\"padding-left: 50px;\">Date:</td>\n<td style=\"padding-left: 50px;\">Date:</td>\n</tr>\n</tbody>\n</table>\n</xsl:if>\n<table style=\"width: 100%; font-size: 10pt;\">\n<tbody>\n<tr>\n<td style=\"width: 49.8018%;\"><strong>Page [[@PAGE_NO]] of [[@TOTAL_PAGE]]</strong></td>\n<td style=\"text-align: right; width: 46.1982%;\">Release Version <xsl:value-of select=\"*/releaseVersion\"/></td>\n</tr>\n</tbody>\n</table>\n<p></p>\n<div style=\"text-align: center;\"><xsl:value-of select=\"*/compName\"/> (Co. Reg. No. <xsl:value-of select=\"*/compRegNo\"/>)</div>\n<div style=\"text-align: center;\"><xsl:value-of select=\"*/compAddr\"/></div>\n<div style=\"text-align: center;\"><xsl:value-of select=\"*/compAddr2\"/> TEL: <xsl:value-of select=\"*/compTel\"/> FAX: <xsl:value-of select=\"*/compFax\"/></div>\n<div style=\"text-align: center;\"><xsl:value-of select=\"*/compWeb\"/></div>\n</div>",
        "zh-Hant": "<p></p>"
    },
    "formulas": {
        "prepareReportData": "function(quotation, planInfo, planDetails, extraPara) { let company = extraPara.company; let { compName, compRegNo, compAddr, compAddr2, compTel, compFax, compWeb } = company; var retVal = {}; if (company) { var retVal = { 'compName': compName, 'compRegNo': compRegNo, 'compAddr': compAddr, 'compAddr2': compAddr2, 'compTel': compTel, 'compFax': compFax, 'compWeb': compWeb, }; } retVal.proposerGenderTitle = (quotation.pGender) == 'M' ? 'Male' : 'Female'; retVal.proposerSmokerTitle = (quotation.pSmoke) == 'Y' ? 'Smoker' : 'Non-Smoker'; retVal.insurerGenderTitle = (quotation.iGender) == 'M' ? 'Male' : 'Female'; retVal.insurerSmokerTitle = (quotation.iSmoke) == 'Y' ? 'Smoker' : 'Non-Smoker'; var ccy = quotation.ccy; var polCcy = ''; var ccySyb = ''; if (ccy == 'SGD') { polCcy = 'Singapore Dollars'; ccySyb = 'S$'; } else if (ccy == 'USD') { polCcy = 'US Dollars'; ccySyb = 'US$'; } else if (ccy == 'AUD') { polCcy = 'Australian Dollars'; ccySyb = 'A$'; } else if (ccy == 'EUR') { polCcy = 'Euro'; ccySyb = '€'; } else if (ccy == 'GBP') { polCcy = 'British Pound'; ccySyb = '£'; } retVal.polCcy = polCcy; retVal.ccySyb = ccySyb; var paymentModeTitle = ''; if (quotation.paymentMode == 'A') { paymentModeTitle = 'Annual'; } else if (quotation.paymentMode == 'S') { paymentModeTitle = 'Semi-Annual'; } else if (quotation.paymentMode == 'Q') { paymentModeTitle = 'Quarterly'; } else if (quotation.paymentMode == 'M') { paymentModeTitle = 'Monthly'; } else if (quotation.paymentMode == 'L') { paymentModeTitle = 'Single Premium'; } retVal.paymentModeTitle = paymentModeTitle; var plans = quotation.plans; retVal.totalAPrem = quotation.totYearPrem; retVal.totalSPrem = quotation.totHalfyearPrem; retVal.totalQPrem = quotation.totQuarterPrem; retVal.totalMPrem = quotation.totMonthPrem; var planCodes = \"\"; var plans = quotation.plans; var planCodesArr = []; for (var i = 0; i < plans.length; i++) { planCodesArr.push(plans[i].planCode); } planCodes = planCodesArr.join(\", \"); let campaignCode = \"\"; let numOfPlans = plans.length; let campaignCodeArr = []; for (let i = 0; i < numOfPlans; i++) { let campaignCodes = plans[i].campaignCodes; if(campaignCodes){ let numOfCampaignCodes = campaignCodes.length; for (let j = 0; j < numOfCampaignCodes; j++) { let code = campaignCodes[j]; let bInsideArr = false; for (let k = 0; k < campaignCodeArr.length; k++) { if(code===campaignCodeArr[k]){ bInsideArr = true; } } if(!bInsideArr) {campaignCodeArr.push(code);} } } } campaignCode = campaignCodeArr.join(\", \"); /**if(campaignCode!==\"\"){ planCodes += \", \" + campaignCode; }*/ var planFields = []; var thirdPartyRider = ['PEN', 'PENCI', 'PUNB', 'PUN', 'PPU']; for (var i = 0; i < quotation.plans.length; i++) { var plan = quotation.plans[i]; var policyTerm = plan.policyTerm; var premTerm = plan.premTerm; var covCode = plan.covCode; var sumAssured = getCurrency(plan.sumInsured,' ',0); var planDetail = planDetails[covCode]; var policyTermList = planDetail.inputConfig.policyTermList; var premTermList = planDetail.inputConfig.premTermList; var planInd = planDetail.planInd; var planName = plan.covName.en; var polTermTitle = -1; if (i === 0) { if (quotation.policyOptions.planType !== 'renew'){ planName += ' (' + quotation.policyOptionsDesc.planType.en + ')'; } retVal.basicPlanName = planName; retVal.basicPlanPremTermDesc = plan.premTermDesc; retVal.basicPlanPolicyTermDesc = plan.polTermDesc; retVal.basicPlanCurrency = polCcy; retVal.basicPlanPolTerm = plan.policyTermYr; } var paymentTermTitle = -1; for (var j = 0; j < policyTermList.length; j++) { var polTermOpt = policyTermList[j]; if (polTermOpt.value == policyTerm){polTermTitle = polTermOpt.title;} } for (var k = 0; k < premTermList.length; k++) { var premTermOpt = premTermList[k]; if (premTermOpt.value == premTerm){paymentTermTitle = premTermOpt.title;} } var calcAge = (thirdPartyRider.indexOf(covCode) > -1) ? quotation.pAge : quotation.iAge; if (premTerm.indexOf('TA') > -1) { paymentTermTitle = (Number.parseInt(premTerm) - calcAge) + ' Years'; } if (polTermTitle != -1 && paymentTermTitle!= -1) { var polTerm = { covCode: covCode, planInd: planInd, policyTerm: polTermTitle, permTerm: paymentTermTitle, sumAssured: sumAssured, planName: planName }; planFields.push(polTerm); } } let planInfoList = quotation.plans; let planInfos = []; for (let i = 0; i < planInfoList.length; i++) { let planInfo = planInfoList[i]; let planDetail = planDetails[planInfo.covCode]; let plan = {}; plan.planName = planInfo.covName.en; plan.postfix = !planInfo.saPostfix ? \"\" : (typeof planInfo.saPostfix == 'string' ? planInfo.saPostfix : (planInfo.saPostfix.en || planInfo.saPostfix[Object.keys(planInfo.saPostfix)[0]])); plan.sumAssured = getCurrency(planInfo.sumInsured, ' ', 0); plan.policyTerm = (extraPara.langMap && extraPara.langMap[planInfo.policyTerm]) || planInfo.policyTerm; plan.premium = getCurrency(planInfo.premium, ' ', 2); plan.APremium = getCurrency(planInfo.yearPrem, ' ', 2); plan.HPremium = getCurrency(planInfo.halfYearPrem, ' ', 2); plan.QPremium = getCurrency(planInfo.quarterPrem, ' ', 2); plan.MPremium = getCurrency(planInfo.monthPrem, ' ', 2); plan.LPremium = getCurrency(planInfo.yearPrem, ' ', 2); plan.permTerm = (extraPara.langMap && extraPara.langMap[planInfo.premTerm]) || planInfo.premTerm; plan.payMode = quotation.paymentMode; plan.planInd = planDetail.planInd; plan.covCode = planDetail.covCode; plan.productLine = planDetail.productLine; if (i === 0) { if (quotation.policyOptions.planType !== 'renew'){ plan.planName += ' (' + quotation.policyOptionsDesc.planType.en + ')'; } } planInfos.push(plan); } retVal.planInfos = planInfos; retVal.planFields = planFields; retVal.planCodes = planCodes; retVal.genDate = new Date(extraPara.systemDate).format(extraPara.dateFormat); retVal.backDate = new Date(quotation.riskCommenDate).format(extraPara.dateFormat); retVal.iDob = new Date(extraPara.systemDate).format(extraPara.dateFormat); retVal.proposerDob = new Date(quotation.pDob).format(extraPara.dateFormat); retVal.insurerDob = new Date(quotation.iDob).format(extraPara.dateFormat); var residencyCountryOptions, residencyCityOptions, iRCountry, iRCity, pRCountry, pRCity, occOptions; residencyCountryOptions = extraPara.optionsMap.residency.options; residencyCityOptions = extraPara.optionsMap.city.options; occOptions = extraPara.optionsMap.occupation.options; if (quotation.iResidence === 'R128') { retVal.iOtherCountry = 'Y'; } if (quotation.pResidence === 'R128') { retVal.pOtherCountry = 'Y'; } for (var v in residencyCityOptions) { if (residencyCityOptions[v].value === quotation.pResidenceCity) { pRCity = residencyCityOptions[v].title.en; } if (residencyCityOptions[v].value === quotation.iResidenceCity) { iRCity = residencyCityOptions[v].title.en; } } for (var v in residencyCountryOptions) { if (residencyCountryOptions[v].value === quotation.pResidence) { pRCountry = residencyCountryOptions[v].title.en; } if (residencyCountryOptions[v].value === quotation.iResidence) { iRCountry = residencyCountryOptions[v].title.en; } } var iOcc = ''; var iOccTitle = ''; var hasAP = false; for (var v in quotation.plans) { if(quotation.plans[v].covCode == 'AP') {hasAP = true;} } if (hasAP) { iOcc = ': ' + quotation.iOccupationClass; iOccTitle = 'Occupation Class'; } retVal.occTitle = iOccTitle; retVal.occValue = iOcc; retVal.proposerCountry = (pRCountry) ? pRCountry : \"\"; if (pRCity) { retVal.proposerCity = pRCity; retVal.proposerCitySelected = 'Y'; } else { retVal.proposerCity = ''; retVal.proposerCitySelected = 'N'; } retVal.insurerCountry = (iRCountry) ? iRCountry : \"\"; if (iRCity) { retVal.insurerCity = iRCity; retVal.insurerCitySelected = 'Y'; } else { retVal.insurerCity = ''; retVal.insurerCitySelected = 'N'; } retVal.paymentMode = quotation.paymentMode; retVal.planType = quotation.policyOptions.planType; retVal.indexation = (quotation.policyOptions.indexation === 'Y') ? 'Yes' : 'No'; /** Get total premium paid and TDC at end of policy year*/ var index = retVal.basicPlanPolTerm - 1; var curRow = extraPara.illustrations[quotation.baseProductCode][index]; var temp = curRow.bpTdc / curRow.totBpYearPrem; temp = Math.round(temp * 10000)/100; retVal.basicPlanTDC = getCurrency(curRow.bpTdc, ' ', 0); retVal.basicPlanTDCPercent = temp; retVal.showCampaignNotesInSecondPage = 'N'; retVal.hidePagesIndexArray = [0]; let showCampaignNotes = 'Y'; if(global.quotCache && global.quotCache.planDetails){ let basicPlan = global.quotCache.planDetails.TPX; if(!basicPlan){ basicPlan = global.quotCache.planDetails.TPPX; } if(!!basicPlan){ if (!basicPlan.campaign){showCampaignNotes = 'N';} } } if (showCampaignNotes === 'Y') { if ((quotation.plans.length < 3 && quotation.sameAs === 'N') || (quotation.plans.length < 5 && quotation.sameAs === 'Y')) { retVal.showCampaignNotesInSecondPage = 'N'; retVal.hidePagesIndexArray = [0]; } else { retVal.showCampaignNotesInSecondPage = 'Y'; retVal.hidePagesIndexArray = undefined; } if (extraPara.quickQuote === false) { retVal.showCampaignNotesInSecondPage = 'N'; retVal.hidePagesIndexArray = [0]; } } return retVal; }"
    },
    "isMasterData": true,
    "lastUpdatedTime": "2018-09-03T09:09:00.175Z",
    "launchDate": "2018-07-01 00:00:00",
    "pdfCode": "TPX_CAMPAIGN_NOTE",
    "pdfName": {
        "en": "TPX_CAMPAIGN_NOTE",
        "zh-Hant": "TPX_CAMPAIGN_NOTE",
        "zh-tw": "TPX_CAMPAIGN_NOTE"
    },
    "ref_no": "TPX_CAMPAIGN_NOTE",
    "releaseDate": "2018-07-19 17:00:23",
    "remarks": {
        "en": "TPX_CAMPAIGN_NOTE"
    },
    "status": "A",
    "style": ".cover-margin{margin:24px;}.b{font-weight:bold;}.tpx_intro-logo{background:<img@tpx_intro-logo-img>;width:50;height:50;margin-top:0;background-repeat:round;}.tpx_intro-barcode{background:<img@tpx_intro-barcode-img>;width:192;height:47;margin-top:0;background-repeat:round;}.agentTableTitle1{width:22%;height:13px;}.agentTableTitle2{width:22%;height:13px;}.agentTableValue{width:36%;height:13px;}.pd2left0{padding:4px 4px 4px 0;}.pd2right0{padding:4px 0 4px 4px;}.pd4left0{padding:4px 4px 4px 0;}.pd4right0{padding:4px 0 4px 4px;}.w100{width:100%;}.detailTable{width:100%;font-size:10pt;}.detailTableTitle{width:20%;height:13px;}.detailTableValue{width:42%;height:13px;}.detailTableTitle2{width:22%;height:13px;}.planName{width:40%;height:13px;}.planNumberPlan{width:20%;height:13px;}.planNumberPremium{width:15%;height:13px;}.premiumTable{width:100%;font-size:10pt;}.premiumTable tr{height:8px;}.global_intro{font-size:10pt;}.shortTr tr{line-height:13.8px!important;}.tleft{text-align:left;}.tright{text-align:right;}.font13{font-size:13px;}",
    "task_desc": "TPX_CAMPAIGN_NOTE",
    "template": {
        "en": [
            "<div style=\"font-size: 10pt;\">\n    <div class=\"global_intro\">\n        <table>\n            <tr>\n                <td>\n                    <div class=\"tpx_intro-logo\"></div>\n                </td>\n            </tr>\n        </table>\n    </div>\n\n    <div style=\"text-align: center; width: 100%;\">\n        <strong>MAIN POLICY ILLUSTRATION </strong>\n    </div>\n    <br/>\n\t<p>\n\tIf you have chosen to attach Advance TPD Payout rider and/or Advance CI \n\tPayout rider, the premiums have reflected a 10% campaign premium discount \n\tfor Term Protector and Term Protector Prime, as well as a 15% campaign premium \n\tdiscount for Advance TPD Payout rider and Advance CI Payout rider, subject \n\tto the following criteria: \n\t\n\t<table style=\"width:100%; font-size:10pt;\">\n\t\t<colgroup>\n\t\t\t<col style=\"width:3%;\"/>\n\t\t\t<col style=\"width:97%;\"/>\n\t\t</colgroup>\n\t\t\n\t\t<tr>\n\t\t\t<td>•</td>\n\t\t\t<td>All plans, including riders must be of regular premium payment</td>\n\t\t</tr>\n\t\t\n\t\t<tr>\n\t\t\t<td>•</td>\n\t\t\t<td>Term Protector Until Age 99 and Term Protector Prime Until Age 99 \n\t\t\tand their attached rider(s) are <b>NOT</b> eligible for campaign discount\n\t\t\t</td>\n\t\t</tr>\n\t\t\n\t</table>\n\t</p>\n\n</div>"
        ],
        "zh-Hant": []
    },
    "type": "pdfTemplate",
    "updatedBy": "mandy",
    "version": 1
}