{
    "compCode": "08",
    "effDate": "2018-05-08 00:00:00",
    "expDate": "2047-05-31 16:48:16",
    "fHeight": "",
    "footer": {
        "en": "<div class=\"global_intro\" style=\"position:relative;bottom: -65mm;width:calc(100% - 50px);\">\n<xsl:if test=\"*/mainInfo/quickQuote='Y'\">\n<table style=\"text-align: left; table-layout: fixed; width: 100%; font-size: 10pt; margin: 0 auto;\">\n<tbody>\n<tr style=\"color: white;\">\n<td style=\"padding-left: 50px;\">\n<div style=\"border-bottom: solid 1px black; width: 80%;\">1</div>\n</td>\n<td style=\"padding-left: 50px;\">\n<div style=\"border-bottom: solid 1px black; width: 80%;\">2</div>\n</td>\n</tr>\n<tr>\n<td style=\"padding-left: 50px; padding-top: 3px;\">Adviser's Signature</td>\n<td style=\"padding-left: 50px; padding-top: 3px;\">Proposer's Signature</td>\n</tr>\n<tr>\n<td style=\"padding-left: 50px;\">Date:</td>\n<td style=\"padding-left: 50px;\">Date:</td>\n</tr>\n</tbody>\n</table>\n</xsl:if>\n<table style=\"width: 100%; font-size: 10pt;\">\n<tbody>\n<tr>\n<td style=\"width: 49.8018%;\"><strong>Page [[@PAGE_NO]] of [[@TOTAL_PAGE]]</strong></td>\n<td style=\"text-align: right; width: 46.1982%;\">Release Version\n<xsl:value-of select=\"*/releaseVersion\"/>\n</td>\n</tr>\n<tr><td colspan=\"3\"></td></tr>\n<tr><td></td><td><center><xsl:value-of select=\"*/footer/compName\"/> (Co. Reg. No.\n<xsl:value-of select=\"*/footer/compRegNo\"/>)</center></td><td></td></tr>\n<tr><td></td><td><center><xsl:value-of select=\"*/footer/compAddr\"/></center></td><td></td></tr>\n<tr><td></td><td><center><xsl:value-of select=\"*/footer/compAddr2\"/> TEL:\n<xsl:value-of select=\"*/footer/compTel\"/> FAX:\n<xsl:value-of select=\"*/footer/compFax\"/></center></td><td></td></tr>\n<tr><td></td><td><center><xsl:value-of select=\"*/footer/compWeb\"/></center></td><td></td></tr>\n</tbody>\n</table>\n</div>",
        "zh-Hant": "<p></p>"
    },
    "hHeight": "",
    "header": {
        "en": "<div style=\"height: 8px;\"/>\n<table style=\"width: 100%;\">\n<tbody>\n<tr>\n<td><div class=\"logo\"/></td>\n</tr>\n</tbody>\n</table>",
        "zh-Hant": ""
    },
    "launchDate": "2018-05-31 16:46:56",
    "pdfCode": "RHP_SECOND_PAGE",
    "pdfName": {
        "en": "RHP Second Page",
        "zh-Hant": "RHP Second Page",
        "zh-tw": "RHP Second Page"
    },
    "ref_no": "RHP Second Page",
    "releaseDate": "2018-06-19 15:47:46",
    "remarks": {
        "en": "RHP Second Page",
        "zh-tw": "RHP Second Page"
    },
    "status": "A",
    "task_desc": "RHP Second Page",
    "template": {
        "en": [
            "<div class=\"global_main\">    <table class=\"w100\" style=\"font-size:10pt;\">        <colgroup>            <col style=\"width:26%\" />            <col style=\"width:32%\" />            <col style=\"width:7%;\" />            <col style=\"width:35%\" />        </colgroup>        <thead>            <tr>                <th colspan=\"4\" style=\"text-align: center; width: 100%; padding-bottom: 10px;\"><strong>MAIN POLICY ILLUSTRATION</strong></th>            </tr>            <tr>                <th colspan=\"2\" class=\"vtop b tleft\"> <span>Proposal on the life of: </span><span><xsl:value-of select=\"*/cover/insured/name\"/></span> </th>                <th class=\"vtop b tleft\"> <span>Date</span> </th>                <th class=\"vtop tleft\"> <span>:                        <xsl:value-of select=\"*/cover/genDate\"/>                    </span> </th>            </tr>            <tr style=\"border-bottom: solid 1pt black\">                <th colspan=\"2\" class=\"vtop b tleft\"> <span>Gender: </span><span><xsl:value-of select=\"*/cover/insured/gender\"/> (<xsl:value-of select=\"*/cover/insured/smoking\"/>)</span> </th>                <th class=\"vtop b tleft\"> <span>Age</span> </th>                <th class=\"vtop tleft\"> <span>:                        <xsl:value-of select=\"*/cover/insured/age\"/> (As At                        <xsl:value-of select=\"*/cover/riskCommenDate\"/>)                    </span> </th>            </tr>        </thead>    </table>    <table class=\"w100\" style=\"font-size:10pt;\">        <colgroup>            <col style=\"width:26%\" />            <col style=\"width:32%\" />            <col style=\"width:25%\" />            <col style=\"width:17%\" />        </colgroup>        <tr>            <td>Selected Retirement Age</td>            <td>: <xsl:value-of select=\"*/common/retirementAge\"/> </td> <td>Retirement Income Option</td>            <td>: Paid Out</td>        </tr>        <tr>            <td>Retirement Income (p.a.)</td>            <td>: $<xsl:value-of select=\"*/common/retirementInc\"/> </td> <td>            </td>            <td></td>        </tr>        <tr>            <td>Payout Term</td>            <td>: <xsl:value-of select=\"*/common/payoutTerm\"/> </td> <td>            </td>            <td></td>        </tr>        <tr>            <td>Payout Type</td>            <td>: <xsl:value-of select=\"*/common/payoutType\"/> </td> <td>            </td>            <td></td>        </tr>        <tr>            <td><br /></td>            <td></td>            <td></td>            <td></td>        </tr>        <tr>            <td>Annual Premium</td>            <td>: $<xsl:value-of select=\"*/common/annualPremium\"/> </td> <td>            </td>            <td></td>        </tr>        <tr>            <td>Premium Payment Term</td>            <td>: <xsl:value-of select=\"*/common/paymentTerm\"/> </td> <td>            </td>            <td></td>        </tr>        <tr style=\"border-bottom: solid 1pt black\">            <td>Payment Mode</td>            <td>: <xsl:value-of select=\"*/common/paymentMode\"/> </td> <td>Policy Currency</td>            <td>: Singapore Dollars</td>        </tr>        <tr>            <td><br /></td>            <td></td>            <td></td>            <td></td>        </tr>    </table>    <div class=\"b\"><strong><u>Summary of Retirement Solution</u></strong></div>    <div style=\"border: solid 1px; margin-top:5px; padding:5px; \">        <table class=\"w100\" style=\"font-size:10pt;\">            <colgroup>                <col style=\"width:4%\" />                <col style=\"width:67%\" />                <col style=\"width:19%\" />                <col style=\"width:10%\" />            </colgroup>            <tr>                <td class=\"b\" colspan=\"5\">Retirement Income: Paid Out</td>            </tr>            <tr>                <td></td>                <td>Total Premiums Paid</td>                <td>: $<xsl:value-of select=\"*/cover/retireSol/poPremiums\"/> </td> <td>                </td>            </tr>            <tr>                <td></td>                <td><br /></td>                <td></td>                <td></td>            </tr>            <tr>                <td></td>                <td>Total Guaranteed Retirement Income</td>                <td>: $<xsl:value-of select=\"*/cover/retireSol/poGRetireInc\"/> </td> <td>                </td>            </tr>            <tr>                <td></td>                <td>Non-guaranteed Retirement Income<sup>1</sup> at <xsl:value-of select=\"*/common/highIRR\"/>% p.a.<sup>2</sup></td>                <td>: $<xsl:value-of select=\"*/cover/retireSol/poNGRetireInc\"/> </td> <td>                </td>            </tr>            <tr>                <td></td>                <td class=\"b\">Total Projected Payout</td>                <td>: <u><b>$<xsl:value-of select=\"*/cover/retireSol/poPayout\"/></b></u></td>                <td></td>                <td></td>            </tr>            <tr>                <td></td>                <td><br /></td>                <td></td>                <td></td>            </tr>            <tr>                <td></td>                <td>Total Projected Payout Ratio<sup>3</sup></td>                <td colspan=\"2\">: <xsl:value-of select=\"*/cover/retireSol/poPayoutRatio\"/> %</td> </tr> <tr>                <td></td>                <td>Guaranteed Rate of Return to You</td>                <td colspan=\"2\">: <xsl:value-of select=\"*/cover/retireSol/poGR\"/> %</td> </tr> <tr>                <td></td>                <td>Total Rate of Return to You at <xsl:value-of select=\"*/common/highIRR\"/>% p.a.<sup>2</sup></td>                <td colspan=\"2\">: <xsl:value-of select=\"*/cover/retireSol/poROR\"/> %</td> </tr> </table> </div> <div style=\"border: solid 1px; margin-top:8px; margin-bottom:8px; padding:5px;\">                        <table class=\"w100\" style=\"font-size:10pt;\">                            <colgroup>                                <col style=\"width:4%\" />                                <col style=\"width:67%\" />                                <col style=\"width:19%\" />                                <col style=\"width:10%\" />                            </colgroup>                            <tr>                                <td class=\"b\" colspan=\"5\">Retirement Income: Accumulated</td>                            </tr>                            <tr>                                <td colspan=\"5\">The below assumes the Total Retirement Income is deposited with AXA at a non-guaranteed rate of 3.00% p.a.</td>                            </tr>                            <tr>                                <td colspan=\"5\"><br /></td>                            </tr>                            <tr>                                <td></td>                                <td>Total Premiums Paid</td>                                <td>: $<xsl:value-of select=\"*/cover/retireSol/acPremiums\"/> </td> <td>                                </td>                            </tr>                            <tr>                                <td></td>                                <td><br /></td>                                <td></td>                                <td></td>                            </tr>                            <tr>                                <td></td>                                <td>Total Guaranteed Retirement Income</td>                                <td>: $<xsl:value-of select=\"*/cover/retireSol/acGRetireInc\"/> </td> <td>                                </td>                            </tr>                            <tr>                                <td></td>                                <td>Non-guaranteed Retirement Income<sup>1</sup> at <xsl:value-of select=\"*/common/highIRR\"/>% p.a.<sup>2</sup> and Non-Guaranteed Interest</td>                                <td>: $<xsl:value-of select=\"*/cover/retireSol/acNGRetireInc\"/> </td> <td>                                </td>                            </tr>                            <tr>                                <td></td>                                <td class=\"b\">Total Projected Payout</td>                                <td>: <u><b>$<xsl:value-of select=\"*/cover/retireSol/acPayout\"/></b></u></td>                                <td></td>                            </tr>                            <tr>                                <td></td>                                <td><br /></td>                                <td></td>                                <td></td>                            </tr>                            <tr>                                <td></td>                                <td>Total Projected Payout Ratio<sup>3</sup></td>                                <td colspan=\"2\">: <xsl:value-of select=\"*/cover/retireSol/acPayoutRatio\"/> %</td> </tr> <tr>                                <td></td>                                <td>Total Rate of Return to You at <xsl:value-of select=\"*/common/highIRR\"/>% p.a.<sup>2</sup></td>                                <td colspan=\"2\">: <xsl:value-of select=\"*/cover/retireSol/acROR\"/> %</td> </tr> </table> </div> <table class=\"w100\" style=\"font-size:10pt;\">                            <tr>                                <td>1. A non-guaranteed Retirement Income will be paid out together with the guaranteed Retirement Income or can be accumulated at a non-guaranteed rate of 3.00% p.a. </td>                            </tr>                            <tr>                                <td>2. This refers to the illustrated investment rate of return.</td>                            </tr>                            <tr>                                <td>3. Total Projected Payout Ratio = Total Projected Payout / Total Premiums Paid.</td>                            </tr>                        </table>    </div>"
        ],
        "zh-Hant": []
    },
    "type": "pdfTemplate",
    "version": 2
}