{
    "allowBackdate": "N",
    "budgetRules": [
        "RP",
        "SP"
    ],
    "calcAgeMethod": "nearest",
    "compCode": "08",
    "covCode": "PPU",
    "covName": {
        "en": "Payer PremiumEraser (DTPDCIUN)",
        "zh-Hant": "Payer PremiumEraser(DTPDCIUN)"
    },
    "ctyGroup": [
        "*"
    ],
    "currencies": [
        {
            "ccy": [
                "SGD",
                "USD",
                "GBP",
                "AUD",
                "EUR"
            ],
            "country": "*"
        }
    ],
    "dealerGroup": [
        "DIRECT",
        "AGENCY",
        "SINGPOST",
        "BROKER",
        "FUSION",
        "SYNERGY"
    ],
    "effDate": "2016-08-23 16:00:00",
    "entryAge": [],
    "expDate": "2118-07-26 16:00:00",
    "formulas": {
        "calcQuotFunc": "function(quotation, planInfo, planDetails) { var baseProductCode = quotation.baseProductCode; if (baseProductCode === 'ESP') { planInfo.policyTerm = quotation.plans[0].premTerm + '_YR'; planInfo.premTerm = planInfo.policyTerm; if (quotation.plans[0].premium) { quotCalc.calcPlanPrem(quotation, planInfo, planDetails); } } else { var planDetail = planDetails[planInfo.covCode]; var planInfo = _.find(quotation.plans, p => p.covCode === planDetail.covCode); if (quotation.policyOptions.planType === 'renew' && planDetail.inputConfig && planDetail.inputConfig.policyTermList && planDetail.inputConfig.policyTermList[0]) { planInfo.policyTerm = planDetail.inputConfig.policyTermList[0].value; } planInfo.premTerm = planInfo.policyTerm; if (quotation.plans[0].premium) { quotCalc.calcPlanPrem(quotation, planInfo, planDetails); } }}",
        "getAnnualBenefit": "function (quotation, planInfo, year, extraPara) {var indexation = quotation.policyOptions.indexation === 'Y'; var annualBenefit = math.bignumber(0); _.each(extraPara.illustrations, (ills, covCode) => { var ill = ills[year - 1]; if (ill) { if (covCode === quotation.baseProductCode) { annualBenefit = math.add(annualBenefit, math.bignumber(indexation ? ills[0].yearPrem : ill.yearPrem)); } else if (covCode === 'SV') { annualBenefit = math.add(annualBenefit, math.bignumber(indexation ? ills[0].yearPrem : ill.yearPrem)); } else if (covCode !== planInfo.covCode) { annualBenefit = math.add(annualBenefit, math.bignumber(ill.yearPrem)); } } }); return annualBenefit;}",
        "getCommRates": "function (quotation, planInfo, planDetails) {var rateKey = planInfo.policyTerm === planInfo.premTerm ? 'RP_' : 'LP_'; var polYrs = planInfo.policyTerm.endsWith('_YR') ? Number.parseInt(planInfo.policyTerm) : Number.parseInt(planInfo.policyTerm) - quotation.pAge; switch (quotation.dealerGroup) { case 'SYNERGY': rateKey += 'AGENCY'; break; case 'FUSION': rateKey += 'BROKER'; break; default: rateKey += quotation.dealerGroup; } var rateTable = planDetails[quotation.baseProductCode].rates.oldRiderCommRates[rateKey]; var commRates = []; if (rateTable) { var maxTerm = 0; _.each(rateTable, (rates, key) => { var rateTerm = Number(key); if (polYrs >= rateTerm && rateTerm > maxTerm) { commRates = [].concat(rates); maxTerm = rateTerm; } }); } if (commRates[commRates.length - 1]) { for (var i = commRates.length; i < 99; i++) { commRates.push(commRates[i - 1]); } } return commRates;}",
        "getESPPremRate": "function (quotation, planInfo, planDetail, age) { var roundUp = function (value, digit) { var scale = Math.pow(10, digit); if (digit === 0) { return Math.ceil(value); } else { return Math.ceil(number * scale) / scale; } }; var round = function (value, digit) { var scale = math.pow(10, digit); return math.divide(math.round(math.multiply(value, scale)), scale); }; var rateKey; if (planInfo.policyTerm.indexOf('YR') > -1) { rateKey = 'PPU';} else { rateKey = 'PPUN';}var maturityAge = quotation.pAge + Number.parseInt(planInfo.policyTerm); rateKey += '_' + quotation.pGender; rateKey += quotation.pSmoke === 'Y' ? 'S' : 'NS'; var rates = planDetail.rates.premRate[rateKey]; var netAnnualPremium = 0; var verticalKey; var horizontalKey; horizontalKey = age - 16; verticalKey = Number.parseInt(planInfo.policyTerm); if (planInfo.policyTerm.indexOf('YR') > -1) { netAnnualPremium = rates[verticalKey][horizontalKey];} else { netAnnualPremium = rates[maturityAge][horizontalKey];} return netAnnualPremium;}",
        "getPremRate": "function (quotation, planInfo, planDetail, age) {var roundUp = function (value, digit) { var scale = Math.pow(10, digit); if (digit === 0) { return Math.ceil(value); } else { return Math.ceil(number * scale) / scale; } }; var round = function(value, digit) { var scale = math.pow(10, digit); return math.divide(math.round(math.multiply(value, scale)), scale); }; var rateKey; if (planInfo.policyTerm.indexOf('YR') > -1 || quotation.policyOptions.planType === 'renew') { rateKey = 'PPU'; } else { rateKey = 'PPUN'; } rateKey += '_' + quotation.pGender; rateKey += quotation.pSmoke === 'Y' ? 'S' : 'NS'; var rates = planDetail.rates.premRate[rateKey]; var maturityAge = (planInfo.policyTerm.indexOf('TA') > -1) ? Number.parseInt(planInfo.policyTerm) : quotation.pAge + Number.parseInt(planInfo.policyTerm); var Term_WU = maturityAge - quotation.pAge; var netAnnualPremium = 0; var verticalKey; var horizontalKey; if (planInfo.policyTerm.indexOf('YR') > -1 || quotation.policyOptions.planType === 'renew') { horizontalKey = age - 16; verticalKey = math.multiply(roundUp(math.divide(Term_WU, 5), 0), 5); netAnnualPremium = rates[verticalKey][horizontalKey]; } else { horizontalKey = age - 16; verticalKey = maturityAge; netAnnualPremium = rates[verticalKey][horizontalKey]; } var loadingKey = '1'; var substdClsMapping = planDetail.rates.substdCls[quotation.pResidence]; if (substdClsMapping) { loadingKey = substdClsMapping[quotation.pResidenceCity] || substdClsMapping.ALL || '1'; } var loadingFactor = planDetail.rates.premRate.PPU_SUBSTANDARD_LOADING[loadingKey] || 1; return round(math.multiply(netAnnualPremium, loadingFactor), 2); }",
        "illustrateFunc": "function (quotation, planInfo, planDetails, extraPara) { var roundDown = function (value, digit) { var scale = math.pow(10, digit); return math.divide(math.floor(math.multiply(value, scale)), scale); }; if (quotation.baseProductCode === 'ESP') { return []; } else { var planDetail = planDetails[planInfo.covCode]; var planType = quotation.policyOptions.planType; var indexation = quotation.policyOptions.indexation === 'Y'; var polYrs = planInfo.policyTerm.endsWith('_YR') ? Number.parseInt(planInfo.policyTerm) : Number.parseInt(planInfo.policyTerm) - quotation.pAge; var premYrs; if (planInfo.premTerm === 'SP') { premYrs = 1; } else if (planInfo.premTerm.endsWith('_YR')) { premYrs = Number.parseInt(planInfo.premTerm); } else { premYrs = Number.parseInt(planInfo.premTerm) - quotation.iAge; } var sumInsured = planInfo.sumInsured; var illYrs; if (planType === 'renew') { illYrs = Math.min((Math.floor((60 - quotation.pAge) / polYrs) + 1) * polYrs, 65 - quotation.pAge); } else { illYrs = polYrs; } var bpPolYrs = quotation.plans[0].policyTerm.endsWith('_YR') ? Number.parseInt(quotation.plans[0].policyTerm) : Number.parseInt(quotation.plans[0].policyTerm) - quotation.iAge; var premRateFirstYr = math.bignumber(runFunc(planDetail.formulas.getPremRate, quotation, planInfo, planDetail, quotation.pAge)); var sumProduct = math.bignumber(0); var yearPrems = [0]; for (var i = 1; i <= illYrs; i++) { var age = quotation.pAge + i - 1; var yearPrem; if (i === 1) { yearPrem = math.bignumber(planInfo.yearPrem); } else { yearPrem = math.bignumber(0); if (planType === 'renew') { if ((i - 1) % bpPolYrs < polYrs) { var rateAge = Math.floor((i - 1) / bpPolYrs) * bpPolYrs + quotation.pAge; var premRate = math.bignumber(runFunc(planDetail.formulas.getPremRate, quotation, planInfo, planDetail, rateAge)); var annualBenefit = roundDown(runFunc(planDetail.formulas.getAnnualBenefit, quotation, planInfo, i, extraPara), 1); yearPrem = roundDown(math.divide(roundDown(math.multiply(premRate, annualBenefit), 2), 100), 2); } } else if (i <= polYrs) { var annualBenefit = roundDown(runFunc(planDetail.formulas.getAnnualBenefit, quotation, planInfo, i, extraPara), 1); var premRate = math.bignumber(runFunc(planDetail.formulas.getPremRate, quotation, planInfo, planDetail, age)); var totIndexPrem = math.bignumber(0); if (extraPara.illustrations[quotation.baseProductCode][i - 1]) { totIndexPrem = math.add(totIndexPrem, math.bignumber(extraPara.illustrations[quotation.baseProductCode][i - 1].indexPrem)); } if (extraPara.illustrations.SV && extraPara.illustrations.SV[i - 1]) { totIndexPrem = math.add(totIndexPrem, math.bignumber(extraPara.illustrations.SV[i - 1].indexPrem)); } sumProduct = math.add(sumProduct, math.multiply(premRate, totIndexPrem)); yearPrem = roundDown(math.divide(roundDown(math.multiply(premRateFirstYr, annualBenefit), 2), 100), 2); yearPrem = math.add(yearPrem, math.divide(sumProduct, 100)); } } yearPrems.push(yearPrem); } var commRates = runFunc(planDetail.formulas.getCommRates, quotation, planInfo, planDetails); var totComms = [0]; for (var i = 1; i <= illYrs; i++) { var commRate = commRates[(i - 1) % polYrs]; if (commRate) { totComms[i] = math.multiply(yearPrems[i], commRate); } } var illustration = []; var illLength = Math.max(totComms.length, yearPrems.length) - 1; for (var i = 0; i < illLength; i++) { illustration.push({ yearPrem: yearPrems[i + 1] ? math.number(yearPrems[i + 1]) : 0, totComm: totComms[i + 1] ? math.number(totComms[i + 1]) : 0 }); } return illustration; }}",
        "polTermsFunc": "function (planDetail, quotation) {var policyTermList = []; var longestPayYear = 0; if (quotation && quotation.plans && quotation.plans.length > 0 && quotation.policyOptions.planType === 'renew') { for (var v in quotation.plans) { var premTerm = quotation.plans[v].premTerm; var covCode = quotation.plans[v].covCode; var policyTermValueAndType = (premTerm) ? premTerm.split('_') : []; if (policyTermValueAndType[0] && policyTermValueAndType[1] && policyTermValueAndType[1] === 'YR' && Number.parseInt(premTerm) > longestPayYear && covCode !== 'PPU') { longestPayYear = Number.parseInt(premTerm); } else if (policyTermValueAndType[0] && policyTermValueAndType[1] && policyTermValueAndType[1] === 'TA' && (Number.parseInt(premTerm) - quotation.iAge) > longestPayYear && covCode !== 'PPU') { longestPayYear = Number.parseInt(premTerm) - quotation.iAge; } } var values = [5, 10, 15, 20, 25, 30]; if ((quotation.pAge + longestPayYear) >= 50 && longestPayYear !== 0) { policyTermList.push({ value: 50 + '_TA', title: 'To Age 50', default: true }); } else if (longestPayYear >= 30) { policyTermList.push({ value: 30 + '_YR', title: '30 Years', default: true }); } else if (longestPayYear !== 0) { for (var v in values) { var value = values[v]; var testValue = value - longestPayYear; if ( testValue < 5 && testValue >=0 ) { policyTermList.push({ value: value + '_YR', title: value + ' Years', default: true }); } } } } else if (quotation && quotation.plans && quotation.plans.length > 0 && quotation.policyOptions.planType === 'toAge') { var lpVals = {}; var payYear = null; _.each(quotation.plans, (plan) => { if (plan.covCode !== planDetail.covCode && plan.premTerm) { var premTerm = plan.premTerm; if (premTerm.indexOf('YR') > -1) { lpVals[premTerm] = Number.parseInt(premTerm); payYear = Math.max(payYear, Number.parseInt(premTerm)); } else if (premTerm.indexOf('TA') > -1) { payYear = Math.max(payYear, Number.parseInt(premTerm) - quotation.iAge); } } }); _.each(lpVals, (val) => { policyTermList.push({ value: val + '_YR', title: val + ' Years' }); }); if (quotation.pAge + payYear >= 50 && 50 - quotation.pAge >= 5) { policyTermList.push({ value: '50_TA', title: 'To Age 50' }); } } return policyTermList.sort((a, b) => a.value > b.value);}",
        "premFunc": "function (quotation, planInfo, planDetail) { var roundDown = function (value, digit) { var scale = math.pow(10, digit); return math.divide(math.floor(math.multiply(value, scale)), scale); }; var roundUp = function (value, digit) { var scale = Math.pow(10, digit); if (digit === 0) { return Math.ceil(value); } else { return Math.ceil(number * scale) / scale; } }; var numberTrunc = function (value = 0, digit) { value = value.toString(); if (value.indexOf('.') === -1) { return math.bignumber(Number.parseInt(value)); } else { value = value.substr(0, value.indexOf('.') + digit + 1); return math.bignumber(Number.parseFloat(value)); } }; var round = function (value, digit) { var scale = math.pow(10, digit); return math.divide(math.round(math.multiply(value, scale)), scale); }; var premium = null; if (quotation.baseProductCode === 'ESP') { premium = math.number(numberTrunc(math.divide(math.multiply(math.bignumber(runFunc(planDetail.formulas.getESPPremRate, quotation, planInfo, planDetail, quotation.pAge)), math.add(math.bignumber(_.get(quotation, 'plans[0].yearPrem', 0)), math.bignumber(_.get(quotation, 'plans[1].yearPrem', 0)))), 100), 2)); var modalFactor = 1; for (var p in planDetail.payModes) { if (planDetail.payModes[p].mode === quotation.paymentMode) { modalFactor = planDetail.payModes[p].factor; } } premium = (modalFactor === 1) ? premium : roundDown(math.multiply(premium, modalFactor), 2); } else if (planInfo.premTerm && planInfo.policyTerm && quotation.plans[0] && quotation.plans[0].premium) { var covCodeArr = ['TPX', 'TPPX', 'DIS', 'CRX', 'DCB', 'CIP', 'AP', 'SV']; var AB_WU = 0; for (var v in quotation.plans) { if (covCodeArr.indexOf(quotation.plans[v].covCode) > -1) { AB_WU += quotation.plans[v].yearPrem; } } var naP = runFunc(planDetail.formulas.getPremRate, quotation, planInfo, planDetail, quotation.pAge); premium = round(roundDown(math.divide(roundDown(math.multiply(naP, roundDown(AB_WU, 1)), 2), 100), 2), 2); var modalFactor = 1; for (var p in planDetail.payModes) { if (planDetail.payModes[p].mode === quotation.paymentMode) { modalFactor = planDetail.payModes[p].factor; } } premium = (modalFactor === 1) ? premium : roundDown(math.multiply(premium, modalFactor), 2); } else { premium = 0; } return premium;}",
        "premTermsFunc": "",
        "prepareClassConfig": "",
        "prepareSAPremConfig": "",
        "prepareTermConfig": "function (planDetail, quotation, planDetails) { var baseProductCode = quotation.baseProductCode; if (baseProductCode === 'ESP') { let basicDetail = planDetails[quotation.baseProductCode]; let polTermList = []; for (var index = 5; index <= 10; index++) { polTermList.push({ value: index + '_YR', title: index + ' Years', default: true }); polTermList.push({ value: index + '_TA', title: index + ' Years', default: true}); } planDetail.inputConfig.canEditPolicyTerm = false; planDetail.inputConfig.policyTermList = polTermList; planDetail.inputConfig.canEditPremTerm = false; planDetail.inputConfig.premTermList = polTermList; if (basicDetail && basicDetail.policyTerm) { planDetail.policyTerm = basicDetail.policyTerm; } else { planDetail.policyTerm = null; } if (basicDetail && basicDetail.premTerm) { planDetail.premTerm = basicDetail.premTerm; } else { planDetail.premTerm = null; } } else { let polTermList = quotDriver.runFunc(planDetail.formulas.polTermsFunc, planDetail, quotation); if (polTermList && polTermList.length) { for (let p in polTermList) { if (polTermList[p].default) { planDetail.inputConfig.defaultPolicyTerm = polTermList[p].value; break; } } } planDetail.inputConfig.canEditPolicyTerm = quotation.policyOptions.planType === 'toAge'; planDetail.inputConfig.policyTermList = polTermList; let premTermList = [...polTermList]; if (premTermList && premTermList.length) { for (let p in premTermList) { if (premTermList[p].default) { planDetail.inputConfig.premTerm = premTermList[p].value; break; } } } planDetail.inputConfig.canEditPremTerm = false; planDetail.inputConfig.premTermList = premTermList; let planInfo = _.find(quotation.plans, p => p.covCode === planDetail.covCode); if (polTermList.length === 1) { planInfo.policyTerm = polTermList[0].value; } else if (planInfo && !polTermList.find((opt) => opt.value === planInfo.policyTerm)) { planInfo.policyTerm = null; } if (premTermList.length === 1) { planInfo.premTerm = premTermList[0].value; } else if (planInfo && !premTermList.find((opt) => opt.value === planInfo.premTerm)) { planInfo.premTerm = null; } }}",
        "saFunc": "",
        "validAfterCalcFunc": "function(quotation, planInfo, planDetail) { /**PPU validAfterCalcFunc*/ var round = function (number, precision) { var factor = Math.pow(10, precision); return Math.round(number * factor) / factor; }; var paddingZeroStr = function (number) { if (number < 10 && number >= 0) { return '0' + number; } else if (number < 0) { return '00'; } else { return number; } }; var defaultArr = ['ESP']; if (defaultArr.indexOf(quotation.baseProductCode) > -1 && quotation && quotation.plans && quotation.plans.length) { if (planInfo.policyTerm) { var planCode; if (planInfo.policyTerm.indexOf('TA') > -1) { planCode = 'PPU' + paddingZeroStr(Number.parseInt(planInfo.policyTerm) + quotation.pAge); } else { planCode = paddingZeroStr(Number.parseInt(planInfo.policyTerm)) + 'PPUN'; } planInfo.planCode = planCode; } if (!quotation.plans[0].premium) { planInfo.premium = planInfo.yearPrem = planInfo.halfYearPrem = planInfo.quarterPrem = planInfo.monthPrem = quotation.plans[0].premium; } if (planInfo.premium) { planInfo.policyTermYr = Number.parseInt(planInfo.policyTerm); if (planInfo.premTerm === 'SP') { planInfo.premTermYr = 1; } else { planInfo.premTermYr = Number.parseInt(planInfo.premTerm); } } } else if (quotation && quotation.plans && quotation.plans.length && quotation.plans[0].policyTerm) { if (planInfo.policyTerm) { var planCode; if (quotation.plans[0].policyTerm.indexOf('TA') > -1) { var selectedPolicyTermVal = paddingZeroStr(Number.parseInt(planInfo.policyTerm)); if (planInfo.policyTerm.indexOf('TA') > -1) { planCode = 'PPU' + selectedPolicyTermVal; } else { planCode = selectedPolicyTermVal + 'PPUN'; } } else { if (planInfo.policyTerm.indexOf('TA') > -1) { planCode = paddingZeroStr(Number.parseInt(quotation.plans[0].policyTerm)) + 'PPU'; } else { planCode = paddingZeroStr(Number.parseInt(planInfo.policyTerm)) + 'PPU'; } } planInfo.planCode = planCode; } if (planInfo.premium) { planInfo.policyTermYr = planInfo.policyTerm.endsWith('_YR') ? Number.parseInt(planInfo.policyTerm) : Number.parseInt(planInfo.policyTerm) - quotation.iAge; if (planInfo.premTerm === 'SP') { planInfo.premTermYr = 1; } else if (planInfo.premTerm.endsWith('_YR')) { planInfo.premTermYr = Number.parseInt(planInfo.premTerm); } else { planInfo.premTermYr = Number.parseInt(planInfo.premTerm) - quotation.iAge; } } }}",
        "validBeforeCalcFunc": "",
        "validQuotFunc": "",
        "willValidQuotFunc": ""
    },
    "genderInd": "*",
    "payModes": [
        {
            "covMonth": 12,
            "default": "",
            "factor": 1,
            "mode": "A",
            "operator": "M"
        },
        {
            "covMonth": 6,
            "default": "",
            "factor": 0.51,
            "mode": "S",
            "operator": "M"
        },
        {
            "covMonth": 3,
            "default": "",
            "factor": 0.26,
            "mode": "Q",
            "operator": "M"
        },
        {
            "covMonth": 1,
            "default": "",
            "factor": 0.0875,
            "mode": "M",
            "operator": "M"
        },
        {
            "covMonth": 0,
            "default": "",
            "factor": 1,
            "mode": "L",
            "operator": "M"
        }
    ],
    "planInd": "R",
    "premType": "L",
    "prodFeature": {},
    "prod_summary": 1689748,
    "productCategory": "protectionOnly",
    "productLine": "CIT",
    "rates": {
        "premRate": {
            "PPUN_FNS": {
                "50": [
                    2.19,
                    2.26,
                    2.68,
                    2.73,
                    2.77,
                    2.94,
                    3.06,
                    3.17,
                    3.25,
                    3.3,
                    3.53,
                    3.72,
                    3.89,
                    4.03,
                    4.15,
                    4.39,
                    4.58,
                    4.74,
                    4.85,
                    4.9,
                    5.08,
                    5.2,
                    5.25,
                    5.29,
                    5.34,
                    5.42,
                    5.49,
                    5.58,
                    5.65,
                    5.73
                ]
            },
            "PPUN_FS": {
                "50": [
                    2.19,
                    2.26,
                    2.68,
                    2.73,
                    2.77,
                    2.94,
                    3.06,
                    3.17,
                    3.25,
                    3.3,
                    3.53,
                    3.72,
                    3.89,
                    4.03,
                    4.15,
                    4.39,
                    4.58,
                    4.74,
                    4.85,
                    4.9,
                    5.08,
                    5.2,
                    5.25,
                    5.29,
                    5.34,
                    5.42,
                    5.49,
                    5.58,
                    5.65,
                    5.73
                ]
            },
            "PPUN_MNS": {
                "50": [
                    2.31,
                    2.44,
                    2.93,
                    3.05,
                    3.17,
                    3.25,
                    3.28,
                    3.31,
                    3.34,
                    3.37,
                    3.42,
                    3.53,
                    3.61,
                    3.65,
                    3.69,
                    3.9,
                    4.09,
                    4.25,
                    4.35,
                    4.39,
                    4.66,
                    4.85,
                    4.96,
                    5,
                    5.05,
                    5.13,
                    5.2,
                    5.29,
                    5.36,
                    5.44
                ]
            },
            "PPUN_MS": {
                "50": [
                    2.31,
                    2.44,
                    2.93,
                    3.05,
                    3.17,
                    3.25,
                    3.28,
                    3.31,
                    3.34,
                    3.37,
                    3.42,
                    3.53,
                    3.61,
                    3.65,
                    3.69,
                    3.9,
                    4.09,
                    4.25,
                    4.35,
                    4.39,
                    4.66,
                    4.85,
                    4.96,
                    5,
                    5.05,
                    5.13,
                    5.2,
                    5.29,
                    5.36,
                    5.44
                ]
            },
            "PPU_FNS": {
                "5": [
                    0.34,
                    0.4,
                    0.71,
                    0.78,
                    0.86,
                    0.99,
                    1.12,
                    1.24,
                    1.35,
                    1.48,
                    1.58,
                    1.7,
                    1.79,
                    1.9,
                    2.01,
                    2.11,
                    2.22,
                    2.33,
                    2.44,
                    2.63,
                    2.84,
                    3.06,
                    3.32,
                    3.61,
                    3.89,
                    4.24,
                    4.59,
                    5.01,
                    5.47,
                    5.94,
                    6.03,
                    6.11,
                    6.29,
                    6.55,
                    6.8,
                    7.44,
                    8.09,
                    8.84,
                    9.73,
                    10.67,
                    11.64,
                    12.65,
                    13.71,
                    14.82,
                    15.96
                ],
                "10": [
                    0.67,
                    0.74,
                    1.05,
                    1.12,
                    1.22,
                    1.34,
                    1.46,
                    1.57,
                    1.7,
                    1.82,
                    1.93,
                    2.04,
                    2.15,
                    2.26,
                    2.45,
                    2.66,
                    2.88,
                    3.13,
                    3.42,
                    3.69,
                    4,
                    4.31,
                    4.7,
                    5.12,
                    5.55,
                    6.04,
                    6.51,
                    7.11,
                    7.76,
                    8.42,
                    8.74,
                    9.07,
                    9.49,
                    10.06,
                    10.67,
                    11.64,
                    12.65,
                    13.71,
                    14.82,
                    15.96,
                    15.96,
                    15.96,
                    15.96,
                    15.96,
                    15.96
                ],
                "15": [
                    1.01,
                    1.08,
                    1.41,
                    1.5,
                    1.58,
                    1.69,
                    1.81,
                    1.93,
                    2.05,
                    2.21,
                    2.42,
                    2.65,
                    2.87,
                    3.1,
                    3.33,
                    3.7,
                    4.05,
                    4.4,
                    4.76,
                    5.1,
                    5.63,
                    6.15,
                    6.68,
                    7.21,
                    7.73,
                    8.56,
                    9.37,
                    10.21,
                    11.02,
                    11.84,
                    12.67,
                    13.5,
                    14.32,
                    15.15,
                    15.96,
                    15.96,
                    15.96,
                    15.96,
                    15.96,
                    15.96,
                    15.96,
                    15.96,
                    15.96,
                    15.96,
                    15.96
                ],
                "20": [
                    1.34,
                    1.41,
                    1.78,
                    1.87,
                    1.99,
                    2.11,
                    2.29,
                    2.45,
                    2.62,
                    2.81,
                    3.11,
                    3.4,
                    3.71,
                    4.02,
                    4.32,
                    4.79,
                    5.25,
                    5.72,
                    6.18,
                    6.64,
                    7.34,
                    8.05,
                    8.75,
                    9.45,
                    10.16,
                    11.25,
                    12.34,
                    13.44,
                    14.53,
                    15.63,
                    16.5,
                    16.63,
                    16.61,
                    16.29,
                    15.96,
                    15.96,
                    15.96,
                    15.96,
                    15.96,
                    15.96,
                    15.96,
                    15.96,
                    15.96,
                    15.96,
                    15.96
                ],
                "25": [
                    1.68,
                    1.76,
                    2.19,
                    2.3,
                    2.43,
                    2.62,
                    2.83,
                    3.04,
                    3.24,
                    3.44,
                    3.81,
                    4.19,
                    4.56,
                    4.93,
                    5.31,
                    5.89,
                    6.48,
                    7.06,
                    7.64,
                    8.2,
                    9.09,
                    9.97,
                    10.86,
                    11.73,
                    12.62,
                    13.85,
                    14.5,
                    15.12,
                    15.55,
                    15.63,
                    16.5,
                    16.63,
                    16.61,
                    16.29,
                    15.96,
                    15.96,
                    15.96,
                    15.96,
                    15.96,
                    15.96,
                    15.96,
                    15.96,
                    15.96,
                    15.96,
                    15.96
                ],
                "30": [
                    2,
                    2.11,
                    2.6,
                    2.73,
                    2.89,
                    3.17,
                    3.42,
                    3.69,
                    3.95,
                    4.22,
                    4.68,
                    5.15,
                    5.61,
                    6.07,
                    6.54,
                    7.26,
                    7.97,
                    8.68,
                    9.39,
                    10.08,
                    11.01,
                    11.51,
                    12.03,
                    12.57,
                    12.62,
                    13.85,
                    14.5,
                    15.12,
                    15.55,
                    15.63,
                    16.5,
                    16.63,
                    16.61,
                    16.29,
                    15.96,
                    15.96,
                    15.96,
                    15.96,
                    15.96,
                    15.96,
                    15.96,
                    15.96,
                    15.96,
                    15.96,
                    15.96
                ]
            },
            "PPU_FS": {
                "5": [
                    0.34,
                    0.4,
                    0.71,
                    0.78,
                    0.86,
                    0.99,
                    1.12,
                    1.24,
                    1.35,
                    1.48,
                    1.58,
                    1.7,
                    1.79,
                    1.9,
                    2.01,
                    2.11,
                    2.22,
                    2.33,
                    2.44,
                    2.63,
                    2.84,
                    3.06,
                    3.32,
                    3.61,
                    3.89,
                    4.24,
                    4.59,
                    5.01,
                    5.47,
                    5.94,
                    6.03,
                    6.11,
                    6.29,
                    6.55,
                    6.8,
                    7.44,
                    8.09,
                    8.84,
                    9.73,
                    10.67,
                    11.64,
                    12.65,
                    13.71,
                    14.82,
                    15.96
                ],
                "10": [
                    0.67,
                    0.74,
                    1.05,
                    1.12,
                    1.22,
                    1.34,
                    1.46,
                    1.57,
                    1.7,
                    1.82,
                    1.93,
                    2.04,
                    2.15,
                    2.26,
                    2.45,
                    2.66,
                    2.88,
                    3.13,
                    3.42,
                    3.69,
                    4,
                    4.31,
                    4.7,
                    5.12,
                    5.55,
                    6.04,
                    6.51,
                    7.11,
                    7.76,
                    8.42,
                    8.74,
                    9.07,
                    9.49,
                    10.06,
                    10.67,
                    11.64,
                    12.65,
                    13.71,
                    14.82,
                    15.96,
                    15.96,
                    15.96,
                    15.96,
                    15.96,
                    15.96
                ],
                "15": [
                    1.01,
                    1.08,
                    1.41,
                    1.5,
                    1.58,
                    1.69,
                    1.81,
                    1.93,
                    2.05,
                    2.21,
                    2.42,
                    2.65,
                    2.87,
                    3.1,
                    3.33,
                    3.7,
                    4.05,
                    4.4,
                    4.76,
                    5.1,
                    5.63,
                    6.15,
                    6.68,
                    7.21,
                    7.73,
                    8.56,
                    9.37,
                    10.21,
                    11.02,
                    11.84,
                    12.67,
                    13.5,
                    14.32,
                    15.15,
                    15.96,
                    15.96,
                    15.96,
                    15.96,
                    15.96,
                    15.96,
                    15.96,
                    15.96,
                    15.96,
                    15.96,
                    15.96
                ],
                "20": [
                    1.34,
                    1.41,
                    1.78,
                    1.87,
                    1.99,
                    2.11,
                    2.29,
                    2.45,
                    2.62,
                    2.81,
                    3.11,
                    3.4,
                    3.71,
                    4.02,
                    4.32,
                    4.79,
                    5.25,
                    5.72,
                    6.18,
                    6.64,
                    7.34,
                    8.05,
                    8.75,
                    9.45,
                    10.16,
                    11.25,
                    12.34,
                    13.44,
                    14.53,
                    15.63,
                    16.5,
                    16.63,
                    16.61,
                    16.29,
                    15.96,
                    15.96,
                    15.96,
                    15.96,
                    15.96,
                    15.96,
                    15.96,
                    15.96,
                    15.96,
                    15.96,
                    15.96
                ],
                "25": [
                    1.68,
                    1.76,
                    2.19,
                    2.3,
                    2.43,
                    2.62,
                    2.83,
                    3.04,
                    3.24,
                    3.44,
                    3.81,
                    4.19,
                    4.56,
                    4.93,
                    5.31,
                    5.89,
                    6.48,
                    7.06,
                    7.64,
                    8.2,
                    9.09,
                    9.97,
                    10.86,
                    11.73,
                    12.62,
                    13.85,
                    14.5,
                    15.12,
                    15.55,
                    15.63,
                    16.5,
                    16.63,
                    16.61,
                    16.29,
                    15.96,
                    15.96,
                    15.96,
                    15.96,
                    15.96,
                    15.96,
                    15.96,
                    15.96,
                    15.96,
                    15.96,
                    15.96
                ],
                "30": [
                    2,
                    2.11,
                    2.6,
                    2.73,
                    2.89,
                    3.17,
                    3.42,
                    3.69,
                    3.95,
                    4.22,
                    4.68,
                    5.15,
                    5.61,
                    6.07,
                    6.54,
                    7.26,
                    7.97,
                    8.68,
                    9.39,
                    10.08,
                    11.01,
                    11.51,
                    12.03,
                    12.57,
                    12.62,
                    13.85,
                    14.5,
                    15.12,
                    15.55,
                    15.63,
                    16.5,
                    16.63,
                    16.61,
                    16.29,
                    15.96,
                    15.96,
                    15.96,
                    15.96,
                    15.96,
                    15.96,
                    15.96,
                    15.96,
                    15.96,
                    15.96,
                    15.96
                ]
            },
            "PPU_MNS": {
                "5": [
                    0.32,
                    0.4,
                    0.71,
                    0.79,
                    0.87,
                    1.02,
                    1.16,
                    1.28,
                    1.41,
                    1.55,
                    1.68,
                    1.82,
                    1.94,
                    2.08,
                    2.21,
                    2.35,
                    2.48,
                    2.61,
                    2.74,
                    2.87,
                    3.02,
                    3.16,
                    3.31,
                    3.45,
                    3.6,
                    3.82,
                    4.23,
                    4.66,
                    5.14,
                    5.63,
                    5.77,
                    6.01,
                    6.31,
                    6.64,
                    7.01,
                    7.75,
                    8.72,
                    9.8,
                    10.89,
                    12.09,
                    13.3,
                    14.65,
                    16.14,
                    17.63,
                    19.12
                ],
                "10": [
                    0.7,
                    0.78,
                    1.09,
                    1.18,
                    1.29,
                    1.44,
                    1.58,
                    1.72,
                    1.88,
                    2.02,
                    2.17,
                    2.3,
                    2.43,
                    2.56,
                    2.69,
                    2.84,
                    2.98,
                    3.12,
                    3.26,
                    3.4,
                    3.57,
                    3.95,
                    4.35,
                    4.79,
                    5.24,
                    5.77,
                    6.41,
                    7.13,
                    7.85,
                    8.63,
                    9.03,
                    9.7,
                    10.45,
                    11.22,
                    12.09,
                    13.3,
                    14.65,
                    16.14,
                    17.63,
                    19.12,
                    19.12,
                    19.12,
                    19.12,
                    19.12,
                    19.12
                ],
                "15": [
                    1.08,
                    1.19,
                    1.55,
                    1.68,
                    1.78,
                    1.93,
                    2.07,
                    2.21,
                    2.35,
                    2.49,
                    2.64,
                    2.77,
                    2.92,
                    3.05,
                    3.19,
                    3.33,
                    3.6,
                    3.91,
                    4.25,
                    4.56,
                    5.17,
                    5.76,
                    6.37,
                    6.96,
                    7.56,
                    8.57,
                    9.57,
                    10.58,
                    11.59,
                    12.59,
                    13.84,
                    15.08,
                    16.32,
                    17.55,
                    18.78,
                    19.12,
                    19.12,
                    19.12,
                    19.12,
                    19.12,
                    19.12,
                    19.12,
                    19.12,
                    19.12,
                    19.12
                ],
                "20": [
                    1.45,
                    1.58,
                    2,
                    2.16,
                    2.31,
                    2.44,
                    2.57,
                    2.71,
                    2.84,
                    2.99,
                    3.13,
                    3.25,
                    3.41,
                    3.62,
                    3.84,
                    4.25,
                    4.69,
                    5.15,
                    5.59,
                    6.02,
                    6.85,
                    7.66,
                    8.48,
                    9.3,
                    10.11,
                    11.47,
                    12.83,
                    14.2,
                    15.54,
                    16.9,
                    18.15,
                    18.61,
                    19.01,
                    19.11,
                    18.78,
                    19.12,
                    19.12,
                    19.12,
                    19.12,
                    19.12,
                    19.12,
                    19.12,
                    19.12,
                    19.12,
                    19.12
                ],
                "25": [
                    1.81,
                    1.96,
                    2.46,
                    2.65,
                    2.84,
                    2.96,
                    3.08,
                    3.23,
                    3.36,
                    3.51,
                    3.7,
                    3.99,
                    4.28,
                    4.56,
                    4.85,
                    5.47,
                    6.07,
                    6.67,
                    7.28,
                    7.87,
                    8.93,
                    9.97,
                    11.02,
                    12.06,
                    13.12,
                    14.42,
                    15.13,
                    15.93,
                    16.79,
                    16.9,
                    18.15,
                    18.61,
                    19.01,
                    19.11,
                    18.78,
                    19.12,
                    19.12,
                    19.12,
                    19.12,
                    19.12,
                    19.12,
                    19.12,
                    19.12,
                    19.12,
                    19.12
                ],
                "30": [
                    2.15,
                    2.33,
                    2.88,
                    3.09,
                    3.31,
                    3.48,
                    3.65,
                    3.83,
                    4.02,
                    4.2,
                    4.58,
                    5,
                    5.4,
                    5.81,
                    6.22,
                    7.01,
                    7.8,
                    8.6,
                    9.37,
                    10.15,
                    11.19,
                    11.8,
                    12.42,
                    13.06,
                    13.12,
                    14.42,
                    15.13,
                    15.93,
                    16.79,
                    16.9,
                    18.15,
                    18.61,
                    19.01,
                    19.11,
                    18.78,
                    19.12,
                    19.12,
                    19.12,
                    19.12,
                    19.12,
                    19.12,
                    19.12,
                    19.12,
                    19.12,
                    19.12
                ]
            },
            "PPU_MS": {
                "5": [
                    0.32,
                    0.4,
                    0.71,
                    0.79,
                    0.87,
                    1.02,
                    1.16,
                    1.28,
                    1.41,
                    1.55,
                    1.68,
                    1.82,
                    1.94,
                    2.08,
                    2.21,
                    2.35,
                    2.48,
                    2.61,
                    2.74,
                    2.87,
                    3.02,
                    3.16,
                    3.31,
                    3.45,
                    3.6,
                    3.82,
                    4.23,
                    4.66,
                    5.14,
                    5.63,
                    5.77,
                    6.01,
                    6.31,
                    6.64,
                    7.01,
                    7.75,
                    8.72,
                    9.8,
                    10.89,
                    12.09,
                    13.3,
                    14.65,
                    16.14,
                    17.63,
                    19.12
                ],
                "10": [
                    0.7,
                    0.78,
                    1.09,
                    1.18,
                    1.29,
                    1.44,
                    1.58,
                    1.72,
                    1.88,
                    2.02,
                    2.17,
                    2.3,
                    2.43,
                    2.56,
                    2.69,
                    2.84,
                    2.98,
                    3.12,
                    3.26,
                    3.4,
                    3.57,
                    3.95,
                    4.35,
                    4.79,
                    5.24,
                    5.77,
                    6.41,
                    7.13,
                    7.85,
                    8.63,
                    9.03,
                    9.7,
                    10.45,
                    11.22,
                    12.09,
                    13.3,
                    14.65,
                    16.14,
                    17.63,
                    19.12,
                    19.12,
                    19.12,
                    19.12,
                    19.12,
                    19.12
                ],
                "15": [
                    1.08,
                    1.19,
                    1.55,
                    1.68,
                    1.78,
                    1.93,
                    2.07,
                    2.21,
                    2.35,
                    2.49,
                    2.64,
                    2.77,
                    2.92,
                    3.05,
                    3.19,
                    3.33,
                    3.6,
                    3.91,
                    4.25,
                    4.56,
                    5.17,
                    5.76,
                    6.37,
                    6.96,
                    7.56,
                    8.57,
                    9.57,
                    10.58,
                    11.59,
                    12.59,
                    13.84,
                    15.08,
                    16.32,
                    17.55,
                    18.78,
                    19.12,
                    19.12,
                    19.12,
                    19.12,
                    19.12,
                    19.12,
                    19.12,
                    19.12,
                    19.12,
                    19.12
                ],
                "20": [
                    1.45,
                    1.58,
                    2,
                    2.16,
                    2.31,
                    2.44,
                    2.57,
                    2.71,
                    2.84,
                    2.99,
                    3.13,
                    3.25,
                    3.41,
                    3.62,
                    3.84,
                    4.25,
                    4.69,
                    5.15,
                    5.59,
                    6.02,
                    6.85,
                    7.66,
                    8.48,
                    9.3,
                    10.11,
                    11.47,
                    12.83,
                    14.2,
                    15.54,
                    16.9,
                    18.15,
                    18.61,
                    19.01,
                    19.11,
                    18.78,
                    19.12,
                    19.12,
                    19.12,
                    19.12,
                    19.12,
                    19.12,
                    19.12,
                    19.12,
                    19.12,
                    19.12
                ],
                "25": [
                    1.81,
                    1.96,
                    2.46,
                    2.65,
                    2.84,
                    2.96,
                    3.08,
                    3.23,
                    3.36,
                    3.51,
                    3.7,
                    3.99,
                    4.28,
                    4.56,
                    4.85,
                    5.47,
                    6.07,
                    6.67,
                    7.28,
                    7.87,
                    8.93,
                    9.97,
                    11.02,
                    12.06,
                    13.12,
                    14.42,
                    15.13,
                    15.93,
                    16.79,
                    16.9,
                    18.15,
                    18.61,
                    19.01,
                    19.11,
                    18.78,
                    19.12,
                    19.12,
                    19.12,
                    19.12,
                    19.12,
                    19.12,
                    19.12,
                    19.12,
                    19.12,
                    19.12
                ],
                "30": [
                    2.15,
                    2.33,
                    2.88,
                    3.09,
                    3.31,
                    3.48,
                    3.65,
                    3.83,
                    4.02,
                    4.2,
                    4.58,
                    5,
                    5.4,
                    5.81,
                    6.22,
                    7.01,
                    7.8,
                    8.6,
                    9.37,
                    10.15,
                    11.19,
                    11.8,
                    12.42,
                    13.06,
                    13.12,
                    14.42,
                    15.13,
                    15.93,
                    16.79,
                    16.9,
                    18.15,
                    18.61,
                    19.01,
                    19.11,
                    18.78,
                    19.12,
                    19.12,
                    19.12,
                    19.12,
                    19.12,
                    19.12,
                    19.12,
                    19.12,
                    19.12,
                    19.12
                ]
            },
            "PPU_SUBSTANDARD_LOADING": {
                "1": 1,
                "2": 1.03,
                "3": 1.08,
                "4": 1.11,
                "5": 1.15,
                "1A": 1.09,
                "1B": 1.17,
                "1C": 1.25,
                "1D": 1.33,
                "1E": 1.42,
                "1F": 1.5,
                "1G": 1.58,
                "1H": 1.67,
                "A1": 1.11,
                "AA": 1.17,
                "AB": 1.25,
                "AC": 1.33,
                "AD": 1.42,
                "AE": 1.5,
                "AF": 1.59,
                "AG": 1.66,
                "AH": 1.75,
                "B1": 1.23,
                "BA": 1.29,
                "BB": 1.33,
                "BC": 1.42,
                "BD": 1.5,
                "BE": 1.58,
                "BF": 1.67,
                "BG": 1.75,
                "BH": 1.84,
                "C1": 1.35,
                "CA": 1.4,
                "CB": 1.45,
                "CC": 1.5,
                "CD": 1.58,
                "CE": 1.67,
                "CF": 1.75,
                "CG": 1.84,
                "CH": 1.91,
                "D1": 1.47,
                "DA": 1.51,
                "DB": 1.57,
                "DC": 1.62,
                "DD": 1.67,
                "DE": 1.75,
                "DF": 1.84,
                "DG": 1.91,
                "DH": 2,
                "E1": 1.58,
                "EA": 1.64,
                "EB": 1.69,
                "EC": 1.73,
                "ED": 1.78,
                "EE": 1.84,
                "EF": 1.91,
                "EG": 2,
                "EH": 2.08,
                "F1": 1.7,
                "FA": 1.75,
                "FB": 1.8,
                "FC": 1.85,
                "FD": 1.9,
                "FE": 1.95,
                "FF": 2,
                "FG": 2.08,
                "FH": 2.17,
                "G1": 1.82,
                "GA": 1.86,
                "GB": 1.91,
                "GC": 1.97,
                "GD": 2.02,
                "GE": 2.07,
                "GF": 2.11,
                "GG": 2.17,
                "GH": 2.25,
                "H1": 1.93,
                "HA": 1.98,
                "HB": 2.03,
                "HC": 2.08,
                "HD": 2.13,
                "HE": 2.18,
                "HF": 2.24,
                "HG": 2.28,
                "HH": 2.33
            }
        },
        "substdCls": {
            "R134": {
                "ALL": "BB"
            },
            "R52": {
                "ALL": "BB"
            },
            "R54": {
                "ALL": "BB",
                "T120": "BB"
            }
        }
    },
    "releaseDate": "2019-02-22 08:28:44",
    "remarks": {
        "en": "",
        "zh-Hant": "Payer PremiumEraser(DTPDCIUN)"
    },
    "smokeInd": "*",
    "status": "A",
    "type": "product",
    "version": 4
}