{
    "allowBackdate": "N",
    "budgetRules": [
        "RP",
        "SP"
    ],
    "calcAgeMethod": "nearest",
    "ccyDesc": {},
    "compCode": "08",
    "corpInd": "N",
    "covCode": "PUN",
    "covName": {
        "en": "Payer PremiumEraser (DTPDUN)",
        "zh-Hant": "Payer PremiumEraser(DTPDUN)"
    },
    "create": "Danny.Yuen  on 05 Jan 2018 16:25:26",
    "ctyGroup": [
        "*"
    ],
    "currencies": [
        {
            "ccy": [
                "AUD",
                "GBP",
                "USD",
                "SGD",
                "EUR"
            ],
            "country": "*"
        }
    ],
    "dealerGroup": [
        "DIRECT",
        "AGENCY",
        "BROKER",
        "SINGPOST"
    ],
    "effDate": "2016-08-24 00:00:00",
    "entryAge": [],
    "expDate": "2047-01-05 16:25:10",
    "formulas": {
        "calcQuotFunc": "function (quotation, planInfo, planDetails) {  var baseProductCode = quotation.baseProductCode;  if (baseProductCode === 'ESP') {    if (quotation.plans[0].premTerm) {      planInfo.policyTerm = quotation.plans[0].premTerm + '_YR';      planInfo.premTerm = planInfo.policyTerm;    }    if (quotation.plans[0].premium) {      quotCalc.calcPlanPrem(quotation, planInfo, planDetails);    }  } else {    var planDetail = planDetails[planInfo.covCode];    var planInfo = _.find(quotation.plans, p => p.covCode === planDetail.covCode);    if (quotation.policyOptions.planType === 'renew' && planDetail.inputConfig && planDetail.inputConfig.policyTermList && planDetail.inputConfig.policyTermList[0]) {      planInfo.policyTerm = planDetail.inputConfig.policyTermList[0].value;    }    planInfo.premTerm = planInfo.policyTerm;    if (quotation.plans[0].premium) {      quotCalc.calcPlanPrem(quotation, planInfo, planDetails);    }  }}",
        "getAnnualBenefit": "function (quotation, planInfo, year, extraPara) {var indexation = quotation.policyOptions.indexation === 'Y'; var annualBenefit = math.bignumber(0); _.each(extraPara.illustrations, (ills, covCode) => { var ill = ills[year - 1]; if (ill) { if (covCode === quotation.baseProductCode) { annualBenefit = math.add(annualBenefit, math.bignumber(indexation ? ills[0].yearPrem : ill.yearPrem)); } else if (covCode === 'SV') { annualBenefit = math.add(annualBenefit, math.bignumber(indexation ? ills[0].yearPrem : ill.yearPrem)); } else if (covCode !== planInfo.covCode) { annualBenefit = math.add(annualBenefit, math.bignumber(ill.yearPrem)); } } }); return annualBenefit;}",
        "getCommRates": "function (quotation, planInfo, planDetails) {var rateKey = planInfo.policyTerm === planInfo.premTerm ? 'RP_' : 'LP_'; var polYrs = planInfo.policyTerm.endsWith('_YR') ? Number.parseInt(planInfo.policyTerm) : Number.parseInt(planInfo.policyTerm) - quotation.pAge; switch (quotation.dealerGroup) { case 'SYNERGY': rateKey += 'AGENCY'; break; case 'FUSION': rateKey += 'BROKER'; break; default: rateKey += quotation.dealerGroup; } var rateTable = planDetails[quotation.baseProductCode].rates.oldRiderCommRates[rateKey]; var commRates = []; if (rateTable) { var maxTerm = 0; _.each(rateTable, (rates, key) => { var rateTerm = Number(key); if (polYrs >= rateTerm && rateTerm > maxTerm) { commRates = [].concat(rates); maxTerm = rateTerm; } }); } if (commRates[commRates.length - 1]) { for (var i = commRates.length; i < 99; i++) { commRates.push(commRates[i - 1]); } } return commRates;}",
        "getESPPremRate": "function (quotation, planInfo, planDetail, age) { var roundUp = function (value, digit) { var scale = Math.pow(10, digit); if (digit === 0) { return Math.ceil(value); } else { return Math.ceil(number * scale) / scale; } }; var round = function (value, digit) { var scale = math.pow(10, digit); return math.divide(math.round(math.multiply(value, scale)), scale); }; var rateKey; if (planInfo.policyTerm.indexOf('YR') > -1) { rateKey = 'PUN';} else { rateKey = 'PUNN';}var maturityAge = quotation.pAge + Number.parseInt(planInfo.policyTerm); rateKey += '_' + quotation.pGender; rateKey += quotation.pSmoke === 'Y' ? 'S' : 'NS'; var rates = planDetail.rates.premRate[rateKey]; var netAnnualPremium = 0; var verticalKey; var horizontalKey; horizontalKey = age - 16; verticalKey = Number.parseInt(planInfo.policyTerm); if (planInfo.policyTerm.indexOf('YR') > -1) { netAnnualPremium = rates[verticalKey][horizontalKey];} else { netAnnualPremium = rates[maturityAge][horizontalKey];} return netAnnualPremium;}",
        "getPremRate": "function (quotation, planInfo, planDetail, age) {var roundUp = function (value, digit) { var scale = Math.pow(10, digit); if (digit === 0) { return Math.ceil(value); } else { return Math.ceil(number * scale) / scale; } }; var round = function(value, digit) { var scale = math.pow(10, digit); return math.divide(math.round(math.multiply(value, scale)), scale); }; var rateKey; if (planInfo.policyTerm.indexOf('YR') > -1 || quotation.policyOptions.planType === 'renew') { rateKey = 'PUN'; } else { rateKey = 'PUNN'; } rateKey += '_' + quotation.pGender; rateKey += quotation.pSmoke === 'Y' ? 'S' : 'NS'; var rates = planDetail.rates.premRate[rateKey]; var maturityAge = (planInfo.policyTerm.indexOf('TA') > -1) ? Number.parseInt(planInfo.policyTerm) : quotation.pAge + Number.parseInt(planInfo.policyTerm); var Term_WU = maturityAge - quotation.pAge; var netAnnualPremium = 0; var verticalKey; var horizontalKey; if (planInfo.policyTerm.indexOf('YR') > -1 || quotation.policyOptions.planType === 'renew') { horizontalKey = age - 16; verticalKey = math.multiply(roundUp(math.divide(Term_WU, 5), 0), 5); netAnnualPremium = rates[verticalKey][horizontalKey]; } else { horizontalKey = age - 16; verticalKey = maturityAge; netAnnualPremium = rates[verticalKey][horizontalKey]; } var loadingKey = '1'; var substdClsMapping = planDetail.rates.substdCls[quotation.pResidence]; if (substdClsMapping) { loadingKey = substdClsMapping[quotation.pResidenceCity] || substdClsMapping.ALL || '1'; } var loadingFactor = planDetail.rates.premRate.PUN_SUBSTANDARD_LOADING[loadingKey] || 1; return round(math.multiply(netAnnualPremium, loadingFactor), 2); }",
        "illustrateFunc": "function (quotation, planInfo, planDetails, extraPara) { var roundDown = function (value, digit) { var scale = math.pow(10, digit); return math.divide(math.floor(math.multiply(value, scale)), scale); }; if (quotation.baseProductCode === 'ESP') { return []; } else { var planDetail = planDetails[planInfo.covCode]; var planType = quotation.policyOptions.planType; var indexation = quotation.policyOptions.indexation === 'Y'; var polYrs = planInfo.policyTerm.endsWith('_YR') ? Number.parseInt(planInfo.policyTerm) : Number.parseInt(planInfo.policyTerm) - quotation.pAge; var premYrs; if (planInfo.premTerm === 'SP') { premYrs = 1; } else if (planInfo.premTerm.endsWith('_YR')) { premYrs = Number.parseInt(planInfo.premTerm); } else { premYrs = Number.parseInt(planInfo.premTerm) - quotation.iAge; } var sumInsured = planInfo.sumInsured; var illYrs; if (planType === 'renew') { illYrs = Math.min((Math.floor((60 - quotation.pAge) / polYrs) + 1) * polYrs, 65 - quotation.pAge); } else { illYrs = polYrs; } var bpPolYrs = quotation.plans[0].policyTerm.endsWith('_YR') ? Number.parseInt(quotation.plans[0].policyTerm) : Number.parseInt(quotation.plans[0].policyTerm) - quotation.iAge; var premRateFirstYr = math.bignumber(runFunc(planDetail.formulas.getPremRate, quotation, planInfo, planDetail, quotation.pAge)); var sumProduct = math.bignumber(0); var yearPrems = [0]; for (var i = 1; i <= illYrs; i++) { var age = quotation.pAge + i - 1; var yearPrem; if (i === 1) { yearPrem = math.bignumber(planInfo.yearPrem); } else { yearPrem = math.bignumber(0); if (planType === 'renew') { if ((i - 1) % bpPolYrs < polYrs) { var rateAge = Math.floor((i - 1) / bpPolYrs) * bpPolYrs + quotation.pAge; var premRate = math.bignumber(runFunc(planDetail.formulas.getPremRate, quotation, planInfo, planDetail, rateAge)); var annualBenefit = roundDown(runFunc(planDetail.formulas.getAnnualBenefit, quotation, planInfo, i, extraPara), 1); yearPrem = roundDown(math.divide(roundDown(math.multiply(premRate, annualBenefit), 2), 100), 2); } } else if (i <= polYrs) { var annualBenefit = roundDown(runFunc(planDetail.formulas.getAnnualBenefit, quotation, planInfo, i, extraPara), 1); var premRate = math.bignumber(runFunc(planDetail.formulas.getPremRate, quotation, planInfo, planDetail, age)); var totIndexPrem = math.bignumber(0); if (extraPara.illustrations[quotation.baseProductCode][i - 1]) { totIndexPrem = math.add(totIndexPrem, math.bignumber(extraPara.illustrations[quotation.baseProductCode][i - 1].indexPrem)); } if (extraPara.illustrations.SV && extraPara.illustrations.SV[i - 1]) { totIndexPrem = math.add(totIndexPrem, math.bignumber(extraPara.illustrations.SV[i - 1].indexPrem)); } sumProduct = math.add(sumProduct, math.multiply(premRate, totIndexPrem)); yearPrem = roundDown(math.divide(roundDown(math.multiply(premRateFirstYr, annualBenefit), 2), 100), 2); yearPrem = math.add(yearPrem, math.divide(sumProduct, 100)); } } yearPrems.push(yearPrem); } var commRates = runFunc(planDetail.formulas.getCommRates, quotation, planInfo, planDetails); var totComms = [0]; for (var i = 1; i <= illYrs; i++) { var commRate = commRates[(i - 1) % polYrs]; if (commRate) { totComms[i] = math.multiply(yearPrems[i], commRate); } } var illustration = []; var illLength = Math.max(totComms.length, yearPrems.length) - 1; for (var i = 0; i < illLength; i++) { illustration.push({ yearPrem: yearPrems[i + 1] ? math.number(yearPrems[i + 1]) : 0, totComm: totComms[i + 1] ? math.number(totComms[i + 1]) : 0 }); } return illustration; }}",
        "polTermsFunc": "function (planDetail, quotation) {var policyTermList = []; var longestPayYear = 0; if (quotation && quotation.plans && quotation.plans.length > 0 && quotation.policyOptions.planType === 'renew') { for (var v in quotation.plans) { var premTerm = quotation.plans[v].premTerm; var covCode = quotation.plans[v].covCode; var policyTermValueAndType = (premTerm) ? premTerm.split('_') : []; if (policyTermValueAndType[0] && policyTermValueAndType[1] && policyTermValueAndType[1] === 'YR' && Number.parseInt(premTerm) > longestPayYear && covCode !== 'PUN') { longestPayYear = Number.parseInt(premTerm); } else if (policyTermValueAndType[0] && policyTermValueAndType[1] && policyTermValueAndType[1] === 'TA' && (Number.parseInt(premTerm) - quotation.iAge) > longestPayYear && covCode !== 'PUN') { longestPayYear = Number.parseInt(premTerm) - quotation.iAge; } } var values = [5, 10, 15, 20, 25, 30]; if ((quotation.pAge + longestPayYear) >= 50 && longestPayYear !== 0) { policyTermList.push({ value: 50 + '_TA', title: 'To Age 50', default: true }); } else if (longestPayYear >= 30) { policyTermList.push({ value: 30 + '_YR', title: '30 Years', default: true }); } else if (longestPayYear !== 0) { for (var v in values) { var value = values[v]; var testValue = value - longestPayYear; if ( testValue < 5 && testValue >=0 ) { policyTermList.push({ value: value + '_YR', title: value + ' Years', default: true }); } } } } else if (quotation && quotation.plans && quotation.plans.length > 0 && quotation.policyOptions.planType === 'toAge') { var lpVals = {}; var payYear = null; _.each(quotation.plans, (plan) => { if (plan.covCode !== planDetail.covCode && plan.premTerm) { var premTerm = plan.premTerm; if (premTerm.indexOf('YR') > -1) { lpVals[premTerm] = Number.parseInt(premTerm); payYear = Math.max(payYear, Number.parseInt(premTerm)); } else if (premTerm.indexOf('TA') > -1) { payYear = Math.max(payYear, Number.parseInt(premTerm) - quotation.iAge); } } }); _.each(lpVals, (val) => { policyTermList.push({ value: val + '_YR', title: val + ' Years' }); }); if (quotation.pAge + payYear >= 50 && 50 - quotation.pAge >= 5) { policyTermList.push({ value: '50_TA', title: 'To Age 50' }); } } return policyTermList.sort((a, b) => a.value > b.value);}",
        "premFunc": "function (quotation, planInfo, planDetail) { var roundDown = function (value, digit) { var scale = math.pow(10, digit); return math.divide(math.floor(math.multiply(value, scale)), scale); }; var roundUp = function (value, digit) { var scale = Math.pow(10, digit); if (digit === 0) { return Math.ceil(value); } else { return Math.ceil(number * scale) / scale; } }; var numberTrunc = function (value = 0, digit) { value = value.toString(); if (value.indexOf('.') === -1) { return math.bignumber(Number.parseInt(value)); } else { value = value.substr(0, value.indexOf('.') + digit + 1); return math.bignumber(Number.parseFloat(value)); } }; var round = function (value, digit) { var scale = math.pow(10, digit); return math.divide(math.round(math.multiply(value, scale)), scale); }; var premium = null; if (quotation.baseProductCode === 'ESP') { premium = math.number(numberTrunc(math.divide(math.multiply(math.bignumber(runFunc(planDetail.formulas.getESPPremRate, quotation, planInfo, planDetail, quotation.pAge)), math.add(math.bignumber(_.get(quotation, 'plans[0].yearPrem', 0)), math.bignumber(_.get(quotation, 'plans[1].yearPrem', 0)))), 100), 2)); var modalFactor = 1; for (var p in planDetail.payModes) { if (planDetail.payModes[p].mode === quotation.paymentMode) { modalFactor = planDetail.payModes[p].factor; } } premium = (modalFactor === 1) ? premium : roundDown(math.multiply(premium, modalFactor), 2); } else if (planInfo.premTerm && planInfo.policyTerm && quotation.plans[0] && quotation.plans[0].premium) { var covCodeArr = ['TPX', 'TPPX', 'DIS', 'CRX', 'DCB', 'CIP', 'AP', 'SV']; var AB_WU = 0; for (var v in quotation.plans) { if (covCodeArr.indexOf(quotation.plans[v].covCode) > -1) { AB_WU += quotation.plans[v].yearPrem; } } var naP = runFunc(planDetail.formulas.getPremRate, quotation, planInfo, planDetail, quotation.pAge); premium = round(roundDown(math.divide(roundDown(math.multiply(naP, roundDown(AB_WU, 1)), 2), 100), 2), 2); var modalFactor = 1; for (var p in planDetail.payModes) { if (planDetail.payModes[p].mode === quotation.paymentMode) { modalFactor = planDetail.payModes[p].factor; } } premium = (modalFactor === 1) ? premium : roundDown(math.multiply(premium, modalFactor), 2); } else { premium = 0; } return premium;}",
        "premTermsFunc": "",
        "prepareClassConfig": "",
        "prepareSAPremConfig": "",
        "prepareTermConfig": "function (planDetail, quotation, planDetails) { var baseProductCode = quotation.baseProductCode; if (baseProductCode === 'ESP') { let basicDetail = planDetails[quotation.baseProductCode]; let polTermList = []; for (var index = 5; index <= 10; index++) { polTermList.push({ value: index + '_YR', title: index + ' Years', default: true }); polTermList.push({ value: index + '_TA', title: index + ' Years', default: true }); } planDetail.inputConfig.canEditPolicyTerm = false; planDetail.inputConfig.policyTermList = polTermList; planDetail.inputConfig.canEditPremTerm = false; planDetail.inputConfig.premTermList = polTermList; if (basicDetail && basicDetail.policyTerm) { planDetail.policyTerm = basicDetail.policyTerm; } else { planDetail.policyTerm = null; } if (basicDetail && basicDetail.premTerm) { planDetail.premTerm = basicDetail.premTerm; } else { planDetail.premTerm = null; } } else { let polTermList = quotDriver.runFunc(planDetail.formulas.polTermsFunc, planDetail, quotation); if (polTermList && polTermList.length) { for (let p in polTermList) { if (polTermList[p].default) { planDetail.inputConfig.defaultPolicyTerm = polTermList[p].value; break; } } } planDetail.inputConfig.canEditPolicyTerm = quotation.policyOptions.planType === 'toAge'; planDetail.inputConfig.policyTermList = polTermList; let premTermList = [...polTermList]; if (premTermList && premTermList.length) { for (let p in premTermList) { if (premTermList[p].default) { planDetail.inputConfig.premTerm = premTermList[p].value; break; } } } planDetail.inputConfig.canEditPremTerm = false; planDetail.inputConfig.premTermList = premTermList; let planInfo = _.find(quotation.plans, p => p.covCode === planDetail.covCode); if (polTermList.length === 1) { planInfo.policyTerm = polTermList[0].value; } else if (planInfo && !polTermList.find((opt) => opt.value === planInfo.policyTerm)) { planInfo.policyTerm = null; } if (premTermList.length === 1) { planInfo.premTerm = premTermList[0].value; } else if (planInfo && !premTermList.find((opt) => opt.value === planInfo.premTerm)) { planInfo.premTerm = null; } }}",
        "saFunc": "",
        "validAfterCalcFunc": "function(quotation, planInfo, planDetail) {/**PUN validAfterCalcFunc*/ var round = function (number, precision) { var factor = Math.pow(10, precision); return Math.round(number * factor) / factor; }; var paddingZeroStr = function (number) { if (number < 10 && number >= 0) { return '0' + number; } else if (number < 0) { return '00'; } else { return number; } }; var defaultArr = ['ESP']; if (defaultArr.indexOf(quotation.baseProductCode) > -1 && quotation && quotation.plans && quotation.plans.length) { if (planInfo.policyTerm) { var planCode; if (planInfo.policyTerm.indexOf('TA') > -1) { planCode = 'PU' + paddingZeroStr(Number.parseInt(planInfo.policyTerm) + quotation.pAge); } else { planCode = paddingZeroStr(Number.parseInt(planInfo.policyTerm)) + 'PUN'; } planInfo.planCode = planCode; } if (!quotation.plans[0].premium) { planInfo.premium = planInfo.yearPrem = planInfo.halfYearPrem = planInfo.quarterPrem = planInfo.monthPrem = quotation.plans[0].premium; } if (planInfo.premium) { planInfo.policyTermYr = Number.parseInt(planInfo.policyTerm); if (planInfo.premTerm === 'SP') { planInfo.premTermYr = 1; } else { planInfo.premTermYr = Number.parseInt(planInfo.premTerm); } } } else if (quotation && quotation.plans && quotation.plans.length && quotation.plans[0].policyTerm) { if (planInfo.policyTerm) { var planCode; if (quotation.plans[0].policyTerm.indexOf('TA') > -1) { var selectedPolicyTermVal = paddingZeroStr(Number.parseInt(planInfo.policyTerm)); if (planInfo.policyTerm.indexOf('TA') > -1) { planCode = 'PU' + selectedPolicyTermVal; } else { planCode = selectedPolicyTermVal + 'PUN'; } } else { if (planInfo.policyTerm.indexOf('TA') > -1) { planCode = paddingZeroStr(Number.parseInt(quotation.plans[0].policyTerm)) + 'PU'; } else { planCode = paddingZeroStr(Number.parseInt(planInfo.policyTerm)) + 'PU'; } } planInfo.planCode = planCode; } if (planInfo.premium) { planInfo.policyTermYr = planInfo.policyTerm.endsWith('_YR') ? Number.parseInt(planInfo.policyTerm) : Number.parseInt(planInfo.policyTerm) - quotation.iAge; if (planInfo.premTerm === 'SP') { planInfo.premTermYr = 1; } else if (planInfo.premTerm.endsWith('_YR')) { planInfo.premTermYr = Number.parseInt(planInfo.premTerm); } else { planInfo.premTermYr = Number.parseInt(planInfo.premTerm) - quotation.iAge; } } }}",
        "validBeforeCalcFunc": "",
        "validQuotFunc": "",
        "willValidQuotFunc": ""
    },
    "genderInd": "*",
    "insuredAgeDesc": {},
    "jointLives": "N",
    "keyProdFeatures": {
        "en": "",
        "zh-Hant": "Payer PremiumEraser(DTPDUN)"
    },
    "levelPrem": {},
    "licence": [
        ""
    ],
    "payMethodsDesc": {},
    "payModeDesc": {},
    "payModes": [
        {
            "covMonth": 12,
            "default": "",
            "factor": 1,
            "mode": "A",
            "operator": "M"
        },
        {
            "covMonth": 6,
            "default": "",
            "factor": 0.51,
            "mode": "S",
            "operator": "M"
        },
        {
            "covMonth": 3,
            "default": "",
            "factor": 0.26,
            "mode": "Q",
            "operator": "M"
        },
        {
            "covMonth": 1,
            "default": "",
            "factor": 0.0875,
            "mode": "M",
            "operator": "M"
        },
        {
            "covMonth": 0,
            "default": "",
            "factor": 1,
            "mode": "L",
            "operator": "M"
        }
    ],
    "paymentMethods": [
        "cash"
    ],
    "planInd": "R",
    "premType": "L",
    "prodFeature": {},
    "prod_summary": 1284376,
    "productCategory": "protectionOnly",
    "productLine": "CIT",
    "rates": {
        "premRate": {
            "PUNN_FNS": {
                "50": [
                    0.85,
                    0.87,
                    1.26,
                    1.3,
                    1.35,
                    1.4,
                    1.42,
                    1.45,
                    1.48,
                    1.51,
                    1.56,
                    1.62,
                    1.67,
                    1.72,
                    1.76,
                    1.84,
                    1.89,
                    1.95,
                    1.99,
                    2.02,
                    2.08,
                    2.14,
                    2.19,
                    2.23,
                    2.28,
                    2.36,
                    2.43,
                    2.52,
                    2.59,
                    2.67
                ]
            },
            "PUNN_FS": {
                "50": [
                    0.85,
                    0.87,
                    1.26,
                    1.3,
                    1.35,
                    1.4,
                    1.42,
                    1.45,
                    1.48,
                    1.51,
                    1.56,
                    1.62,
                    1.67,
                    1.72,
                    1.76,
                    1.84,
                    1.89,
                    1.95,
                    1.99,
                    2.02,
                    2.08,
                    2.14,
                    2.19,
                    2.23,
                    2.28,
                    2.36,
                    2.43,
                    2.52,
                    2.59,
                    2.67
                ]
            },
            "PUNN_MNS": {
                "50": [
                    1.52,
                    1.62,
                    2.09,
                    2.2,
                    2.33,
                    2.37,
                    2.39,
                    2.42,
                    2.45,
                    2.48,
                    2.52,
                    2.56,
                    2.6,
                    2.64,
                    2.68,
                    2.73,
                    2.77,
                    2.82,
                    2.86,
                    2.89,
                    2.94,
                    2.99,
                    3.04,
                    3.08,
                    3.13,
                    3.21,
                    3.28,
                    3.37,
                    3.44,
                    3.52
                ]
            },
            "PUNN_MS": {
                "50": [
                    1.52,
                    1.62,
                    2.09,
                    2.2,
                    2.33,
                    2.37,
                    2.39,
                    2.42,
                    2.45,
                    2.48,
                    2.52,
                    2.56,
                    2.6,
                    2.64,
                    2.68,
                    2.73,
                    2.77,
                    2.82,
                    2.86,
                    2.89,
                    2.94,
                    2.99,
                    3.04,
                    3.08,
                    3.13,
                    3.21,
                    3.28,
                    3.37,
                    3.44,
                    3.52
                ]
            },
            "PUN_FNS": {
                "5": [
                    0.14,
                    0.16,
                    0.43,
                    0.46,
                    0.5,
                    0.6,
                    0.68,
                    0.77,
                    0.85,
                    0.92,
                    0.99,
                    1.07,
                    1.12,
                    1.19,
                    1.26,
                    1.33,
                    1.39,
                    1.46,
                    1.53,
                    1.59,
                    1.67,
                    1.75,
                    1.84,
                    1.92,
                    2,
                    2.12,
                    2.24,
                    2.39,
                    2.55,
                    2.72,
                    2.51,
                    2.29,
                    2.08,
                    1.91,
                    1.72,
                    1.89,
                    2.06,
                    2.27,
                    2.51,
                    2.75,
                    3.01,
                    3.28,
                    3.56,
                    3.84,
                    4.15
                ],
                "10": [
                    0.28,
                    0.3,
                    0.58,
                    0.62,
                    0.66,
                    0.75,
                    0.83,
                    0.9,
                    0.99,
                    1.07,
                    1.15,
                    1.21,
                    1.28,
                    1.35,
                    1.41,
                    1.49,
                    1.57,
                    1.65,
                    1.73,
                    1.8,
                    1.88,
                    1.96,
                    2.08,
                    2.2,
                    2.33,
                    2.52,
                    2.69,
                    2.9,
                    3.12,
                    3.34,
                    3.19,
                    3.04,
                    2.92,
                    2.84,
                    2.75,
                    3.01,
                    3.28,
                    3.56,
                    3.84,
                    4.15,
                    4.15,
                    4.15,
                    4.15,
                    4.15,
                    4.15
                ],
                "15": [
                    0.42,
                    0.45,
                    0.74,
                    0.79,
                    0.83,
                    0.91,
                    0.98,
                    1.06,
                    1.14,
                    1.21,
                    1.29,
                    1.36,
                    1.45,
                    1.52,
                    1.59,
                    1.67,
                    1.75,
                    1.86,
                    1.98,
                    2.07,
                    2.23,
                    2.39,
                    2.56,
                    2.71,
                    2.88,
                    3.15,
                    3.41,
                    3.7,
                    3.96,
                    4.22,
                    4.22,
                    4.2,
                    4.18,
                    4.17,
                    4.15,
                    4.15,
                    4.15,
                    4.15,
                    4.15,
                    4.15,
                    4.15,
                    4.15,
                    4.15,
                    4.15,
                    4.15
                ],
                "20": [
                    0.56,
                    0.58,
                    0.91,
                    0.97,
                    1.03,
                    1.09,
                    1.16,
                    1.24,
                    1.31,
                    1.39,
                    1.47,
                    1.53,
                    1.62,
                    1.72,
                    1.81,
                    1.94,
                    2.08,
                    2.21,
                    2.34,
                    2.46,
                    2.67,
                    2.88,
                    3.08,
                    3.28,
                    3.5,
                    3.84,
                    4.17,
                    4.53,
                    4.87,
                    5.21,
                    5.19,
                    4.99,
                    4.78,
                    4.48,
                    4.15,
                    4.15,
                    4.15,
                    4.15,
                    4.15,
                    4.15,
                    4.15,
                    4.15,
                    4.15,
                    4.15,
                    4.15
                ],
                "25": [
                    0.68,
                    0.71,
                    1.11,
                    1.17,
                    1.24,
                    1.3,
                    1.36,
                    1.43,
                    1.5,
                    1.56,
                    1.65,
                    1.75,
                    1.87,
                    1.98,
                    2.08,
                    2.25,
                    2.4,
                    2.57,
                    2.72,
                    2.87,
                    3.12,
                    3.38,
                    3.63,
                    3.88,
                    4.13,
                    4.52,
                    4.73,
                    4.97,
                    5.13,
                    5.21,
                    5.19,
                    4.99,
                    4.78,
                    4.48,
                    4.15,
                    4.15,
                    4.15,
                    4.15,
                    4.15,
                    4.15,
                    4.15,
                    4.15,
                    4.15,
                    4.15,
                    4.15
                ],
                "30": [
                    0.81,
                    0.85,
                    1.26,
                    1.31,
                    1.4,
                    1.48,
                    1.53,
                    1.59,
                    1.66,
                    1.72,
                    1.85,
                    1.98,
                    2.12,
                    2.25,
                    2.38,
                    2.58,
                    2.78,
                    2.98,
                    3.18,
                    3.35,
                    3.62,
                    3.78,
                    3.94,
                    4.08,
                    4.13,
                    4.52,
                    4.73,
                    4.97,
                    5.13,
                    5.21,
                    5.19,
                    4.99,
                    4.78,
                    4.48,
                    4.15,
                    4.15,
                    4.15,
                    4.15,
                    4.15,
                    4.15,
                    4.15,
                    4.15,
                    4.15,
                    4.15,
                    4.15
                ]
            },
            "PUN_FS": {
                "5": [
                    0.14,
                    0.16,
                    0.43,
                    0.46,
                    0.5,
                    0.6,
                    0.68,
                    0.77,
                    0.85,
                    0.92,
                    0.99,
                    1.07,
                    1.12,
                    1.19,
                    1.26,
                    1.33,
                    1.39,
                    1.46,
                    1.53,
                    1.59,
                    1.67,
                    1.75,
                    1.84,
                    1.92,
                    2,
                    2.12,
                    2.24,
                    2.39,
                    2.55,
                    2.72,
                    2.51,
                    2.29,
                    2.08,
                    1.91,
                    1.72,
                    1.89,
                    2.06,
                    2.27,
                    2.51,
                    2.75,
                    3.01,
                    3.28,
                    3.56,
                    3.84,
                    4.15
                ],
                "10": [
                    0.28,
                    0.3,
                    0.58,
                    0.62,
                    0.66,
                    0.75,
                    0.83,
                    0.9,
                    0.99,
                    1.07,
                    1.15,
                    1.21,
                    1.28,
                    1.35,
                    1.41,
                    1.49,
                    1.57,
                    1.65,
                    1.73,
                    1.8,
                    1.88,
                    1.96,
                    2.08,
                    2.2,
                    2.33,
                    2.52,
                    2.69,
                    2.9,
                    3.12,
                    3.34,
                    3.19,
                    3.04,
                    2.92,
                    2.84,
                    2.75,
                    3.01,
                    3.28,
                    3.56,
                    3.84,
                    4.15,
                    4.15,
                    4.15,
                    4.15,
                    4.15,
                    4.15
                ],
                "15": [
                    0.42,
                    0.45,
                    0.74,
                    0.79,
                    0.83,
                    0.91,
                    0.98,
                    1.06,
                    1.14,
                    1.21,
                    1.29,
                    1.36,
                    1.45,
                    1.52,
                    1.59,
                    1.67,
                    1.75,
                    1.86,
                    1.98,
                    2.07,
                    2.23,
                    2.39,
                    2.56,
                    2.71,
                    2.88,
                    3.15,
                    3.41,
                    3.7,
                    3.96,
                    4.22,
                    4.22,
                    4.2,
                    4.18,
                    4.17,
                    4.15,
                    4.15,
                    4.15,
                    4.15,
                    4.15,
                    4.15,
                    4.15,
                    4.15,
                    4.15,
                    4.15,
                    4.15
                ],
                "20": [
                    0.56,
                    0.58,
                    0.91,
                    0.97,
                    1.03,
                    1.09,
                    1.16,
                    1.24,
                    1.31,
                    1.39,
                    1.47,
                    1.53,
                    1.62,
                    1.72,
                    1.81,
                    1.94,
                    2.08,
                    2.21,
                    2.34,
                    2.46,
                    2.67,
                    2.88,
                    3.08,
                    3.28,
                    3.5,
                    3.84,
                    4.17,
                    4.53,
                    4.87,
                    5.21,
                    5.19,
                    4.99,
                    4.78,
                    4.48,
                    4.15,
                    4.15,
                    4.15,
                    4.15,
                    4.15,
                    4.15,
                    4.15,
                    4.15,
                    4.15,
                    4.15,
                    4.15
                ],
                "25": [
                    0.68,
                    0.71,
                    1.11,
                    1.17,
                    1.24,
                    1.3,
                    1.36,
                    1.43,
                    1.5,
                    1.56,
                    1.65,
                    1.75,
                    1.87,
                    1.98,
                    2.08,
                    2.25,
                    2.4,
                    2.57,
                    2.72,
                    2.87,
                    3.12,
                    3.38,
                    3.63,
                    3.88,
                    4.13,
                    4.52,
                    4.73,
                    4.97,
                    5.13,
                    5.21,
                    5.19,
                    4.99,
                    4.78,
                    4.48,
                    4.15,
                    4.15,
                    4.15,
                    4.15,
                    4.15,
                    4.15,
                    4.15,
                    4.15,
                    4.15,
                    4.15,
                    4.15
                ],
                "30": [
                    0.81,
                    0.85,
                    1.26,
                    1.31,
                    1.4,
                    1.48,
                    1.53,
                    1.59,
                    1.66,
                    1.72,
                    1.85,
                    1.98,
                    2.12,
                    2.25,
                    2.38,
                    2.58,
                    2.78,
                    2.98,
                    3.18,
                    3.35,
                    3.62,
                    3.78,
                    3.94,
                    4.08,
                    4.13,
                    4.52,
                    4.73,
                    4.97,
                    5.13,
                    5.21,
                    5.19,
                    4.99,
                    4.78,
                    4.48,
                    4.15,
                    4.15,
                    4.15,
                    4.15,
                    4.15,
                    4.15,
                    4.15,
                    4.15,
                    4.15,
                    4.15,
                    4.15
                ]
            },
            "PUN_MNS": {
                "5": [
                    0.2,
                    0.26,
                    0.56,
                    0.61,
                    0.68,
                    0.8,
                    0.93,
                    1.05,
                    1.16,
                    1.29,
                    1.39,
                    1.51,
                    1.61,
                    1.72,
                    1.82,
                    1.93,
                    2.03,
                    2.13,
                    2.23,
                    2.34,
                    2.45,
                    2.55,
                    2.67,
                    2.78,
                    2.89,
                    3.03,
                    3.19,
                    3.32,
                    3.46,
                    3.62,
                    3.35,
                    3.08,
                    2.79,
                    2.52,
                    2.4,
                    2.61,
                    2.85,
                    3.19,
                    3.55,
                    3.94,
                    4.43,
                    4.98,
                    5.59,
                    6.2,
                    6.8
                ],
                "10": [
                    0.47,
                    0.55,
                    0.85,
                    0.93,
                    1.03,
                    1.15,
                    1.27,
                    1.39,
                    1.52,
                    1.63,
                    1.75,
                    1.85,
                    1.95,
                    2.05,
                    2.16,
                    2.27,
                    2.37,
                    2.48,
                    2.59,
                    2.69,
                    2.79,
                    2.91,
                    3.01,
                    3.11,
                    3.23,
                    3.36,
                    3.48,
                    3.61,
                    3.73,
                    4.02,
                    3.91,
                    3.83,
                    3.84,
                    3.88,
                    3.94,
                    4.38,
                    4.98,
                    5.59,
                    6.2,
                    6.8,
                    6.8,
                    6.8,
                    6.8,
                    6.8,
                    6.8
                ],
                "15": [
                    0.75,
                    0.83,
                    1.19,
                    1.3,
                    1.39,
                    1.51,
                    1.62,
                    1.73,
                    1.84,
                    1.96,
                    2.07,
                    2.16,
                    2.28,
                    2.38,
                    2.48,
                    2.58,
                    2.7,
                    2.79,
                    2.89,
                    2.99,
                    3.09,
                    3.19,
                    3.28,
                    3.37,
                    3.55,
                    3.88,
                    4.2,
                    4.55,
                    4.87,
                    5.22,
                    5.4,
                    5.6,
                    5.78,
                    5.99,
                    6.17,
                    6.48,
                    6.63,
                    6.8,
                    6.8,
                    6.8,
                    6.8,
                    6.8,
                    6.8,
                    6.8,
                    6.8
                ],
                "20": [
                    0.99,
                    1.09,
                    1.5,
                    1.63,
                    1.78,
                    1.87,
                    1.96,
                    2.07,
                    2.17,
                    2.28,
                    2.38,
                    2.48,
                    2.58,
                    2.67,
                    2.78,
                    2.88,
                    2.97,
                    3.06,
                    3.15,
                    3.24,
                    3.34,
                    3.56,
                    3.86,
                    4.14,
                    4.43,
                    4.88,
                    5.32,
                    5.78,
                    6.21,
                    6.65,
                    6.8,
                    6.71,
                    6.62,
                    6.5,
                    6.17,
                    6.48,
                    6.63,
                    6.8,
                    6.8,
                    6.8,
                    6.8,
                    6.8,
                    6.8,
                    6.8,
                    6.8
                ],
                "25": [
                    1.22,
                    1.34,
                    1.82,
                    1.97,
                    2.13,
                    2.21,
                    2.31,
                    2.4,
                    2.48,
                    2.58,
                    2.67,
                    2.76,
                    2.84,
                    2.93,
                    3.03,
                    3.13,
                    3.21,
                    3.31,
                    3.4,
                    3.55,
                    3.93,
                    4.3,
                    4.68,
                    5.04,
                    5.43,
                    5.87,
                    6.1,
                    6.35,
                    6.57,
                    6.65,
                    6.8,
                    6.71,
                    6.62,
                    6.5,
                    6.17,
                    6.48,
                    6.63,
                    6.8,
                    6.8,
                    6.8,
                    6.8,
                    6.8,
                    6.8,
                    6.8,
                    6.8
                ],
                "30": [
                    1.44,
                    1.58,
                    2.08,
                    2.25,
                    2.43,
                    2.52,
                    2.59,
                    2.66,
                    2.74,
                    2.83,
                    2.92,
                    3,
                    3.09,
                    3.18,
                    3.27,
                    3.37,
                    3.51,
                    3.79,
                    4.06,
                    4.32,
                    4.71,
                    4.95,
                    5.19,
                    5.38,
                    5.43,
                    5.87,
                    6.1,
                    6.35,
                    6.57,
                    6.65,
                    6.8,
                    6.71,
                    6.62,
                    6.5,
                    6.17,
                    6.48,
                    6.63,
                    6.8,
                    6.8,
                    6.8,
                    6.8,
                    6.8,
                    6.8,
                    6.8,
                    6.8
                ]
            },
            "PUN_MS": {
                "5": [
                    0.2,
                    0.26,
                    0.56,
                    0.61,
                    0.68,
                    0.8,
                    0.93,
                    1.05,
                    1.16,
                    1.29,
                    1.39,
                    1.51,
                    1.61,
                    1.72,
                    1.82,
                    1.93,
                    2.03,
                    2.13,
                    2.23,
                    2.34,
                    2.45,
                    2.55,
                    2.67,
                    2.78,
                    2.89,
                    3.03,
                    3.19,
                    3.32,
                    3.46,
                    3.62,
                    3.35,
                    3.08,
                    2.79,
                    2.52,
                    2.4,
                    2.61,
                    2.85,
                    3.19,
                    3.55,
                    3.94,
                    4.43,
                    4.98,
                    5.59,
                    6.2,
                    6.8
                ],
                "10": [
                    0.47,
                    0.55,
                    0.85,
                    0.93,
                    1.03,
                    1.15,
                    1.27,
                    1.39,
                    1.52,
                    1.63,
                    1.75,
                    1.85,
                    1.95,
                    2.05,
                    2.16,
                    2.27,
                    2.37,
                    2.48,
                    2.59,
                    2.69,
                    2.79,
                    2.91,
                    3.01,
                    3.11,
                    3.23,
                    3.36,
                    3.48,
                    3.61,
                    3.73,
                    4.02,
                    3.91,
                    3.83,
                    3.84,
                    3.88,
                    3.94,
                    4.38,
                    4.98,
                    5.59,
                    6.2,
                    6.8,
                    6.8,
                    6.8,
                    6.8,
                    6.8,
                    6.8
                ],
                "15": [
                    0.75,
                    0.83,
                    1.19,
                    1.3,
                    1.39,
                    1.51,
                    1.62,
                    1.73,
                    1.84,
                    1.96,
                    2.07,
                    2.16,
                    2.28,
                    2.38,
                    2.48,
                    2.58,
                    2.7,
                    2.79,
                    2.89,
                    2.99,
                    3.09,
                    3.19,
                    3.28,
                    3.37,
                    3.55,
                    3.88,
                    4.2,
                    4.55,
                    4.87,
                    5.22,
                    5.4,
                    5.6,
                    5.78,
                    5.99,
                    6.17,
                    6.48,
                    6.63,
                    6.8,
                    6.8,
                    6.8,
                    6.8,
                    6.8,
                    6.8,
                    6.8,
                    6.8
                ],
                "20": [
                    0.99,
                    1.09,
                    1.5,
                    1.63,
                    1.78,
                    1.87,
                    1.96,
                    2.07,
                    2.17,
                    2.28,
                    2.38,
                    2.48,
                    2.58,
                    2.67,
                    2.78,
                    2.88,
                    2.97,
                    3.06,
                    3.15,
                    3.24,
                    3.34,
                    3.56,
                    3.86,
                    4.14,
                    4.43,
                    4.88,
                    5.32,
                    5.78,
                    6.21,
                    6.65,
                    6.8,
                    6.71,
                    6.62,
                    6.5,
                    6.17,
                    6.48,
                    6.63,
                    6.8,
                    6.8,
                    6.8,
                    6.8,
                    6.8,
                    6.8,
                    6.8,
                    6.8
                ],
                "25": [
                    1.22,
                    1.34,
                    1.82,
                    1.97,
                    2.13,
                    2.21,
                    2.31,
                    2.4,
                    2.48,
                    2.58,
                    2.67,
                    2.76,
                    2.84,
                    2.93,
                    3.03,
                    3.13,
                    3.21,
                    3.31,
                    3.4,
                    3.55,
                    3.93,
                    4.3,
                    4.68,
                    5.04,
                    5.43,
                    5.87,
                    6.1,
                    6.35,
                    6.57,
                    6.65,
                    6.8,
                    6.71,
                    6.62,
                    6.5,
                    6.17,
                    6.48,
                    6.63,
                    6.8,
                    6.8,
                    6.8,
                    6.8,
                    6.8,
                    6.8,
                    6.8,
                    6.8
                ],
                "30": [
                    1.44,
                    1.58,
                    2.08,
                    2.25,
                    2.43,
                    2.52,
                    2.59,
                    2.66,
                    2.74,
                    2.83,
                    2.92,
                    3,
                    3.09,
                    3.18,
                    3.27,
                    3.37,
                    3.51,
                    3.79,
                    4.06,
                    4.32,
                    4.71,
                    4.95,
                    5.19,
                    5.38,
                    5.43,
                    5.87,
                    6.1,
                    6.35,
                    6.57,
                    6.65,
                    6.8,
                    6.71,
                    6.62,
                    6.5,
                    6.17,
                    6.48,
                    6.63,
                    6.8,
                    6.8,
                    6.8,
                    6.8,
                    6.8,
                    6.8,
                    6.8,
                    6.8
                ]
            },
            "PUN_SUBSTANDARD_LOADING": {
                "1": 1,
                "2": 1.03,
                "3": 1.06,
                "4": 1.1,
                "5": 1.13,
                "A1": 1.15,
                "B1": 1.29,
                "C1": 1.44,
                "D1": 1.59,
                "E1": 1.74,
                "F1": 1.89,
                "G1": 2.03,
                "H1": 2.18,
                "I1": 2.32,
                "J1": 2.47,
                "K1": 2.62,
                "L1": 2.77
            }
        },
        "substdCls": {
            "R52": {
                "ALL": "2C1"
            },
            "R54": {
                "T120": "2B1"
            }
        }
    },
    "ref_no": "PUN",
    "releaseDate": "2018-06-19 00:49:22",
    "remarks": {
        "en": "",
        "zh-Hant": "Payer PremiumEraser(DTPDUN)"
    },
    "smokeInd": "*",
    "status": "A",
    "task_desc": "Payer PremiumEraser (DTPDUN)",
    "type": "product",
    "upd": "Danny.Yuen  on 21 Mar 2018 16:04:37",
    "version": 2
}