{
    "allowBackdate": "N",
    "benlim": [
        {
            "ageFr": "0",
            "ageTo": "70",
            "class": "*",
            "country": "*",
            "limits": [
                {
                    "ccy": "SGD",
                    "max": 3500000,
                    "min": 50000,
                    "payMode": "A"
                },
                {
                    "ccy": "SGD",
                    "max": 3500000,
                    "min": 50000,
                    "payMode": "S"
                },
                {
                    "ccy": "SGD",
                    "max": 3500000,
                    "min": 50000,
                    "payMode": "Q"
                },
                {
                    "ccy": "SGD",
                    "max": 3500000,
                    "min": 50000,
                    "payMode": "M"
                }
            ]
        }
    ],
    "brochures": 6518860,
    "budgetRules": [
        "RP"
    ],
    "ccyDesc": {
        "en": "SGD"
    },
    "classInd": "Y",
    "classInputInd": "N",
    "classList": [
        {
            "benefitValue": [
                {
                    "amount": 0,
                    "ccy": "SGD"
                }
            ],
            "className": {
                "en": "1",
                "zh-Hant": ""
            },
            "covClass": "1",
            "default": "",
            "valueType": "sa"
        },
        {
            "benefitValue": [
                {
                    "amount": 0,
                    "ccy": "SGD"
                }
            ],
            "className": {
                "en": "2"
            },
            "covClass": "2",
            "default": "",
            "valueType": "sa"
        },
        {
            "benefitValue": [
                {
                    "amount": 0,
                    "ccy": "SGD"
                }
            ],
            "className": {
                "en": "3"
            },
            "covClass": "3",
            "default": "",
            "valueType": "sa"
        },
        {
            "benefitValue": [
                {
                    "amount": 0,
                    "ccy": "SGD"
                }
            ],
            "className": {
                "en": "4"
            },
            "covClass": "4",
            "default": "",
            "valueType": "sa"
        }
    ],
    "classSecDesc": {
        "en": "Class 1 ~ 4"
    },
    "classTitle": {},
    "compCode": "08",
    "corpInd": "N",
    "covCode": "BAA",
    "covName": {
        "en": "AXA Band Aid",
        "zh-Hant": "AXA Band Aid"
    },
    "create": "Wenny Tang  on 25 Aug 2017 12:27:47",
    "ctyGroup": [
        "*"
    ],
    "currencies": [
        {
            "ccy": [
                "SGD"
            ],
            "country": "*"
        }
    ],
    "dealerGroup": [
        "SINGPOST",
        "SYNERGY",
        "BROKER",
        "DIRECT",
        "FUSION",
        "AGENCY"
    ],
    "effDate": "2017-08-01 00:00:00",
    "entryAge": [
        {
            "country": "*",
            "imaxAge": 70,
            "imaxAgeUnit": "nearestAge",
            "iminAge": 15,
            "iminAgeUnit": "day",
            "omaxAge": 70,
            "omaxAgeUnit": "nearestAge",
            "ominAge": 18,
            "ominAgeUnit": "year",
            "sameAsOwner": ""
        }
    ],
    "expDate": "2018-08-25 12:00:40",
    "formulas": {
        "calcQuotFunc": "",
        "getOccupationClass": "function (quotation, planDetail) { var oCls = quotation.plans[0].covClass; if (oCls) { oCls = parseInt(oCls, 10); if (oCls) return oCls - 1; } return 0;}",
        "illustrateFunc": "",
        "polTermsFunc": "",
        "premFunc": "function (quotation, planInfo, planDetail) { var ocls = runFunc(planDetail.formulas.getOccupationClass, quotation, planDetail, null, null, arguments[4]); var prate = parseFloat(planDetail.rates.premRate[quotation.paymentMode][ocls]); var scale = parseFloat(planDetail.saScale); for(var i = 0; i< quotation.plans.length; i++){ var plan = quotation.plans[i]; if(plan.covCode == planInfo.covCode){ plan.premRate = math.number(prate); break; } } var prem = math.divide(math.multiply(math.bignumber(planInfo.sumInsured), prate), scale); return math.number(prem);}",
        "premTermsFunc": "",
        "prepareAttachableRider": "function (planDetail, quotation, planDetails) { quotDriver.prepareAttachableRider(planDetail, quotation, planDetails); var covClass = quotation.plans[0].covClass; if (covClass == '4') { for (var i in planDetail.inputConfig.riderList) { if (planDetail.inputConfig.riderList[i].covCode == 'WIR') { planDetail.inputConfig.riderList.splice(i, 1); break; } } }}",
        "prepareClassConfig": "function (planDetail, quotation, planDetails) { quotDriver.prepareClassConfig(planDetail, quotation, planDetails); if (!quotation.plans[0].covClass) { if (quotation.iOccupationClass != \"DCL\") { quotation.plans[0].covClass = quotation.iOccupationClass + \"\"; } else { quotDriver.context.addError({ code: \"issued.occupation.declined\", msg: 'Invalid Occupation', covCode: planDetail.conCode }); } }}",
        "preparePolicyOptions": "",
        "prepareSAPremConfig": "",
        "prepareTermConfig": "",
        "saFunc": "",
        "validAfterCalcFunc": "function (quotation, planInfo, planDetail) { quotValid.validatePlanAfterCalc(quotation, planInfo, planDetail); let plans = quotation.plans; if (planDetail.gstInd == \"Y\") { for (let i in plans) { let plan = plans[i]; if (plan.sumInsured) { plan.tax = { yearTax: math.number(math.round(math.multiply(math.bignumber(plan.yearPrem), planDetail.gstRate), 2)), halfYearTax: math.number(math.round(math.multiply(math.bignumber(plan.halfYearPrem), planDetail.gstRate), 2)), quarterTax: math.number(math.round(math.multiply(math.bignumber(plan.quarterPrem), planDetail.gstRate), 2)), monthTax: math.number(math.round(math.multiply(math.bignumber(plan.monthPrem), planDetail.gstRate), 2)) }; plan.premium = math.number(math.round(math.multiply(math.bignumber(plan.premium), 1 + planDetail.gstRate), 2)); } } quotation.tax = { yearTax: math.number(math.round(math.multiply(math.bignumber(quotation.totYearPrem), planDetail.gstRate), 2)), halfYearTax: math.number(math.round(math.multiply(math.bignumber(quotation.totHalfyearPrem), planDetail.gstRate), 2)), quarterTax: math.number(math.round(math.multiply(math.bignumber(quotation.totQuarterPrem), planDetail.gstRate), 2)), monthTax:math.number(math.round(math.multiply(math.bignumber(quotation.totMonthPrem), planDetail.gstRate), 2)) }; quotation.totYearPrem = math.number(math.add(math.bignumber(quotation.totYearPrem), quotation.tax.yearTax)); quotation.totHalfyearPrem = math.number(math.add(math.bignumber(quotation.totHalfyearPrem), quotation.tax.halfYearTax)); quotation.totQuarterPrem = math.number(math.add(math.bignumber(quotation.totQuarterPrem), quotation.tax.quarterTax)); quotation.totMonthPrem = math.number(math.add(math.bignumber(quotation.totMonthPrem), quotation.tax.monthTax)); quotation.premium = math.number(math.round(math.multiply(math.bignumber(quotation.premium), 1 + planDetail.gstRate), 2)); } if (planDetail.planCodeMapping) { let ocls = runFunc(planDetail.formulas.getOccupationClass, quotation, planDetail); for (let i in plans) { if (planDetail.planCodeMapping[plans[i].covCode]) { plans[i].planCode = planDetail.planCodeMapping[plans[i].covCode][ocls]; } } } return quotation.plans[0];}",
        "validBeforeCalcFunc": "",
        "validQuotFunc": "",
        "willValidQuotFunc": ""
    },
    "genderInd": "*",
    "gstInd": "Y",
    "gstRate": 0.07,
    "insuredAgeDesc": {
        "en": "15 (Attained) ~ 70 (Age Nearest Birthday)"
    },
    "isOccupClass": "Y",
    "jointLives": "N",
    "keyProdFeatures": {
        "en": "-",
        "zh-Hant": "-"
    },
    "licence": [
        ""
    ],
    "occupClassType": "pa",
    "payMethodsDesc": {
        "en": "Credit Card"
    },
    "payModeDesc": {
        "en": "Annual, Semi-Annual, Quarterly and Monthly"
    },
    "payModes": [
        {
            "covMonth": 12,
            "default": "N",
            "factor": 1,
            "mode": "A",
            "operator": "M"
        },
        {
            "covMonth": 6,
            "default": "N",
            "factor": 0.52,
            "mode": "S",
            "operator": "M"
        },
        {
            "covMonth": 3,
            "default": "N",
            "factor": 0.26,
            "mode": "Q",
            "operator": "M"
        },
        {
            "covMonth": 1,
            "default": "N",
            "factor": 0.085,
            "mode": "M",
            "operator": "M"
        }
    ],
    "paymentMethods": [
        "crCard",
        "cash"
    ],
    "planCodeMapping": {
        "APR": [
            "APR",
            "APR",
            "APR",
            "APR"
        ],
        "BAA": [
            "PAR1",
            "PAR2",
            "PAR3",
            "PAR4"
        ],
        "BBR": [
            "BBR1",
            "BBR2",
            "BBR3",
            "BBR4"
        ],
        "HIR": [
            "HIR1",
            "HIR2",
            "HIR3",
            "HIR4"
        ],
        "HMR": [
            "HMR1",
            "HMR2",
            "HMR3",
            "HMR4"
        ],
        "MER": [
            "MER1",
            "MER2",
            "MER3",
            "MER4"
        ],
        "MRR": [
            "MRR1",
            "MRR2",
            "MRR3",
            "MRR4"
        ],
        "WIR": [
            "WIR1",
            "WIR2",
            "WIR3",
            ""
        ]
    },
    "planInd": "B",
    "polTermDesc": {
        "en": "To Age 75"
    },
    "polTermInd": "N",
    "polTermRemarkSymbol": "*",
    "premDesc": {
        "en": "-"
    },
    "premInput": [
        {
            "ccy": "SGD",
            "decimal": 2,
            "factor": 0
        }
    ],
    "premInputInd": "N",
    "premMatSameAsPolMat": "Y",
    "premTermDesc": {
        "en": "To Age 75"
    },
    "premTermInd": "N",
    "premTermRemarkSymbol": "*",
    "premTermRule": "BT",
    "premType": "L",
    "prodFeature": {
        "en": "Provides protection against Accidental Death and Accidental Permanent Disablement in the event the Life Assured sustains a bodily Injury caused by an Accident."
    },
    "prod_summary": 2579228,
    "productCategory": "sgResidentOnly",
    "productLine": "AP",
    "rates": {
        "occupationClass": {
            "O1": 4,
            "O10": 1,
            "O100": "DCL",
            "O1000": "DCL",
            "O1001": "DCL",
            "O1002": 4,
            "O1003": 4,
            "O1004": 4,
            "O1005": 4,
            "O1006": "DCL",
            "O1007": "DCL",
            "O1008": 1,
            "O1009": "DCL",
            "O101": "DCL",
            "O1010": "DCL",
            "O1011": 1,
            "O1012": "DCL",
            "O1013": "DCL",
            "O1014": "DCL",
            "O1015": "DCL",
            "O1016": "DCL",
            "O1017": "DCL",
            "O1018": 1,
            "O1019": "DCL",
            "O102": "DCL",
            "O1020": "DCL",
            "O1021": 4,
            "O1022": "DCL",
            "O1023": 1,
            "O1024": 1,
            "O1025": 1,
            "O1026": 1,
            "O1027": 1,
            "O1028": 1,
            "O1029": 4,
            "O103": 1,
            "O1030": "DCL",
            "O1031": 1,
            "O1032": 4,
            "O1033": 1,
            "O1034": "DCL",
            "O1035": "DCL",
            "O1036": "DCL",
            "O1037": "DCL",
            "O1038": "DCL",
            "O1039": "DCL",
            "O104": 4,
            "O1040": "DCL",
            "O1041": "DCL",
            "O1042": "DCL",
            "O1043": 4,
            "O1044": 4,
            "O1045": 4,
            "O1046": 4,
            "O1047": 1,
            "O1048": 4,
            "O1049": 4,
            "O105": 2,
            "O1050": 1,
            "O1051": 1,
            "O1052": 1,
            "O1053": "DCL",
            "O1054": "DCL",
            "O1055": "DCL",
            "O1056": "DCL",
            "O1057": "DCL",
            "O1058": 1,
            "O1059": "DCL",
            "O106": "DCL",
            "O1060": "DCL",
            "O1061": "DCL",
            "O1062": 4,
            "O1063": "DCL",
            "O1064": "DCL",
            "O1065": "DCL",
            "O1066": 1,
            "O1067": 1,
            "O1068": 4,
            "O1069": 1,
            "O107": 1,
            "O1070": 4,
            "O1071": 1,
            "O1072": 1,
            "O1073": 1,
            "O1074": 1,
            "O1075": 1,
            "O1076": "DCL",
            "O1077": "DCL",
            "O1078": 1,
            "O1079": 1,
            "O108": 1,
            "O1080": 1,
            "O1081": 1,
            "O1082": 1,
            "O1083": 1,
            "O1084": 1,
            "O1085": "DCL",
            "O1086": "DCL",
            "O1087": "DCL",
            "O1088": "DCL",
            "O1089": "DCL",
            "O109": 1,
            "O1091": "DCL",
            "O1092": "DCL",
            "O1093": "DCL",
            "O1094": 4,
            "O1095": "DCL",
            "O1096": 4,
            "O1097": 4,
            "O1098": 1,
            "O1099": "DCL",
            "O11": 1,
            "O110": 1,
            "O1100": "DCL",
            "O1101": 4,
            "O1102": 1,
            "O1103": "DCL",
            "O1104": 4,
            "O1105": 4,
            "O1106": 1,
            "O1107": 1,
            "O1108": 4,
            "O111": "DCL",
            "O1110": 1,
            "O1111": "DCL",
            "O1112": "DCL",
            "O1113": 4,
            "O1114": 1,
            "O1115": 4,
            "O1116": 1,
            "O1117": 1,
            "O1118": 1,
            "O1119": 1,
            "O112": 1,
            "O1120": "DCL",
            "O1121": "DCL",
            "O1122": "DCL",
            "O1123": 1,
            "O1124": 4,
            "O1125": 1,
            "O1126": "DCL",
            "O1127": 1,
            "O1128": 1,
            "O1129": 1,
            "O113": "DCL",
            "O1130": "DCL",
            "O1131": 2,
            "O1132": 4,
            "O1133": 1,
            "O1134": 4,
            "O1135": "DCL",
            "O1136": "DCL",
            "O1137": "DCL",
            "O1138": 4,
            "O1139": "DCL",
            "O114": 4,
            "O1140": 4,
            "O1141": "DCL",
            "O1142": "DCL",
            "O1143": "DCL",
            "O1144": "DCL",
            "O1145": "DCL",
            "O1146": "DCL",
            "O1147": "DCL",
            "O1148": "DCL",
            "O1149": "DCL",
            "O115": "DCL",
            "O1150": "DCL",
            "O1151": "DCL",
            "O1152": "DCL",
            "O1153": "DCL",
            "O1154": 4,
            "O1155": 4,
            "O1157": 4,
            "O1158": "DCL",
            "O1159": "DCL",
            "O116": "DCL",
            "O1160": 2,
            "O1161": 1,
            "O1162": 1,
            "O1163": "DCL",
            "O1164": "DCL",
            "O1165": "DCL",
            "O1166": "DCL",
            "O1167": "DCL",
            "O1168": "DCL",
            "O1169": "DCL",
            "O117": "DCL",
            "O1170": "DCL",
            "O1171": "DCL",
            "O1172": "DCL",
            "O1173": "DCL",
            "O1174": "DCL",
            "O1175": 1,
            "O1176": 1,
            "O1177": "DCL",
            "O1178": 4,
            "O1179": "DCL",
            "O118": "DCL",
            "O1180": 4,
            "O1181": 1,
            "O1182": 4,
            "O1183": 4,
            "O1184": "DCL",
            "O1185": "DCL",
            "O1186": "DCL",
            "O1187": 1,
            "O1188": "DCL",
            "O1189": 1,
            "O119": "DCL",
            "O1190": 1,
            "O1191": "DCL",
            "O1192": "DCL",
            "O1193": 1,
            "O1194": "DCL",
            "O1195": 4,
            "O1196": 1,
            "O1197": 1,
            "O1198": 1,
            "O1199": 1,
            "O12": 1,
            "O120": 1,
            "O1200": 1,
            "O1201": 1,
            "O1202": "DCL",
            "O1203": 3,
            "O1204": "DCL",
            "O1205": 1,
            "O1206": "DCL",
            "O1207": 1,
            "O1208": "DCL",
            "O1209": "DCL",
            "O121": "DCL",
            "O1210": "DCL",
            "O1211": "DCL",
            "O1212": "DCL",
            "O1213": "DCL",
            "O1214": "DCL",
            "O1215": "DCL",
            "O1216": "DCL",
            "O1217": 1,
            "O1218": "DCL",
            "O1219": "DCL",
            "O122": "DCL",
            "O1220": "DCL",
            "O1221": 4,
            "O1222": "DCL",
            "O1223": "DCL",
            "O1224": "DCL",
            "O1225": "DCL",
            "O1226": 1,
            "O1227": "DCL",
            "O1228": "DCL",
            "O1229": 4,
            "O123": "DCL",
            "O1230": 1,
            "O1231": 1,
            "O1232": 1,
            "O1233": "DCL",
            "O1234": "DCL",
            "O1235": "DCL",
            "O1236": "DCL",
            "O1237": 4,
            "O1238": 4,
            "O1239": 1,
            "O124": "DCL",
            "O1240": "DCL",
            "O1241": "DCL",
            "O1242": "DCL",
            "O1243": 4,
            "O1244": 4,
            "O1245": "DCL",
            "O1246": 4,
            "O1247": "DCL",
            "O1248": "DCL",
            "O1249": 4,
            "O125": "DCL",
            "O1250": 4,
            "O1251": "DCL",
            "O1252": "DCL",
            "O1253": "DCL",
            "O1254": "DCL",
            "O1255": "DCL",
            "O1256": "DCL",
            "O1257": "DCL",
            "O1258": "DCL",
            "O126": 4,
            "O1260": "DCL",
            "O1261": 1,
            "O1262": 1,
            "O1263": 1,
            "O1264": 1,
            "O1265": 1,
            "O1266": 1,
            "O1267": 1,
            "O1268": 4,
            "O1269": 4,
            "O127": 4,
            "O1270": "DCL",
            "O1271": 4,
            "O1272": 4,
            "O1273": 4,
            "O1274": "DCL",
            "O1275": 4,
            "O1276": "DCL",
            "O1277": "DCL",
            "O1278": 1,
            "O1279": "DCL",
            "O128": 4,
            "O1280": "DCL",
            "O1281": "DCL",
            "O1282": "DCL",
            "O1283": 1,
            "O1284": "DCL",
            "O1285": "DCL",
            "O1286": "DCL",
            "O1287": 1,
            "O1288": "DCL",
            "O1289": "DCL",
            "O129": 4,
            "O1290": 1,
            "O1291": "DCL",
            "O1292": 4,
            "O1293": 1,
            "O1294": "DCL",
            "O1295": "DCL",
            "O1296": "DCL",
            "O1297": "DCL",
            "O1298": "DCL",
            "O1299": 4,
            "O13": 1,
            "O130": 2,
            "O1300": 4,
            "O1301": 4,
            "O1302": 1,
            "O1303": 1,
            "O1304": "DCL",
            "O1305": 1,
            "O1306": 1,
            "O1307": 1,
            "O1308": "DCL",
            "O1309": "DCL",
            "O131": "DCL",
            "O1310": "DCL",
            "O1311": "DCL",
            "O1312": 4,
            "O1313": "DCL",
            "O1314": "DCL",
            "O1315": "DCL",
            "O1316": "DCL",
            "O1317": "DCL",
            "O1318": "DCL",
            "O1319": 4,
            "O132": "DCL",
            "O1320": "DCL",
            "O1321": 4,
            "O1322": 4,
            "O1323": 1,
            "O1324": "DCL",
            "O1325": "DCL",
            "O1326": 1,
            "O1327": "DCL",
            "O1328": 4,
            "O1329": 1,
            "O133": "DCL",
            "O1330": 4,
            "O1331": "DCL",
            "O1332": 1,
            "O1333": "DCL",
            "O1334": 1,
            "O1335": 4,
            "O1338": 4,
            "O1339": 4,
            "O134": "DCL",
            "O1340": 4,
            "O1341": 4,
            "O1342": 1,
            "O1343": 1,
            "O1344": 1,
            "O1345": 1,
            "O1346": 1,
            "O1347": 4,
            "O1348": 1,
            "O1349": 4,
            "O135": "DCL",
            "O1350": 4,
            "O1351": 1,
            "O1352": "DCL",
            "O1353": "DCL",
            "O1354": "DCL",
            "O1355": 3,
            "O1356": 1,
            "O1357": 1,
            "O1358": 1,
            "O1359": 1,
            "O136": "DCL",
            "O1360": 1,
            "O1361": 1,
            "O1362": 1,
            "O1363": 1,
            "O1364": 4,
            "O1365": 4,
            "O1366": 1,
            "O1367": 4,
            "O1368": 1,
            "O1369": 1,
            "O137": "DCL",
            "O1370": 4,
            "O1371": "DCL",
            "O1372": "DCL",
            "O1373": 4,
            "O1374": "DCL",
            "O1375": 4,
            "O1376": "DCL",
            "O1377": "DCL",
            "O1379": "DCL",
            "O138": "DCL",
            "O1380": "DCL",
            "O1381": "DCL",
            "O1382": "DCL",
            "O1383": "DCL",
            "O1384": "DCL",
            "O1385": "DCL",
            "O1386": "DCL",
            "O1387": 1,
            "O1388": 4,
            "O1389": 1,
            "O139": "DCL",
            "O1390": "DCL",
            "O1391": "DCL",
            "O1392": "DCL",
            "O1393": "DCL",
            "O1394": "DCL",
            "O1395": "DCL",
            "O1396": 1,
            "O1397": 4,
            "O1398": "DCL",
            "O1399": "DCL",
            "O14": 1,
            "O140": "DCL",
            "O1400": "DCL",
            "O1401": 1,
            "O1402": 1,
            "O1403": "DCL",
            "O1404": 1,
            "O1405": "DCL",
            "O1406": 1,
            "O1407": "DCL",
            "O1408": "DCL",
            "O1409": "DCL",
            "O141": "DCL",
            "O1410": "DCL",
            "O1411": "DCL",
            "O1412": 1,
            "O1413": 4,
            "O1414": "DCL",
            "O1415": "DCL",
            "O1416": 1,
            "O1417": "DCL",
            "O1418": "DCL",
            "O1419": 1,
            "O142": "DCL",
            "O1420": "DCL",
            "O1421": "DCL",
            "O1422": "DCL",
            "O1423": "DCL",
            "O1424": "DCL",
            "O1425": "DCL",
            "O1426": "DCL",
            "O1427": "DCL",
            "O1428": "DCL",
            "O1429": "DCL",
            "O143": "DCL",
            "O1430": "DCL",
            "O1431": "DCL",
            "O1432": "DCL",
            "O1433": 4,
            "O1434": "DCL",
            "O1435": 1,
            "O1436": 1,
            "O1437": 1,
            "O1438": 1,
            "O1439": 1,
            "O144": "DCL",
            "O1440": 1,
            "O1441": 1,
            "O1442": 1,
            "O1443": 4,
            "O1444": 1,
            "O1445": "DCL",
            "O1446": "DCL",
            "O1447": "DCL",
            "O1448": "DCL",
            "O1449": 1,
            "O145": "DCL",
            "O1450": 4,
            "O1451": 1,
            "O1452": 1,
            "O1453": "DCL",
            "O1454": 1,
            "O1455": 4,
            "O1456": "DCL",
            "O1457": 4,
            "O1458": "DCL",
            "O1459": "DCL",
            "O146": "DCL",
            "O1460": "DCL",
            "O1461": 4,
            "O1462": "DCL",
            "O1463": "DCL",
            "O1464": 4,
            "O1465": 1,
            "O1466": "DCL",
            "O1467": "DCL",
            "O1468": 4,
            "O1469": 1,
            "O147": 1,
            "O1470": "DCL",
            "O1471": 4,
            "O1472": "DCL",
            "O1473": "DCL",
            "O1474": "DCL",
            "O1475": 1,
            "O1476": 4,
            "O1477": 1,
            "O1478": 1,
            "O1479": "DCL",
            "O148": 4,
            "O1480": 4,
            "O1481": 4,
            "O1482": "DCL",
            "O1483": 1,
            "O1484": "DCL",
            "O1485": "DCL",
            "O1486": "DCL",
            "O1487": "DCL",
            "O1488": 1,
            "O1489": 1,
            "O149": 4,
            "O1490": 1,
            "O1491": "DCL",
            "O1492": "DCL",
            "O1493": 4,
            "O1494": "DCL",
            "O1495": "DCL",
            "O1496": 1,
            "O1498": 4,
            "O1499": "DCL",
            "O15": 3,
            "O150": 1,
            "O1500": "DCL",
            "O1501": 4,
            "O1502": "DCL",
            "O1503": "DCL",
            "O1504": 1,
            "O1505": "DCL",
            "O1506": "DCL",
            "O1507": "DCL",
            "O1508": 4,
            "O1509": "DCL",
            "O151": "DCL",
            "O1510": "DCL",
            "O1511": "DCL",
            "O1512": 4,
            "O1513": 4,
            "O1514": 4,
            "O1515": 4,
            "O1516": 4,
            "O1517": 1,
            "O1518": 4,
            "O1519": 1,
            "O152": "DCL",
            "O1520": "DCL",
            "O1521": "DCL",
            "O1522": "DCL",
            "O1523": "DCL",
            "O1524": "DCL",
            "O1525": 1,
            "O1526": 1,
            "O1527": 4,
            "O1528": "DCL",
            "O153": "DCL",
            "O154": "DCL",
            "O155": "DCL",
            "O156": "DCL",
            "O157": 4,
            "O158": 1,
            "O159": "DCL",
            "O16": "DCL",
            "O160": "DCL",
            "O161": "DCL",
            "O162": "DCL",
            "O163": 4,
            "O164": 1,
            "O165": "DCL",
            "O166": "DCL",
            "O167": 4,
            "O168": "DCL",
            "O169": 1,
            "O17": "DCL",
            "O170": 1,
            "O171": 1,
            "O172": "DCL",
            "O173": "DCL",
            "O174": 1,
            "O175": 1,
            "O176": 1,
            "O177": 1,
            "O178": 1,
            "O179": 1,
            "O18": 1,
            "O180": 4,
            "O181": "DCL",
            "O182": 4,
            "O183": 1,
            "O184": 1,
            "O185": "DCL",
            "O186": "DCL",
            "O187": "DCL",
            "O188": 4,
            "O189": 4,
            "O19": "DCL",
            "O190": 1,
            "O191": 1,
            "O192": 1,
            "O193": 4,
            "O194": 4,
            "O195": 1,
            "O196": "DCL",
            "O197": "DCL",
            "O198": "DCL",
            "O199": 1,
            "O2": "DCL",
            "O20": "DCL",
            "O200": 4,
            "O201": 4,
            "O202": "DCL",
            "O203": 1,
            "O204": 4,
            "O205": 1,
            "O206": "DCL",
            "O207": 1,
            "O208": 1,
            "O209": 1,
            "O21": "DCL",
            "O210": "DCL",
            "O211": "DCL",
            "O212": "DCL",
            "O213": "DCL",
            "O214": 1,
            "O215": 1,
            "O216": 1,
            "O217": 2,
            "O218": 4,
            "O219": 4,
            "O22": "DCL",
            "O220": 4,
            "O221": 1,
            "O222": 4,
            "O223": "DCL",
            "O224": "DCL",
            "O225": "DCL",
            "O226": "DCL",
            "O227": "DCL",
            "O228": "DCL",
            "O229": 1,
            "O23": "DCL",
            "O230": "DCL",
            "O231": 4,
            "O232": 1,
            "O233": "DCL",
            "O234": 4,
            "O235": 1,
            "O236": 4,
            "O237": 4,
            "O238": 4,
            "O239": 4,
            "O24": 4,
            "O240": 4,
            "O241": 1,
            "O242": 1,
            "O243": 1,
            "O244": 1,
            "O245": 1,
            "O246": 4,
            "O247": 1,
            "O248": 4,
            "O249": 4,
            "O25": 1,
            "O250": 4,
            "O251": 4,
            "O252": 4,
            "O253": 4,
            "O254": 1,
            "O255": 4,
            "O256": "DCL",
            "O257": 1,
            "O258": 1,
            "O259": 1,
            "O26": "DCL",
            "O260": 1,
            "O261": 1,
            "O262": 1,
            "O263": "DCL",
            "O264": "DCL",
            "O265": 4,
            "O266": 4,
            "O267": "DCL",
            "O268": 1,
            "O269": 1,
            "O27": "DCL",
            "O270": 1,
            "O271": 1,
            "O272": 1,
            "O273": 1,
            "O274": 1,
            "O275": 4,
            "O276": 1,
            "O277": "DCL",
            "O278": "DCL",
            "O279": "DCL",
            "O28": "DCL",
            "O280": 1,
            "O281": "DCL",
            "O282": "DCL",
            "O283": 4,
            "O284": 1,
            "O285": 1,
            "O286": 4,
            "O287": 4,
            "O288": 4,
            "O289": 4,
            "O29": "DCL",
            "O290": 1,
            "O291": 1,
            "O292": 4,
            "O293": 1,
            "O294": 1,
            "O295": 1,
            "O296": 1,
            "O297": "DCL",
            "O298": 1,
            "O299": 1,
            "O3": 1,
            "O30": "DCL",
            "O300": 4,
            "O301": 1,
            "O302": 1,
            "O303": 4,
            "O304": 1,
            "O305": 4,
            "O306": "DCL",
            "O307": 1,
            "O308": "DCL",
            "O309": "DCL",
            "O31": "DCL",
            "O310": "DCL",
            "O311": 1,
            "O312": 1,
            "O313": 1,
            "O314": 4,
            "O315": "DCL",
            "O316": "DCL",
            "O317": "DCL",
            "O318": 1,
            "O319": 1,
            "O32": 1,
            "O320": 4,
            "O321": 1,
            "O322": 4,
            "O323": "DCL",
            "O324": 1,
            "O325": "DCL",
            "O326": 1,
            "O327": 4,
            "O328": 1,
            "O329": 4,
            "O33": "DCL",
            "O330": 1,
            "O331": "DCL",
            "O332": 4,
            "O333": 1,
            "O334": 1,
            "O335": 1,
            "O336": 1,
            "O337": 1,
            "O338": "DCL",
            "O339": "DCL",
            "O34": 1,
            "O341": 4,
            "O342": 1,
            "O343": 1,
            "O344": "DCL",
            "O345": "DCL",
            "O346": 1,
            "O347": 1,
            "O348": 1,
            "O349": 1,
            "O35": 1,
            "O350": "DCL",
            "O351": "DCL",
            "O353": "DCL",
            "O354": 1,
            "O355": "DCL",
            "O356": 4,
            "O357": 1,
            "O358": 1,
            "O359": "DCL",
            "O36": 1,
            "O360": 4,
            "O361": "DCL",
            "O362": "DCL",
            "O363": "DCL",
            "O364": 1,
            "O365": 1,
            "O366": "DCL",
            "O367": 1,
            "O368": 4,
            "O369": "DCL",
            "O37": 1,
            "O370": "DCL",
            "O371": "DCL",
            "O372": "DCL",
            "O373": "DCL",
            "O374": "DCL",
            "O375": "DCL",
            "O376": 1,
            "O377": 1,
            "O378": 1,
            "O379": 1,
            "O38": 1,
            "O380": 1,
            "O381": 1,
            "O382": 1,
            "O383": "DCL",
            "O384": "DCL",
            "O385": "DCL",
            "O386": "DCL",
            "O387": "DCL",
            "O388": 4,
            "O389": "DCL",
            "O39": 1,
            "O390": "DCL",
            "O391": 4,
            "O392": 4,
            "O393": 4,
            "O394": 1,
            "O395": 1,
            "O396": 1,
            "O397": 1,
            "O398": "DCL",
            "O399": 1,
            "O4": 1,
            "O40": 1,
            "O400": 1,
            "O401": 1,
            "O402": 1,
            "O403": 1,
            "O404": "DCL",
            "O405": "DCL",
            "O406": "DCL",
            "O407": "DCL",
            "O408": 1,
            "O409": 1,
            "O41": 1,
            "O410": 1,
            "O411": 4,
            "O412": 1,
            "O413": "DCL",
            "O414": "DCL",
            "O415": "DCL",
            "O416": "DCL",
            "O417": "DCL",
            "O418": "DCL",
            "O419": "DCL",
            "O42": 1,
            "O420": 4,
            "O421": "DCL",
            "O422": "DCL",
            "O423": 1,
            "O424": "DCL",
            "O425": "DCL",
            "O426": "DCL",
            "O427": 1,
            "O428": 4,
            "O429": 1,
            "O43": 1,
            "O430": 1,
            "O431": 1,
            "O432": "DCL",
            "O433": 4,
            "O434": "DCL",
            "O435": "DCL",
            "O436": "DCL",
            "O437": "DCL",
            "O438": "DCL",
            "O439": 4,
            "O44": 1,
            "O440": "DCL",
            "O441": "DCL",
            "O442": "DCL",
            "O443": "DCL",
            "O444": "DCL",
            "O445": "DCL",
            "O446": "DCL",
            "O447": "DCL",
            "O448": "DCL",
            "O449": "DCL",
            "O45": 1,
            "O450": "DCL",
            "O451": 1,
            "O452": 1,
            "O453": 1,
            "O454": 1,
            "O455": "DCL",
            "O456": "DCL",
            "O457": "DCL",
            "O458": 4,
            "O459": 1,
            "O46": "DCL",
            "O460": "DCL",
            "O462": "DCL",
            "O463": "DCL",
            "O464": "DCL",
            "O465": "DCL",
            "O466": 4,
            "O467": 1,
            "O468": "DCL",
            "O469": "DCL",
            "O47": "DCL",
            "O470": 4,
            "O471": 4,
            "O472": 4,
            "O473": 1,
            "O474": "DCL",
            "O475": 4,
            "O476": 1,
            "O477": 4,
            "O478": "DCL",
            "O479": 1,
            "O48": 1,
            "O480": 4,
            "O481": 1,
            "O482": 4,
            "O483": 1,
            "O484": "DCL",
            "O485": 1,
            "O486": 1,
            "O487": 4,
            "O488": "DCL",
            "O489": "DCL",
            "O49": 1,
            "O490": 1,
            "O491": "DCL",
            "O492": "DCL",
            "O493": "DCL",
            "O494": 1,
            "O495": 4,
            "O496": 4,
            "O497": 1,
            "O498": 1,
            "O499": "DCL",
            "O5": 1,
            "O50": "DCL",
            "O500": "DCL",
            "O501": 1,
            "O502": 1,
            "O503": 1,
            "O504": 4,
            "O505": 1,
            "O506": "DCL",
            "O507": "DCL",
            "O508": "DCL",
            "O509": "DCL",
            "O51": "DCL",
            "O510": 4,
            "O511": 1,
            "O512": 1,
            "O513": 1,
            "O514": "DCL",
            "O515": 1,
            "O516": 1,
            "O517": 1,
            "O518": 1,
            "O519": 1,
            "O52": "DCL",
            "O520": "DCL",
            "O521": 4,
            "O522": 2,
            "O523": "DCL",
            "O524": "DCL",
            "O525": "DCL",
            "O526": "DCL",
            "O527": 4,
            "O528": 4,
            "O529": "DCL",
            "O53": "DCL",
            "O530": 4,
            "O531": "DCL",
            "O532": 4,
            "O533": 4,
            "O534": 4,
            "O535": 4,
            "O536": 4,
            "O537": "DCL",
            "O538": "DCL",
            "O539": "DCL",
            "O54": "DCL",
            "O540": "DCL",
            "O541": 4,
            "O542": "DCL",
            "O543": "DCL",
            "O544": "DCL",
            "O545": "DCL",
            "O546": "DCL",
            "O547": "DCL",
            "O548": "DCL",
            "O549": 4,
            "O55": "DCL",
            "O550": 4,
            "O551": 4,
            "O552": 4,
            "O553": "DCL",
            "O554": "DCL",
            "O555": "DCL",
            "O556": "DCL",
            "O557": "DCL",
            "O558": "DCL",
            "O559": "DCL",
            "O56": "DCL",
            "O560": 1,
            "O561": 1,
            "O562": "DCL",
            "O563": 4,
            "O564": 4,
            "O565": "DCL",
            "O566": 2,
            "O567": 4,
            "O568": 1,
            "O569": 1,
            "O57": "DCL",
            "O570": "DCL",
            "O571": "DCL",
            "O572": "DCL",
            "O573": "DCL",
            "O574": 4,
            "O575": 1,
            "O576": 1,
            "O577": "DCL",
            "O578": 1,
            "O579": "DCL",
            "O58": "DCL",
            "O580": "DCL",
            "O581": 1,
            "O582": 1,
            "O583": 1,
            "O584": "DCL",
            "O585": "DCL",
            "O586": "DCL",
            "O587": 1,
            "O588": "DCL",
            "O589": "DCL",
            "O59": 2,
            "O590": 4,
            "O591": "DCL",
            "O592": "DCL",
            "O593": 1,
            "O594": "DCL",
            "O595": 1,
            "O596": "DCL",
            "O597": 1,
            "O598": 1,
            "O599": 1,
            "O6": "DCL",
            "O60": 1,
            "O600": 4,
            "O601": 4,
            "O602": 4,
            "O603": 4,
            "O604": 4,
            "O605": 4,
            "O606": 1,
            "O607": "DCL",
            "O608": "DCL",
            "O609": "DCL",
            "O61": "DCL",
            "O610": 4,
            "O611": 4,
            "O612": 1,
            "O613": 1,
            "O614": 1,
            "O615": "DCL",
            "O616": 1,
            "O617": 1,
            "O618": 1,
            "O619": "DCL",
            "O62": "DCL",
            "O620": 4,
            "O621": "DCL",
            "O622": "DCL",
            "O623": 4,
            "O624": "DCL",
            "O625": "DCL",
            "O626": "DCL",
            "O627": "DCL",
            "O628": "DCL",
            "O629": "DCL",
            "O63": "DCL",
            "O630": 4,
            "O631": 4,
            "O632": 4,
            "O633": 4,
            "O634": 4,
            "O635": "DCL",
            "O636": "DCL",
            "O637": "DCL",
            "O638": 4,
            "O639": "DCL",
            "O64": 3,
            "O640": 1,
            "O641": 4,
            "O642": "DCL",
            "O643": 4,
            "O644": "DCL",
            "O646": 4,
            "O647": "DCL",
            "O648": 1,
            "O649": 1,
            "O65": 3,
            "O650": "DCL",
            "O651": 1,
            "O652": 4,
            "O653": 1,
            "O654": 1,
            "O656": 1,
            "O657": "DCL",
            "O658": "DCL",
            "O659": "DCL",
            "O66": "DCL",
            "O660": "DCL",
            "O661": 1,
            "O662": "DCL",
            "O663": 1,
            "O664": "DCL",
            "O665": "DCL",
            "O666": "DCL",
            "O667": "DCL",
            "O668": "DCL",
            "O669": "DCL",
            "O67": "DCL",
            "O670": 4,
            "O671": "DCL",
            "O672": "DCL",
            "O673": "DCL",
            "O674": 4,
            "O675": 4,
            "O676": 1,
            "O677": "DCL",
            "O678": 1,
            "O679": 4,
            "O68": 1,
            "O680": 4,
            "O681": "DCL",
            "O682": 4,
            "O683": 1,
            "O684": 1,
            "O685": 1,
            "O686": 1,
            "O687": 1,
            "O688": 1,
            "O689": 1,
            "O69": 1,
            "O690": 1,
            "O691": 1,
            "O692": "DCL",
            "O693": 1,
            "O694": "DCL",
            "O695": 1,
            "O696": 1,
            "O697": 4,
            "O698": 1,
            "O699": 4,
            "O7": 1,
            "O70": 4,
            "O700": 1,
            "O701": 4,
            "O702": "DCL",
            "O703": "DCL",
            "O704": 4,
            "O705": "DCL",
            "O706": "DCL",
            "O707": 1,
            "O708": 1,
            "O709": 1,
            "O71": "DCL",
            "O710": 1,
            "O711": 1,
            "O712": "DCL",
            "O713": 1,
            "O714": 1,
            "O715": 1,
            "O716": 1,
            "O717": 1,
            "O718": 1,
            "O719": 1,
            "O72": 1,
            "O720": 1,
            "O721": "DCL",
            "O722": "DCL",
            "O723": 1,
            "O724": 1,
            "O725": 1,
            "O726": 1,
            "O727": 1,
            "O728": 1,
            "O729": 1,
            "O73": 1,
            "O730": "DCL",
            "O731": "DCL",
            "O732": "DCL",
            "O733": 1,
            "O734": 4,
            "O735": 1,
            "O736": "DCL",
            "O737": 1,
            "O738": 1,
            "O739": 1,
            "O74": 1,
            "O740": "DCL",
            "O741": "DCL",
            "O742": 1,
            "O743": 1,
            "O744": 1,
            "O745": "DCL",
            "O746": 4,
            "O747": 4,
            "O748": "DCL",
            "O749": "DCL",
            "O75": 4,
            "O750": "DCL",
            "O751": "DCL",
            "O752": 1,
            "O753": "DCL",
            "O754": 1,
            "O755": "DCL",
            "O756": "DCL",
            "O757": "DCL",
            "O758": "DCL",
            "O759": "DCL",
            "O76": 1,
            "O760": 1,
            "O761": "DCL",
            "O762": "DCL",
            "O763": 1,
            "O764": 1,
            "O765": 1,
            "O766": 1,
            "O767": 1,
            "O768": 1,
            "O769": 1,
            "O77": "DCL",
            "O770": "DCL",
            "O771": "DCL",
            "O772": "DCL",
            "O773": "DCL",
            "O774": "DCL",
            "O775": "DCL",
            "O776": "DCL",
            "O777": "DCL",
            "O778": "DCL",
            "O779": "DCL",
            "O78": 1,
            "O780": "DCL",
            "O781": 1,
            "O782": 4,
            "O783": 4,
            "O784": 1,
            "O785": "DCL",
            "O786": 4,
            "O787": 4,
            "O788": "DCL",
            "O789": "DCL",
            "O790": "DCL",
            "O791": 1,
            "O792": "DCL",
            "O793": "DCL",
            "O794": 1,
            "O795": "DCL",
            "O796": "DCL",
            "O797": "DCL",
            "O798": "DCL",
            "O799": 4,
            "O8": 1,
            "O80": "DCL",
            "O800": 1,
            "O801": "DCL",
            "O802": "DCL",
            "O803": "DCL",
            "O804": "DCL",
            "O805": "DCL",
            "O807": 3,
            "O808": 4,
            "O809": 1,
            "O81": "DCL",
            "O810": 1,
            "O811": 1,
            "O812": 1,
            "O813": 1,
            "O814": 4,
            "O815": 4,
            "O816": "DCL",
            "O817": "DCL",
            "O818": "DCL",
            "O819": "DCL",
            "O82": "DCL",
            "O820": "DCL",
            "O821": 1,
            "O822": "DCL",
            "O823": "DCL",
            "O824": "DCL",
            "O825": "DCL",
            "O826": 4,
            "O827": 4,
            "O828": "DCL",
            "O829": "DCL",
            "O83": "DCL",
            "O830": "DCL",
            "O831": "DCL",
            "O832": "DCL",
            "O833": "DCL",
            "O834": "DCL",
            "O835": 1,
            "O836": 4,
            "O837": 4,
            "O838": 4,
            "O839": 1,
            "O84": "DCL",
            "O840": 1,
            "O841": "DCL",
            "O842": 1,
            "O843": 1,
            "O844": 4,
            "O845": 4,
            "O846": 4,
            "O847": 4,
            "O848": 4,
            "O849": "DCL",
            "O85": 1,
            "O850": "DCL",
            "O851": 4,
            "O852": "DCL",
            "O853": "DCL",
            "O854": "DCL",
            "O855": 1,
            "O856": 1,
            "O857": "DCL",
            "O858": "DCL",
            "O859": "DCL",
            "O86": 4,
            "O860": 4,
            "O861": 4,
            "O862": "DCL",
            "O863": "DCL",
            "O864": "DCL",
            "O865": 4,
            "O866": 4,
            "O867": 4,
            "O868": 1,
            "O869": 1,
            "O87": "DCL",
            "O870": 1,
            "O871": 1,
            "O872": 1,
            "O873": 1,
            "O874": 1,
            "O875": 1,
            "O876": 1,
            "O877": "DCL",
            "O878": 1,
            "O879": 1,
            "O88": "DCL",
            "O880": 1,
            "O881": 1,
            "O882": 1,
            "O883": 4,
            "O884": 1,
            "O885": 4,
            "O886": 1,
            "O887": 4,
            "O888": 4,
            "O889": "DCL",
            "O89": "DCL",
            "O890": 1,
            "O891": 1,
            "O892": 3,
            "O893": 4,
            "O894": 1,
            "O895": 1,
            "O896": 4,
            "O897": "DCL",
            "O898": 1,
            "O899": 1,
            "O9": 1,
            "O90": "DCL",
            "O900": 2,
            "O901": 1,
            "O902": 1,
            "O903": 1,
            "O904": "DCL",
            "O905": 4,
            "O906": "DCL",
            "O907": 1,
            "O908": "DCL",
            "O909": "DCL",
            "O91": "DCL",
            "O910": 3,
            "O911": "DCL",
            "O912": 1,
            "O913": 1,
            "O914": 1,
            "O915": "DCL",
            "O916": "DCL",
            "O917": "DCL",
            "O918": 4,
            "O919": 1,
            "O92": "DCL",
            "O920": 4,
            "O921": 4,
            "O922": 1,
            "O923": "DCL",
            "O924": 1,
            "O925": "DCL",
            "O926": "DCL",
            "O927": 4,
            "O928": 1,
            "O929": 4,
            "O93": "DCL",
            "O930": "DCL",
            "O931": "DCL",
            "O932": "DCL",
            "O933": "DCL",
            "O934": "DCL",
            "O935": "DCL",
            "O936": "DCL",
            "O937": "DCL",
            "O938": "DCL",
            "O939": 1,
            "O94": "DCL",
            "O940": "DCL",
            "O941": "DCL",
            "O942": "DCL",
            "O943": "DCL",
            "O944": "DCL",
            "O945": "DCL",
            "O946": "DCL",
            "O947": "DCL",
            "O948": 1,
            "O949": "DCL",
            "O95": "DCL",
            "O950": "DCL",
            "O951": "DCL",
            "O952": 4,
            "O953": 4,
            "O954": 1,
            "O955": 4,
            "O956": 1,
            "O957": 4,
            "O958": "DCL",
            "O959": "DCL",
            "O96": "DCL",
            "O960": 1,
            "O961": 1,
            "O962": "DCL",
            "O963": 2,
            "O964": 1,
            "O965": 1,
            "O966": 4,
            "O967": 1,
            "O968": 4,
            "O969": 1,
            "O97": "DCL",
            "O970": 4,
            "O971": 1,
            "O972": 4,
            "O973": 4,
            "O974": 4,
            "O975": 4,
            "O976": 2,
            "O977": 2,
            "O978": 1,
            "O979": 4,
            "O98": "DCL",
            "O980": 4,
            "O981": 1,
            "O982": 4,
            "O983": 4,
            "O984": "DCL",
            "O985": "DCL",
            "O986": "DCL",
            "O987": "DCL",
            "O988": "DCL",
            "O989": 4,
            "O99": "DCL",
            "O990": "DCL",
            "O991": "DCL",
            "O992": "DCL",
            "O993": "DCL",
            "O994": "DCL",
            "O995": "DCL",
            "O996": "DCL",
            "O997": "DCL",
            "O998": "DCL",
            "O999": "DCL"
        },
        "premRate": {
            "A": [
                9.4,
                10.3,
                11.3,
                14.1
            ],
            "M": [
                0.8225,
                0.90125,
                0.98875,
                1.23375
            ],
            "Q": [
                2.444,
                2.678,
                2.938,
                3.666
            ],
            "S": [
                4.794,
                5.253,
                5.763,
                7.191
            ]
        }
    },
    "ref_no": "Band Aid",
    "releaseDate": "2018-03-21 16:25:25",
    "remarks": {
        "en": "* AXA Band Aid is renewable yearly up to the date the Life Assured attain seventy-five (75) years old, based on age nearest birthday. Premiums are payable upon each renewal.",
        "zh-Hant": "-"
    },
    "reportTemplate": [
        {
            "covCode": "0",
            "desc": "Cover page",
            "pdfCode": "BA_COVER_PAGE_GST"
        },
        {
            "covCode": "0",
            "desc": "Main BI",
            "pdfCode": "BA_MAIN_BI"
        },
        {
            "covCode": "0",
            "desc": "Product Summary",
            "pdfCode": "BA_PROD_SUMMARY"
        }
    ],
    "riderList": [
        {
            "condition": [
                {
                    "autoAttach": "",
                    "compulsory": "",
                    "country": "*",
                    "dealerGroup": "*",
                    "endAge": 70,
                    "saRate": "",
                    "saRule": "na",
                    "staAge": 0
                }
            ],
            "covCode": "MRR"
        },
        {
            "condition": [
                {
                    "autoAttach": "",
                    "compulsory": "",
                    "country": "*",
                    "dealerGroup": "*",
                    "endAge": 70,
                    "saRate": "",
                    "saRule": "na",
                    "staAge": 0
                }
            ],
            "covCode": "HIR"
        },
        {
            "condition": [
                {
                    "autoAttach": "",
                    "compulsory": "",
                    "country": "*",
                    "dealerGroup": "*",
                    "endAge": 70,
                    "saRate": "",
                    "saRule": "na",
                    "staAge": 0
                }
            ],
            "covCode": "WIR"
        },
        {
            "condition": [
                {
                    "autoAttach": "",
                    "compulsory": "",
                    "country": "*",
                    "dealerGroup": "*",
                    "endAge": 70,
                    "saRate": "",
                    "saRule": "na",
                    "staAge": 0
                }
            ],
            "covCode": "BBR"
        },
        {
            "condition": [
                {
                    "autoAttach": "",
                    "compulsory": "",
                    "country": "*",
                    "dealerGroup": "*",
                    "endAge": 70,
                    "saRate": "",
                    "saRule": "na",
                    "staAge": 0
                }
            ],
            "covCode": "HMR"
        },
        {
            "condition": [
                {
                    "autoAttach": "",
                    "compulsory": "",
                    "country": "*",
                    "dealerGroup": "*",
                    "endAge": 70,
                    "saRate": "",
                    "saRule": "na",
                    "staAge": 0
                }
            ],
            "covCode": "MER"
        }
    ],
    "saDesc": {
        "en": "50,000 to 3,500,000"
    },
    "saInput": [
        {
            "ccy": "SGD",
            "decimal": 0,
            "factor": 10000
        }
    ],
    "saInputInd": "Y",
    "saPostfix": {},
    "saScale": 10000,
    "saSecDesc": {
        "en": "Minimum premium according the Occupation"
    },
    "saViewInd": "Y",
    "smokeInd": "*",
    "status": "A",
    "task_desc": "Band Aid - Basic plan",
    "thumbnail3": 92687,
    "type": "product",
    "upd": "Wenny Tang  on 26 Aug 2017 13:36:30",
    "version": 1,
    "wholeLifeAge": 75,
    "wholeLifeInd": "Y"
}