{
    "compCode": "08",
    "effDate": "2018-05-08 00:00:00",
    "expDate": "2019-05-31 16:48:16",
    "fHeight": "",
    "footer": {
        "en": "<div class=\"global_intro\">\n<xsl:if test=\"*/mainInfo/quickQuote='Y'\">\n<table style=\"text-align: left; table-layout: fixed; width: 100%; font-size: 10pt; margin: 0 auto;\">\n<tbody>\n<tr style=\"color: white;\">\n<td style=\"padding-left: 50px;\">\n<div style=\"border-bottom: solid 1px black; width: 80%;\">1</div>\n</td>\n<td style=\"padding-left: 50px;\">\n<div style=\"border-bottom: solid 1px black; width: 80%;\">2</div>\n</td>\n</tr>\n<tr>\n<td style=\"padding-left: 50px; padding-top: 3px;\">Adviser's Signature</td>\n<td style=\"padding-left: 50px; padding-top: 3px;\">Proposer's Signature</td>\n</tr>\n<tr>\n<td style=\"padding-left: 50px;\">Date:</td>\n<td style=\"padding-left: 50px;\">Date:</td>\n</tr>\n</tbody>\n</table>\n</xsl:if>\n<table style=\"width: 100%; font-size: 10pt;\">\n<tbody>\n<tr>\n<td style=\"width: 49.8018%;\"><strong>Page [[@PAGE_NO]] of [[@TOTAL_PAGE]]</strong></td>\n<td style=\"text-align: right; width: 46.1982%;\">Release Version\n<xsl:value-of select=\"*/releaseVersion\"/>\n</td>\n</tr>\n</tbody>\n</table>\n<p></p>\n<div style=\"text-align: center;\">\n<xsl:value-of select=\"*/footer/compName\"/> (Co. Reg. No.\n<xsl:value-of select=\"*/footer/compRegNo\"/>)</div>\n<div style=\"text-align: center;\">\n<xsl:value-of select=\"*/footer/compAddr\"/>\n</div>\n<div style=\"text-align: center;\">\n<xsl:value-of select=\"*/footer/compAddr2\"/> TEL:\n<xsl:value-of select=\"*/footer/compTel\"/> FAX:\n<xsl:value-of select=\"*/footer/compFax\"/>\n</div>\n<div style=\"text-align: center;\">\n<xsl:value-of select=\"*/footer/compWeb\"/>\n</div>\n</div>",
        "zh-Hant": "<p></p>"
    },
    "hHeight": "",
    "header": {
        "en": "",
        "zh-Hant": ""
    },
    "launchDate": "2018-05-31 16:46:56",
    "pdfCode": "RHP_SECOND_PAGE",
    "pdfName": {
        "en": "RHP Second Page",
        "zh-Hant": "RHP Second Page",
        "zh-tw": "RHP Second Page"
    },
    "ref_no": "RHP Second Page",
    "releaseDate": "2018-06-14 09:54:41",
    "remarks": {
        "en": "RHP Second Page",
        "zh-tw": "RHP Second Page"
    },
    "status": "A",
    "task_desc": "RHP Second Page",
    "template": {
        "en": [
            "<div class=\"global_main\">\n\n\n    <table class=\"w100\">\n\t\t<colgroup>\n\t\t\t<col style=\"width:26%\"/>\n\t\t\t<col style=\"width:32%\"/>\n\t\t\t<col style=\"width:7%;\"/>\n\t\t\t<col style=\"width:35%\"/>\n\t\t</colgroup>\n\t\t\n        <thead>\n            <tr>\n                <th colspan=\"4\" style=\"text-align: center; width: 100%; padding-bottom: 10px;\">\n\t\t\t\t\t<strong>MAIN POLICY ILLUSTRATION</strong>\n\t\t\t\t</th>\n            </tr>\n\t\t\t\n            <tr>\n                <th colspan=\"2\" class=\"vtop b tleft\">\n                    <span>Proposal on the life of: </span>\n\t\t\t\t\t<span><xsl:value-of select=\"*/cover/insured/name\"/></span>\n                </th>\n                \n\t\t\t\t<th class=\"vtop b tleft\">\n                    <span>Date</span>\n                </th>\n                <th class=\"vtop tleft\">\n                    <span>:\n                        <xsl:value-of select=\"*/cover/genDate\"/>\n                    </span>\n                </th>\n            </tr>\n\t\t\t\n            <tr style=\"border-bottom: solid 1pt black\">\n                <th colspan=\"2\" class=\"vtop b tleft\">\n                    <span>Gender: </span>\n\t\t\t\t\t<span>\n\t\t\t\t\t\t<xsl:value-of select=\"*/cover/insured/gender\"/> \n\t\t\t\t\t\t(<xsl:value-of select=\"*/cover/insured/smoking\"/>)\n\t\t\t\t\t</span>\n                </th>\n                <th class=\"vtop b tleft\">\n                    <span>Age</span>\n                </th>\n                <th class=\"vtop tleft\">\n                    <span>:\n                        <xsl:value-of select=\"*/cover/insured/age\"/> (As At\n                        <xsl:value-of select=\"*/cover/riskCommenDate\"/>)\n                    </span>\n                </th>\n            </tr>\n        </thead>\n\t</table>\n\t\n\t\n\t<table class=\"w100\">\n\t\t<colgroup>\n\t\t\t<col style=\"width:26%\"/>\n\t\t\t<col style=\"width:32%\"/>\n\t\t\t<col style=\"width:25%\"/>\n\t\t\t<col style=\"width:17%\"/>\n\t\t</colgroup>\n\t\n\t\t<tr>\n\t\t\t<td>Selected Retirement Age</td>\n\t\t\t<td>: <xsl:value-of select=\"*/common/retirementAge\"/></td>\n\t\t\t<td>Retirement Income Option</td>\n\t\t\t<td>: Paid Out</td>\n\t\t</tr>\n\t\t\n\t\t<tr>\n\t\t\t<td>Retirement Income (p.a.)</td>\n\t\t\t<td>: $<xsl:value-of select=\"*/common/retirementInc\"/></td>\n\t\t\t<td></td>\n\t\t\t<td></td>\n\t\t</tr>\n\t\t\n\t\t<tr>\n\t\t\t<td>Payout Term</td>\n\t\t\t<td>: <xsl:value-of select=\"*/common/payoutTerm\"/></td>\n\t\t\t<td></td>\n\t\t\t<td></td>\n\t\t</tr>\n\t\t\n\t\t<tr>\n\t\t\t<td>Payout Type</td>\n\t\t\t<td>: <xsl:value-of select=\"*/common/payoutType\"/></td>\n\t\t\t<td></td>\n\t\t\t<td></td>\n\t\t</tr>\n\t\t\n\t\t<tr>\n\t\t\t<td><br/></td>\n\t\t\t<td></td>\n\t\t\t<td></td>\n\t\t\t<td></td>\n\t\t</tr>\n\t\t\n\t\t<tr>\n\t\t\t<td>Annual Premium</td>\n\t\t\t<td>: $<xsl:value-of select=\"*/common/annualPremium\"/></td>\n\t\t\t<td></td>\n\t\t\t<td></td>\n\t\t</tr>\n\t\t\n\t\t<tr>\n\t\t\t<td>Premium Payment Term</td>\n\t\t\t<td>: <xsl:value-of select=\"*/common/paymentTerm\"/></td>\n\t\t\t<td></td>\n\t\t\t<td></td>\n\t\t</tr>\n\t\t\n\t\t<tr style=\"border-bottom: solid 1pt black\">\n\t\t\t<td>Payment Mode</td>\n\t\t\t<td>: <xsl:value-of select=\"*/common/paymentMode\"/></td>\n\t\t\t<td>Policy Currency</td>\n\t\t\t<td>: Singapore Dollars</td>\n\t\t</tr>\n\t\t\n\t\t<tr>\n\t\t\t<td><br/></td>\n\t\t\t<td></td>\n\t\t\t<td></td>\n\t\t\t<td></td>\n\t\t</tr>\n\t</table>\n\t\n\t\n\t<div class=\"b\"><strong><u>Summary of Retirement Solution</u></strong></div>\n\t<div style = \"border: solid 1px; margin-top:5px; padding:5px; \">\n\t\t<table class=\"w100\">\n\t\t\t<colgroup>\n\t\t\t\t<col style=\"width:4%\"/>\n\t\t\t\t<col style=\"width:67%\"/>\n\t\t\t\t<col style=\"width:14%\"/>\n\t\t\t\t<col style=\"width:14%\"/>\n\t\t\t</colgroup>\n\t\t\n\t\t\t<tr>\n\t\t\t\t<td class = \"b\" colspan = \"5\">Retirement Income: Paid Out</td>\n\t\t\t</tr>\n\t\t\t\n\t\t\t<tr>\n\t\t\t\t<td></td>\n\t\t\t\t<td>Total Premiums Paid</td>\n\t\t\t\t<td>: $<xsl:value-of select=\"*/cover/retireSol/poPremiums\"/></td>\n\t\t\t\t<td></td>\n\t\t\t</tr>\n\t\t\t\n\t\t\t<tr>\n\t\t\t\t<td></td>\n\t\t\t\t<td><br/></td>\n\t\t\t\t<td></td>\n\t\t\t\t<td></td>\n\t\t\t</tr>\n\t\t\t\n\t\t\t<tr>\n\t\t\t\t<td></td>\n\t\t\t\t<td>Total Guaranteed Retirement Income</td>\n\t\t\t\t<td>: $<xsl:value-of select=\"*/cover/retireSol/poGRetireInc\"/></td>\n\t\t\t\t<td></td>\n\t\t\t</tr>\n\t\t\t\n\t\t\t<tr>\n\t\t\t\t<td></td>\n\t\t\t\t<td>Non-guaranteed Retirement Income<sup>1</sup> at <xsl:value-of select=\"*/common/highIRR\"/>% p.a.<sup>2</sup></td>\n\t\t\t\t<td>: $<xsl:value-of select=\"*/cover/retireSol/poNGRetireInc\"/></td>\n\t\t\t\t<td></td>\n\t\t\t</tr>\n\t\t\t\n\t\t\t<tr>\n\t\t\t\t<td></td>\n\t\t\t\t<td class = \"b\">Total Projected Payout</td>\n\t\t\t\t<td>: <u><b>$<xsl:value-of select=\"*/cover/retireSol/poPayout\"/></b></u></td>\n\t\t\t\t<td></td>\n\t\t\t\t<td></td>\n\t\t\t</tr>\n\t\t\t\n\t\t\t<tr>\n\t\t\t\t<td></td>\n\t\t\t\t<td><br/></td>\n\t\t\t\t<td></td>\n\t\t\t\t<td></td>\n\t\t\t</tr>\n\t\t\t\n\t\t\t<tr>\n\t\t\t\t<td></td>\n\t\t\t\t<td>Total Projected Payout Ratio<sup>3</sup></td>\n\t\t\t\t<td colspan = \"2\">: \n\t\t\t\t\t<xsl:value-of select=\"*/cover/retireSol/poPayoutRatio\"/> %\n\t\t\t\t</td>\n\t\t\t</tr>\n\t\t\t\n\t\t\t<tr>\n\t\t\t\t<td></td>\n\t\t\t\t<td>Guaranteed Rate of Return to You</td>\n\t\t\t\t<td colspan = \"2\">:\n\t\t\t\t\t<xsl:value-of select=\"*/cover/retireSol/poGR\"/> %\n\t\t\t\t</td>\n\t\t\t</tr>\n\t\t\t\n\t\t\t<tr>\n\t\t\t\t<td></td>\n\t\t\t\t<td>Total Rate of Return to You at <xsl:value-of select=\"*/common/highIRR\"/>% p.a.<sup>2</sup></td>\n\t\t\t\t<td colspan = \"2\">:\n\t\t\t\t\t<xsl:value-of select=\"*/cover/retireSol/poROR\"/> %\t\n\t\t\t\t</td>\n\t\t\t</tr>\n\t\t\t\n\t\t</table>\n\t</div>\n\t\n\t<div style = \"border: solid 1px; margin-top:8px; margin-bottom:8px; padding:5px;\">\n\t\t<table class=\"w100\">\n\t\t\t<colgroup>\n\t\t\t\t<col style=\"width:4%\"/>\n\t\t\t\t<col style=\"width:67%\"/>\n\t\t\t\t<col style=\"width:14%\"/>\n\t\t\t\t<col style=\"width:14%\"/>\n\t\t\t</colgroup>\n\t\t\n\t\t\t<tr>\n\t\t\t\t<td class = \"b\" colspan = \"5\">Retirement Income: Accumulated</td>\n\t\t\t</tr>\n\t\t\t\n\t\t\t<tr>\n\t\t\t\t<td colspan = \"5\">The below assumes the Total Retirement Income is \n\t\t\t\t\tdeposited with AXA at a non-guaranteed rate of 3.00% p.a.\n\t\t\t\t</td>\n\t\t\t</tr>\n\t\t\t\n\t\t\t<tr><td colspan = \"5\"><br/></td></tr>\n\t\t\t\n\t\t\t<tr>\n\t\t\t\t<td></td>\n\t\t\t\t<td>Total Premiums Paid</td>\n\t\t\t\t<td>: $<xsl:value-of select=\"*/cover/retireSol/acPremiums\"/></td>\n\t\t\t\t<td></td>\n\t\t\t</tr>\n\t\t\t\n\t\t\t<tr>\n\t\t\t\t<td></td>\n\t\t\t\t<td><br/></td>\n\t\t\t\t<td></td>\n\t\t\t\t<td></td>\n\t\t\t</tr>\n\t\t\t\n\t\t\t<tr>\n\t\t\t\t<td></td>\n\t\t\t\t<td>Total Guaranteed Retirement Income</td>\n\t\t\t\t<td>: $<xsl:value-of select=\"*/cover/retireSol/acGRetireInc\"/></td>\n\t\t\t\t<td></td>\n\t\t\t</tr>\n\t\t\t\n\t\t\t<tr>\n\t\t\t\t<td></td>\n\t\t\t\t<td>Non-guaranteed Retirement Income<sup>1</sup> at <xsl:value-of select=\"*/common/highIRR\"/>% p.a.<sup>2</sup> and Non-Guaranteed Interest</td>\n\t\t\t\t<td>: $<xsl:value-of select=\"*/cover/retireSol/acNGRetireInc\"/></td>\n\t\t\t\t<td></td>\n\t\t\t</tr>\n\t\t\t\n\t\t\t<tr>\n\t\t\t\t<td></td>\n\t\t\t\t<td class = \"b\">Total Projected Payout</td>\n\t\t\t\t<td>: <u><b>$<xsl:value-of select=\"*/cover/retireSol/acPayout\"/></b></u></td>\n\t\t\t\t<td></td>\n\t\t\t</tr>\n\t\t\t\n\t\t\t<tr>\n\t\t\t\t<td></td>\n\t\t\t\t<td><br/></td>\n\t\t\t\t<td></td>\n\t\t\t\t<td></td>\n\t\t\t</tr>\n\t\t\t\n\t\t\t<tr>\n\t\t\t\t<td></td>\n\t\t\t\t<td>Total Projected Payout Ratio<sup>3</sup></td>\n\t\t\t\t<td colspan = \"2\">:\n\t\t\t\t\t<xsl:value-of select=\"*/cover/retireSol/acPayoutRatio\"/> %\n\t\t\t\t</td>\n\t\t\t</tr>\n\t\t\t\n\t\t\t<tr>\n\t\t\t\t<td></td>\n\t\t\t\t<td>Total Rate of Return to You at <xsl:value-of select=\"*/common/highIRR\"/>% p.a.<sup>2</sup></td>\n\t\t\t\t<td colspan = \"2\">:\n\t\t\t\t\t<xsl:value-of select=\"*/cover/retireSol/acROR\"/> %\n\t\t\t\t</td>\n\t\t\t</tr>\n\t\t\t\n\t\t</table>\n\t</div>\n\t\n\t<table class=\"w100\">\n\t\t\t\n\t\t<tr>\n\t\t\t<td>1. A non-guaranteed Retirement Income will be paid out together \n\t\t\twith the guaranteed Retirement Income or can be accumulated at a \n\t\t\tnon-guaranteed rate of 3.00% p.a. </td>\n\t\t</tr>\n\t\t<tr>\n\t\t\t<td>2. This refers to the illustrated investment rate of return.</td>\n\t\t</tr>\n\t\t<tr>\n\t\t\t<td>3. Total Projected Payout Ratio = Total Projected Payout / Total Premiums Paid.</td>\n\t\t</tr>\n\t</table>\n\n\n</div>"
        ],
        "zh-Hant": []
    },
    "type": "pdfTemplate",
    "version": 1
}