{
    "compCode": "08",
    "effDate": "2017-12-28 14:47:13",
    "expDate": "2018-12-28 16:02:42",
    "fHeight": 70,
    "footer": {
        "en": "<div>sup footer - page {{page}}</div>",
        "zh-Hant": "<p></p>"
    },
    "formulas": {
        "prepareReportData": "function (quotation, planInfo, planDetails, extraPara) { var round = function(value, position) { var scale = math.pow(10, position); return math.divide(math.round(math.multiply(value, scale)), scale); }; var roundneo = function(value, position) { var output = value; if (output) { var valueStr = value.toString(); var valueSplit = valueStr.split('.'); if (valueSplit && valueSplit.length == 2) { if (valueSplit[0] && valueSplit[1] && valueSplit[1].length > position) { output = math.bignumber(valueSplit[0] + '.' + valueSplit[1].substr(0, position)); var roundUpVal = math.bignumber(0); var roundCheck = Number(valueSplit[1].substr(position, 1)); if (roundCheck >= 5) { roundUpVal = '1'; while (roundUpVal.length < position) { roundUpVal = '0' + roundUpVal; } roundUpVal = math.bignumber('0.' + roundUpVal); output = math.add(output, roundUpVal); } } } } return math.number(output); }; var illustrations = extraPara.illustrations; var basicPlan = quotation.plans[0]; var basicIllustrations = illustrations[basicPlan.covCode]; var wd = [], _wd=[]; var sv = [], _sv=[]; var sa = [], _sa = []; var polTerm = basicPlan.policyTerm ? basicPlan.policyTerm : 15; var projections = planDetails[planInfo.covCode].projection; var low = 999; var high = -1; for (var i = 0; i < 2; i++) { var id = projections[i].title.en; low = Math.min(Number(id), low); high = Math.max(Number(id), high); } var lastRow = 99-quotation.iAge; var saLowZeroCnt = 0; var saHighZeroCnt = 0; var wdLowZeroCnt = 0; var wdHighZeroCnt = 0; var nonGteedSV_lowValue, totalDB_lowValue, nonGteedSV_highValue, totalDB_highValue; for (var i = 0; i < lastRow; i++) { var polYr = i + 1; var row = {}; var basicIllustration = basicIllustrations[i]; var age = basicIllustration.age; var polYr_age = polYr + '/' + age; var totalPremPaid = getCurrency(round(Number(basicIllustration.totalPremPaid), 0), ' ', 0); var wdStartYr=quotation.policyOptions.wdFromAge; if (age >=wdStartYr ) { var wdrow = { polYr: polYr, age: age, amountWithdrawn: getCurrency(round(Number(basicIllustration.amountWithdrawn), 0), ' ', 0), nonGteedSV_low:getCurrency(round( wdLowZeroCnt > 0 ? 0 :Number(basicIllustration.nonGteedSV_withdrawal[low]), 0), ' ', 0), totalDB_low: getCurrency(round(Number(basicIllustration.totalDB_withdrawal[low]), 0), ' ', 0), nonGteedSV_high: getCurrency(round( wdHighZeroCnt > 0 ? 0 :Number(basicIllustration.nonGteedSV_withdrawal[high]), 0), ' ', 0), totalDB_high: getCurrency(round(Number(basicIllustration.totalDB_withdrawal[high]), 0), ' ', 0), }; if(polYr != lastRow){ if(age <=(wdStartYr+40)){ if((age - wdStartYr) <20 || (age - wdStartYr)%5 == 4){ if(basicIllustration.nonGteedSV_withdrawal[low]<=0) wdLowZeroCnt++; if(basicIllustration.nonGteedSV_withdrawal[high]<=0) wdHighZeroCnt++; } if((age - wdStartYr) <20 ){ wd.push(wdrow); }else if((age - wdStartYr)%5 == 4){ wd.push(wdrow); } } } else { _wd.push(Object.assign({}, wdrow, {polYr_age: 'age ' + age})); } } nonGteedSV_lowValue = saLowZeroCnt > 0 ? 0 :round(Number(basicIllustration.nonGteedSV_changeSA[low]), 0); if (nonGteedSV_lowValue === 0) { totalDB_lowValue = 0; } else { totalDB_lowValue = round(Number(basicIllustration.totalDB_changeSA[low]), 0); } nonGteedSV_highValue = saHighZeroCnt > 0 ? 0 :round(Number(basicIllustration.nonGteedSV_changeSA[high]), 0); if (nonGteedSV_highValue === 0) { totalDB_highValue = 0; } else { totalDB_highValue = round(Number(basicIllustration.totalDB_changeSA[high]), 0); } var sarow = { polYr: polYr, sa: getCurrency(round(Number(basicIllustration.sa), 0), ' ', 0), nonGteedSV_low: getCurrency(nonGteedSV_lowValue , ' ', 0), totalDB_low: getCurrency(totalDB_lowValue, ' ', 0), nonGteedSV_high: getCurrency(nonGteedSV_highValue, ' ', 0), totalDB_high: getCurrency(totalDB_highValue, ' ', 0), }; var svrow = { polYr: polYr, totalPremPaid: totalPremPaid, GteedSV: getCurrency(round(Number(basicIllustration.GteedSV), 0), ' ', 0), nonGteedSV_low: getCurrency(round(Number(basicIllustration.nonGteedDB[low]), 0), ' ', 0), totalSV_low: getCurrency(round(Number(basicIllustration.totalSV[low]), 0), ' ', 0), nonGteedSV_high: getCurrency(round(Number(basicIllustration.nonGteedDB[high]), 0), ' ', 0), totalSV_high: getCurrency(round(Number(basicIllustration.totalSV[high]), 0), ' ', 0), }; if (polYr <= 20 || (polYr > 20 && polYr <=40 && polYr % 5 === 0) || polYr == lastRow) { if(basicIllustration.nonGteedSV_changeSA[low]<=0) saLowZeroCnt++; if(basicIllustration.nonGteedSV_changeSA[high]<=0) saHighZeroCnt++; sa.push(sarow); sv.push(svrow); } if(age==55||age==60||age==65){ _sa.push(Object.assign({}, sarow, {polYr: 'AGE ' + age})); _sv.push(Object.assign({}, svrow, {polYr: 'AGE ' + age})); } } wd.push({}); sv.push({}); sa.push({}); for(var i in _sa){ sv.push(_sv[i]); sa.push(_sa[i]); } for(var i in _wd){ wd.push(_wd[i]); } return { illustrateData_WD: wd, illustrateData_COI: sv, illustrateData_SA: sa, }; }"
    },
    "hHeight": 70,
    "header": {
        "en": "<div>sup header</div>",
        "zh-Hant": "<p></p>"
    },
    "launchDate": "2017-12-28 16:02:13",
    "pdfCode": "FX_SUP",
    "pdfName": {
        "en": "Flex Supplementary Illustration",
        "zh-Hant": "-",
        "zh-tw": "-"
    },
    "ref_no": "FX_SUP001",
    "releaseDate": "2018-04-16 14:42:22",
    "remarks": {
        "en": "-"
    },
    "status": "A",
    "task_desc": "Flex Supplementary Illustration",
    "template": {
        "en": [
            "<xsl:if test=\"*/basicPlan/hasWithdrawal = 'Y'\">\n    <table class=\"w100 txtCenterH\">\n        <thead>\n            <tr>\n                <th colspan=\"4\">\n                    <div class=\"pd8 tcenter b\">SUPPLEMENTARY ILLUSTRATION TABLE (REGULAR WITHDRAWAL)</div>\n                </th>\n            </tr>\n            <tr>\n                <th colspan=\"4\">\n                    <div class=\"pd8 tcenter b\" style=\"font-weight: initial;\">This is a supplementary illustration and must be read in conjunction with the main illustration.</div>\n                </th>\n            </tr>\n            <tr>\n                <th class=\"vtop vpd2 b tleft\" style=\"width: 25%;\">Proposal on the life of</th>\n                <th class=\"vtop vpd2 tleft\" style=\"width:35%;\">:\n                    <xsl:value-of select=\"*/cover/insured/name\" />\n                </th>\n                <th class=\"vtop vpd2 b tleft\" style=\"width: 50px;\">Date</th>\n                <th class=\"vtop vpd2 tleft\">:\n                    <xsl:value-of select=\"*/cover/genDate\" />\n                </th>\n            </tr>\n            <tr style=\"border-bottom: solid 1pt black\">\n                <th class=\"vtop vpd2 b tleft\">Gender</th>\n                <th class=\"vtop vpd2 tleft\">:\n                    <xsl:value-of select=\"*/cover/insured/gender\" /> (\n                    <xsl:value-of select=\"*/cover/insured/smoking\" />)</th>\n                <th class=\"vtop vpd2 b tleft\">Age</th>\n                <th class=\"vtop vpd2 tleft\">:\n                    <xsl:value-of select=\"*/cover/insured/age\" /> (As at\n                    <xsl:value-of select=\"*/cover/genDate\" /> )\n                </th>\n            </tr>\n        </thead>\n        <tbody>\n            <tr>\n                <td colspan=\"4\">\n                    <div id=\"supp-page1\">\n                        <br/>\n                        <table class=\"w100\">\n                            <tr>\n                                <td class=\"vtop pd4\" style=\"width:40%\">Basic Policy Plan</td>\n                                <td class=\"vtop pd4\" style=\"width:8px\">:</td>\n                                <td class=\"vtop pd4\" colspan=\"4\">\n                                    <xsl:value-of select=\"*/basicPlan/name\" />\n                                </td>\n                            </tr>\n                            <tr>\n                                <td class=\"vtop pd4\" style=\"width:40%\">Basic Benefit</td>\n                                <td class=\"vtop pd4\" style=\"width:8px\">:</td>\n                                <td class=\"vtop pd4\" colspan=\"4\">\n                                    <xsl:value-of select=\"*/basicPlan/basicBenefit\" />\n                                </td>\n                            </tr>\n                            <tr>\n                                <td class=\"vtop pd4\" style=\"width:40%\">Sum Assured</td>\n                                <td class=\"vtop pd4\" style=\"width:8px\">:</td>\n                                <td class=\"vtop pd4\" colspan=\"4\">\n                                    <xsl:value-of select=\"*/basicPlan/sumInsured\" /> </td>\n                            </tr>\n                            <tr>\n                                <td class=\"vtop pd4\" style=\"width:40%\">Policy Currency</td>\n                                <td class=\"vtop pd4\" style=\"width:8px\">:</td>\n                                <td class=\"vtop pd4\" colspan=\"4\">\n                                    <xsl:value-of select=\"*/basicPlan/ccy\" /> </td>\n                            </tr>\n                            <tr>\n                                <td class=\"vtop pd4 tleft\" style=\"width:40%\">Fund Name</td>\n                                <td class=\"vtop pd4 tleft\" style=\"width:8px\">:</td>\n                                <td class=\"vtop pd4 tleft\" style=\"width:16%\">Annual\n                                    <br/>Premium</td>\n                                <td class=\"vtop pd4 tleft\" style=\"width:16%\">Annual Recurring Single Premium</td>\n                                <td class=\"vtop pd4 tleft\" style=\"width:15%\">Top-Up\n                                    <br/>Premium</td>\n                                <td class=\"vtop pd4\">Fund\n                                    <br/>Code</td>\n                            </tr>\n                            <xsl:for-each select=\"*/cover/funds\">\n                                <tr>\n                                    <td class=\"vtop hpd4\">\n                                        <xsl:value-of select=\"name\" />\n                                    </td>\n                                    <td class=\"vtop hpd4\">:</td>\n                                    <td class=\"vtop hpd4\">\n                                        <xsl:value-of select=\"premium\" />\n                                    </td>\n                                    <td class=\"vtop hpd4\">\n                                        <xsl:value-of select=\"rsp\" />\n                                    </td>\n                                    <td class=\"vtop hpd4\">\n                                        <xsl:value-of select=\"topUp\" />\n                                    </td>\n                                    <td class=\"vtop hpd4\">\n                                        <xsl:value-of select=\"code\" />\n                                    </td>\n                                </tr>\n                            </xsl:for-each>\n                            <tr>\n                                <td class=\"vtop pd4\">Total</td>\n                                <td class=\"vtop pd4\">:</td>\n                                <td class=\"vtop pd4\">\n                                    <xsl:value-of select=\"*/basicPlan/aPremium\" />\n                                </td>\n                                <td class=\"vtop pd4\">\n                                    <xsl:value-of select=\"*/basicPlan/aRspTopUp\" />\n                                </td>\n                                <td class=\"vtop pd4\">\n                                    <xsl:value-of select=\"*/basicPlan/spTopUp\" />\n                                </td>\n                                <td class=\"vtop pd4\"></td>\n                            </tr>\n                        </table>\n                        <div class=\"hr\" />\n                        <div style=\"margin: 8px 0px\">The following table of values relate to the basic policy plan named above.</div>\n                        <table class=\"w100\">\n                            <thead>\n                                <tr>\n                                    <th rowspan=\"3\" class=\"vtop pd4\" style=\"width: 10%;\">End of Policy Year</th>\n                                    <th rowspan=\"3\" class=\"vtop pd4\" style=\"width: 10%;\">Age</th>\n                                    <th rowspan=\"2\" class=\"vtop pd4\" style=\"width: 18%;\">Annual\n                                        <br/>Amount\n                                        <br/>Withdrawn</th>\n                                    <th colspan=\"2\" class=\"vtop pd4\">Projected at\n                                        <xsl:value-of select=\"*/rate_low\" />% Investment Return</th>\n                                    <th colspan=\"2\" class=\"vtop pd4\">Projected at\n                                        <xsl:value-of select=\"*/rate_high\" />% Investment Return</th>\n                                </tr>\n                                <tr>\n                                    <th class=\"vtop pd4\" style=\"width: 18%;\">Non-Guaranteed Surrender Value After Withdrawals</th>\n                                    <th class=\"vtop pd4\" style=\"width: 13%;\">Total Death Benefit After Withdrawals</th>\n                                    <th class=\"vtop pd4\" style=\"width: 18%;\">Non-Guaranteed Surrender Value After Withdrawals </th>\n                                    <th class=\"vtop pd4\">Total Death Benefit After Withdrawals</th>\n                                </tr>\n                                <tr>\n                                    <th>(S$)</th>\n                                    <th>(S$)</th>\n                                    <th>(S$)</th>\n                                    <th>(S$)</th>\n                                    <th>(S$)</th>\n                                </tr>\n                                <xsl:for-each select=\"*/illustrateData_WD\">\n                                    <tr>\n                                        <td class=\"tdCol\">\n                                            <xsl:value-of select=\"polYr\" />\n                                        </td>\n                                        <td class=\"tdCol\">\n                                            <xsl:value-of select=\"age\" />\n                                        </td>\n                                        <td class=\"tdCol\">\n                                            <xsl:value-of select=\"amountWithdrawn\" />\n                                        </td>\n                                        <td class=\"tdCol\">\n                                            <xsl:value-of select=\"nonGteedSV_low\" />\n                                        </td>\n                                        <td class=\"tdCol\">\n                                            <xsl:value-of select=\"totalDB_low\" />\n                                        </td>\n                                        <td class=\"tdCol\">\n                                            <xsl:value-of select=\"nonGteedSV_high\" />\n                                        </td>\n                                        <td class=\"tdCol\">\n                                            <xsl:value-of select=\"totalDB_high\" />\n                                        </td>\n                                    </tr>\n                                </xsl:for-each>\n                            </thead>\n                        </table>\n                    </div>\n                </td>\n            </tr>\n        </tbody>\n    </table>\n</xsl:if>\n\n<xsl:if test=\"*/basicPlan/hasChangeSA= 'Y'\">\n    <xsl:if test=\"*/basicPlan/hasWithdrawal = 'Y'\">\n        <div class=\"pagebreak\" />\n    </xsl:if>\n    <table class=\"w100 txtCenterH\">\n        <thead>\n            <tr>\n                <th colspan=\"4\">\n                    <div class=\"pd8 tcenter b\">SUPPLEMENTARY ILLUSTRATION TABLE (CHANGE IN SUM ASSURED)</div>\n                </th>\n            </tr>\n            <tr>\n                <th colspan=\"4\">\n                    <div class=\"pd8 tcenter b\" style=\"font-weight: initial;\">This is a supplementary illustration and must be read in conjunction with the main illustration.</div>\n                </th>\n            </tr>\n            <tr>\n                <th class=\"vtop vpd2 b tleft\" style=\"width: 25%;\">Proposal on the life of</th>\n                <th class=\"vtop vpd2 tleft\" style=\"width:35%;\">:\n                    <xsl:value-of select=\"*/cover/insured/name\" />\n                </th>\n                <th class=\"vtop vpd2 b tleft\" style=\"width: 50px;\">Date</th>\n                <th class=\"vtop vpd2 tleft\">:\n                    <xsl:value-of select=\"*/cover/genDate\" />\n                </th>\n            </tr>\n            <tr style=\"border-bottom: solid 1pt black\">\n                <th class=\"vtop vpd2 b tleft\">Gender</th>\n                <th class=\"vtop vpd2 tleft\">:\n                    <xsl:value-of select=\"*/cover/insured/gender\" /> (\n                    <xsl:value-of select=\"*/cover/insured/smoking\" />)</th>\n                <th class=\"vtop vpd2 b tleft\">Age</th>\n                <th class=\"vtop vpd2 tleft\">:\n                    <xsl:value-of select=\"*/cover/insured/age\" /> (As at\n                    <xsl:value-of select=\"*/cover/genDate\" /> )\n                </th>\n            </tr>\n        </thead>\n        <tbody>\n            <tr>\n                <td colspan=\"4\">\n                    <div id=\"supp-page2\">\n                        <br/>\n                        <table class=\"w100\">\n                            <tr>\n                                <td class=\"vtop pd4\" style=\"width:40%\">Basic Policy Plan</td>\n                                <td class=\"vtop pd4\" style=\"width:8px\">:</td>\n                                <td class=\"vtop pd4\" colspan=\"4\">\n                                    <xsl:value-of select=\"*/basicPlan/name\" />\n                                </td>\n                            </tr>\n                            <tr>\n                                <td class=\"vtop pd4\" style=\"width:40%\">Basic Benefit</td>\n                                <td class=\"vtop pd4\" style=\"width:8px\">:</td>\n                                <td class=\"vtop pd4\" colspan=\"4\">\n                                    <xsl:value-of select=\"*/basicPlan/basicBenefit\" />\n                                </td>\n                            </tr>\n                            <tr>\n                                <td class=\"vtop pd4\" style=\"width:40%\">Sum Assured</td>\n                                <td class=\"vtop pd4\" style=\"width:8px\">:</td>\n                                <td class=\"vtop pd4\" colspan=\"4\">\n                                    <xsl:value-of select=\"*/basicPlan/sumInsured\" /> </td>\n                            </tr>\n                            <tr>\n                                <td class=\"vtop pd4\" style=\"width:40%\">Policy Currency</td>\n                                <td class=\"vtop pd4\" style=\"width:8px\">:</td>\n                                <td class=\"vtop pd4\" colspan=\"4\">\n                                    <xsl:value-of select=\"*/basicPlan/ccy\" /> </td>\n                            </tr>\n                            <tr>\n                                <td class=\"vtop pd4 tleft\" style=\"width:40%\">Fund Name</td>\n                                <td class=\"vtop pd4 tleft\" style=\"width:8px\">:</td>\n                                <td class=\"vtop pd4 tleft\" style=\"width:16%\">Annual\n                                    <br/>Premium</td>\n                                <td class=\"vtop pd4 tleft\" style=\"width:16%\">Annual Recurring Single Premium</td>\n                                <td class=\"vtop pd4 tleft\" style=\"width:15%\">Top-Up\n                                    <br/>Premium</td>\n                                <td class=\"vtop pd4\">Fund\n                                    <br/>Code</td>\n                            </tr>\n                            <xsl:for-each select=\"*/cover/funds\">\n                                <tr>\n                                    <td class=\"vtop hpd4\">\n                                        <xsl:value-of select=\"name\" />\n                                    </td>\n                                    <td class=\"vtop hpd4\">:</td>\n                                    <td class=\"vtop hpd4\">\n                                        <xsl:value-of select=\"premium\" />\n                                    </td>\n                                    <td class=\"vtop hpd4\">\n                                        <xsl:value-of select=\"rsp\" />\n                                    </td>\n                                    <td class=\"vtop hpd4\">\n                                        <xsl:value-of select=\"topUp\" />\n                                    </td>\n                                    <td class=\"vtop hpd4\">\n                                        <xsl:value-of select=\"code\" />\n                                    </td>\n                                </tr>\n                            </xsl:for-each>\n                            <tr>\n                                <td class=\"vtop pd4\">Total</td>\n                                <td class=\"vtop pd4\">:</td>\n                                <td class=\"vtop pd4\">\n                                    <xsl:value-of select=\"*/basicPlan/aPremium\" />\n                                </td>\n                                <td class=\"vtop pd4\">\n                                    <xsl:value-of select=\"*/basicPlan/aRspTopUp\" />\n                                </td>\n                                <td class=\"vtop pd4\">\n                                    <xsl:value-of select=\"*/basicPlan/spTopUp\" />\n                                </td>\n                                <td class=\"vtop pd4\"></td>\n                            </tr>\n                        </table>\n                        <div class=\"hr\" />\n                        <div style=\"margin: 8px 0px\">The following table of values illustrates the changes in the Death Benefit and the Surrender Values when there is a change in Basic Sum Assured from Policy Year\n                            <xsl:value-of select=\"*/basicPlan/policyYear\" />. The sum assured of any rider attached is assumed to be adjusted in proportion to the proposed change in the Basic Sum Assured.</div>\n                        <table class=\"w100\">\n                            <thead>\n                                <tr>\n                                    <th rowspan=\"3\" class=\"vtop pd4\" style=\"width: 10%;\">End of Policy Year</th>\n                                    <th rowspan=\"2\" class=\"vtop pd4\" style=\"width: 16%;\">Sum Assured</th>\n                                    <th colspan=\"2\" class=\"vtop pd4\">Projected at\n                                        <xsl:value-of select=\"*/rate_low\" />% Investment Return</th>\n                                    <th colspan=\"2\" class=\"vtop pd4\">Projected at\n                                        <xsl:value-of select=\"*/rate_high\" />% Investment Return</th>\n                                </tr>\n                                <tr>\n                                    <th class=\"vtop pd4\" style=\"width: 18%;\">Non-Guaranteed Surrender Value</th>\n                                    <th class=\"vtop pd4\" style=\"width: 14%;\">Total Death Benefit</th>\n                                    <th class=\"vtop pd4\" style=\"width: 18%;\">Non-Guaranteed Surrender Value</th>\n                                    <th class=\"vtop pd4\">Total Death Benefit</th>\n                                </tr>\n                                <tr>\n                                    <th>(S$)</th>\n                                    <th>(S$)</th>\n                                    <th>(S$)</th>\n                                    <th>(S$)</th>\n                                    <th>(S$)</th>\n                                </tr>\n                                <xsl:for-each select=\"*/illustrateData_SA\">\n                                    <tr>\n                                        <td class=\"tdCol\">\n                                            <xsl:value-of select=\"polYr\" />\n                                        </td>\n                                        <td class=\"tdCol\">\n                                            <xsl:value-of select=\"sa\" />\n                                        </td>\n                                        <td class=\"tdCol\">\n                                            <xsl:value-of select=\"nonGteedSV_low\" />\n                                        </td>\n                                        <td class=\"tdCol\">\n                                            <xsl:value-of select=\"totalDB_low\" />\n                                        </td>\n                                        <td class=\"tdCol\">\n                                            <xsl:value-of select=\"nonGteedSV_high\" />\n                                        </td>\n                                        <td class=\"tdCol\">\n                                            <xsl:value-of select=\"totalDB_high\" />\n                                        </td>\n                                    </tr>\n                                </xsl:for-each>\n                            </thead>\n                        </table>\n                        <br/>\n                        <div>The Supplementary Illustration table(Change in Sum Assured), if generated, is for illustrative purposes only and does not signify that the proposed change in Sum Assured will be automatically effected on the Policy Year shown in\n                            this illustration. Subject to the terms of this Policy and to the Company’s approval, any Change in the Sum Assured must be made by request in writing to the Company.</div>\n                    </div>\n\n                </td>\n            </tr>\n        </tbody>\n    </table>\n</xsl:if>\n\n<xsl:if test=\"*/basicPlan/hasWithdrawal = 'Y' or */basicPlan/hasChangeSA= 'Y'\">\n    <div class=\"pagebreak\" />\n</xsl:if>\n<table class=\"w100 txtCenterH\">\n    <thead>\n        <tr>\n            <th colspan=\"4\">\n                <div class=\"pd8 tcenter b\">SUPPLEMENTARY ILLUSTRATION TABLE (REFUND OF INSURANCE CHARGES)</div>\n            </th>\n        </tr>\n        <tr>\n            <th colspan=\"4\">\n                <div class=\"pd8 tcenter b\" style=\"font-weight: initial;\">This is a supplementary illustration and must be read in conjunction with the main illustration.</div>\n            </th>\n        </tr>\n        <tr>\n            <th class=\"vtop vpd2 b tleft\" style=\"width: 25%;\">Proposal on the life of</th>\n            <th class=\"vtop vpd2 tleft\" style=\"width:35%;\">:\n                <xsl:value-of select=\"*/cover/insured/name\" />\n            </th>\n            <th class=\"vtop vpd2 b tleft\" style=\"width: 50px;\">Date</th>\n            <th class=\"vtop vpd2 tleft\">:\n                <xsl:value-of select=\"*/cover/genDate\" />\n            </th>\n        </tr>\n        <tr style=\"border-bottom: solid 1pt black\">\n            <th class=\"vtop vpd2 b tleft\">Gender</th>\n            <th class=\"vtop vpd2 tleft\">:\n                <xsl:value-of select=\"*/cover/insured/gender\" /> (\n                <xsl:value-of select=\"*/cover/insured/smoking\" />)</th>\n            <th class=\"vtop vpd2 b tleft\">Age</th>\n            <th class=\"vtop vpd2 tleft\">:\n                <xsl:value-of select=\"*/cover/insured/age\" /> (As at\n                <xsl:value-of select=\"*/cover/genDate\" /> )\n            </th>\n        </tr>\n    </thead>\n    <tbody>\n        <tr>\n            <td colspan=\"4\">\n                <div id=\"supp-page3\">\n                    <br/>\n                    <table class=\"w100\">\n                        <tr>\n                            <td class=\"vtop pd4\" style=\"width:40%\">Basic Policy Plan</td>\n                            <td class=\"vtop pd4\" style=\"width:8px\">:</td>\n                            <td class=\"vtop pd4\" colspan=\"4\">\n                                <xsl:value-of select=\"*/basicPlan/name\" />\n                            </td>\n                        </tr>\n                        <tr>\n                            <td class=\"vtop pd4\" style=\"width:40%\">Basic Benefit</td>\n                            <td class=\"vtop pd4\" style=\"width:8px\">:</td>\n                            <td class=\"vtop pd4\" colspan=\"4\">\n                                <xsl:value-of select=\"*/basicPlan/basicBenefit\" />\n                            </td>\n                        </tr>\n                        <tr>\n                            <td class=\"vtop pd4\" style=\"width:40%\">Sum Assured</td>\n                            <td class=\"vtop pd4\" style=\"width:8px\">:</td>\n                            <td class=\"vtop pd4\" colspan=\"4\">\n                                <xsl:value-of select=\"*/basicPlan/sumInsured\" /> </td>\n                        </tr>\n                        <tr>\n                            <td class=\"vtop pd4\" style=\"width:40%\">Policy Currency</td>\n                            <td class=\"vtop pd4\" style=\"width:8px\">:</td>\n                            <td class=\"vtop pd4\" colspan=\"4\">\n                                <xsl:value-of select=\"*/basicPlan/ccy\" /> </td>\n                        </tr>\n                        <tr>\n                            <td class=\"vtop pd4 tleft\" style=\"width:40%\">Fund Name</td>\n                                <td class=\"vtop pd4 tleft\" style=\"width:8px\">:</td>\n                                <td class=\"vtop pd4 tleft\" style=\"width:16%\">Annual\n                                    <br/>Premium</td>\n                                <td class=\"vtop pd4 tleft\" style=\"width:16%\">Annual Recurring Single Premium</td>\n                                <td class=\"vtop pd4 tleft\" style=\"width:15%\">Top-Up\n                                <br/>Premium</td>\n                            <td class=\"vtop pd4\">Fund\n                                <br/>Code</td>\n                        </tr>\n                        <xsl:for-each select=\"*/cover/funds\">\n                            <tr>\n                                <td class=\"vtop hpd4\">\n                                    <xsl:value-of select=\"name\" />\n                                </td>\n                                <td class=\"vtop hpd4\">:</td>\n                                <td class=\"vtop hpd4\">\n                                    <xsl:value-of select=\"premium\" />\n                                </td>\n                                <td class=\"vtop hpd4\">\n                                    <xsl:value-of select=\"rsp\" />\n                                </td>\n                                <td class=\"vtop hpd4\">\n                                    <xsl:value-of select=\"topUp\" />\n                                </td>\n                                <td class=\"vtop hpd4\">\n                                    <xsl:value-of select=\"code\" />\n                                </td>\n                            </tr>\n                        </xsl:for-each>\n                        <tr>\n                            <td class=\"vtop pd4\">Total</td>\n                            <td class=\"vtop pd4\">:</td>\n                            <td class=\"vtop pd4\">\n                                <xsl:value-of select=\"*/basicPlan/aPremium\" />\n                            </td>\n                            <td class=\"vtop pd4\">\n                                <xsl:value-of select=\"*/basicPlan/aRspTopUp\" />\n                            </td>\n                            <td class=\"vtop pd4\">\n                                <xsl:value-of select=\"*/basicPlan/spTopUp\" />\n                            </td>\n                            <td class=\"vtop pd4\"></td>\n                        </tr>\n                    </table>\n                    <div class=\"hr\" style=\"margin-bottom: 12px;\" />\n                    <div>The following table illustrates the non-guaranteed Surrender Values of your policy taking into account the refund of the Insurance Charge. </div>\n                    <br/>\n                    <div>This table is only applicable if you opt for Level Pay Insurance Charge option. In the event that You surrender the Policy after the Level Pay Insurance Charge period, a non-guaranteed portion of the Insurance Charge paid for the Basic\n                        Policy may be refunded to You. </div>\n                    <br/>\n                    <table class=\"w100\">\n                        <thead>\n                            <tr>\n                                <th colspan=\"7\">\n                                    <br/>\n                                </th>\n                            </tr>\n                            <tr>\n                                <th rowspan=\"2\" style=\"width: 10%;\"></th>\n                                <th colspan=\"5\" class=\"bgblack tcwhite\">SURRENDER VALUE</th>\n                            </tr>\n                            <tr>\n                                <th style=\"width: 14%\"></th>\n                                <th colspan=\"2\">Projected at\n                                    <xsl:value-of select=\"*/rate_low\" />%\n                                    <br/>Investment Return</th>\n                                <th colspan=\"2\">Projected at\n                                    <xsl:value-of select=\"*/rate_high\" />%\n                                    <br/>Investment Return</th>\n                            </tr>\n                            <tr>\n                                <th class=\"vtop pd4\" rowspan=\"2\">End of Policy Year</th>\n                                <th class=\"vtop pd4\">Guaranteed</th>\n                                <th class=\"vtop pd4\" style=\"width: 19%;\">Non-Guaranteed Surrender Value (Excluding the Refund of Insurance Charge)</th>\n                                <th class=\"vtop pd4\" style=\"width: 19%;\">Non-Guaranteed Surrender Value (Including the Refund of Insurance Charge)</th>\n                                <th class=\"vtop pd4\" style=\"width: 19%;\">Non-Guaranteed Surrender Value (Excluding the Refund of Insurance Charge)</th>\n                                <th class=\"vtop pd4\">Non-Guaranteed Surrender Value (Including the Refund of Insurance Charge)</th>\n                            </tr>\n                            <tr>\n                                <th>(S$)</th>\n                                <th>(S$)</th>\n                                <th>(S$)</th>\n                                <th>(S$)</th>\n                                <th>(S$)</th>\n                            </tr>\n                            <xsl:for-each select=\"*/illustrateData_COI\">\n                                <tr>\n                                    <td class=\"tdCol\">\n                                        <xsl:value-of select=\"polYr\" />\n                                    </td>\n                                    <td class=\"tdCol\">\n                                        <xsl:value-of select=\"GteedSV\" />\n                                    </td>\n                                    <td class=\"tdCol\">\n                                        <xsl:value-of select=\"nonGteedSV_low\" />\n                                    </td>\n                                    <td class=\"tdCol\">\n                                        <xsl:value-of select=\"totalSV_low\" />\n                                    </td>\n                                    <td class=\"tdCol\">\n                                        <xsl:value-of select=\"nonGteedSV_high\" />\n                                    </td>\n                                    <td class=\"tdCol\">\n                                        <xsl:value-of select=\"totalSV_high\" />\n                                    </td>\n                                </tr>\n                            </xsl:for-each>\n                        </thead>\n                    </table>\n                    <br/>\n                    <div>The non-guaranteed Surrender Values after the Insurance Charge payment period are based on the Policy Value and in cases of full surrender only. Please refer to the Product Summary for more details.</div>\n                </div>\n            </td>\n        </tr>\n    </tbody>\n</table>"
        ],
        "zh-Hant": [
            ""
        ]
    },
    "type": "pdfTemplate",
    "version": 1
}