{
    "allowBackdate": "N",
    "benlim": [
        {
            "ageFr": "0",
            "ageTo": "70",
            "class": "*",
            "country": "*",
            "limits": [
                {
                    "ccy": "SGD",
                    "max": 400,
                    "min": 50,
                    "payMode": "A"
                },
                {
                    "ccy": "SGD",
                    "max": 400,
                    "min": 50,
                    "payMode": "S"
                },
                {
                    "ccy": "SGD",
                    "max": 400,
                    "min": 50,
                    "payMode": "Q"
                },
                {
                    "ccy": "SGD",
                    "max": 400,
                    "min": 50,
                    "payMode": "M"
                }
            ]
        }
    ],
    "budgetRules": [
        "RP"
    ],
    "ccyDesc": {
        "en": "SGD"
    },
    "classInd": "N",
    "classSecDesc": {
        "en": "-"
    },
    "compCode": "08",
    "corpInd": "N",
    "covCode": "HIR",
    "covName": {
        "en": "Daily Accident Hospitalisation Income",
        "zh-Hant": "Daily Accident Hospitalisation Income"
    },
    "create": "Wenny Tang  on 25 Aug 2017 19:17:45",
    "ctyGroup": [
        "*"
    ],
    "currencies": [
        {
            "ccy": [
                "SGD"
            ],
            "country": "*"
        }
    ],
    "dealerGroup": [
        "AGENCY",
        "SYNERGY",
        "SINGPOST",
        "BROKER",
        "DIRECT",
        "FUSION"
    ],
    "effDate": "2017-08-01 00:00:00",
    "entryAge": [
        {
            "country": "*",
            "imaxAge": 70,
            "imaxAgeUnit": "nearestAge",
            "iminAge": 15,
            "iminAgeUnit": "day",
            "omaxAge": 70,
            "omaxAgeUnit": "nearestAge",
            "ominAge": 18,
            "ominAgeUnit": "year",
            "sameAsOwner": ""
        }
    ],
    "expDate": "2018-08-25 18:53:10",
    "formulas": {
        "calcQuotFunc": "",
        "getOccupationClass": "function (quotation, planDetail) { var oCls = quotation.plans[0].covClass; if (oCls) { oCls = parseInt(oCls, 10); if (oCls) return oCls - 1; } return 0;}",
        "illustrateFunc": "",
        "polTermsFunc": "",
        "premFunc": "function (quotation, planInfo, planDetail) { var ocls = runFunc(planDetail.formulas.getOccupationClass, quotation, planDetail); var rate = parseFloat(planDetail.rates.premRate.rates[ocls]); var scale = parseFloat(planDetail.saScale); for(var i = 0; i< quotation.plans.length; i++){ var plan = quotation.plans[i]; if(plan.covCode == planInfo.covCode){ plan.premRate = rate; break; } } var prem = math.divide(math.multiply(math.bignumber(planInfo.sumInsured), rate), scale); var payModes = planDetail.payModes; for (var i = 0; i < payModes.length; i++) { let { mode, factor, operator } = payModes[i]; if (quotation.paymentMode == mode) { if (operator == 'M') { prem = math.multiply(prem, factor); } else if (operator == 'D') { prem = math.divide(prem, factor); } break; } } return math.number(prem);}",
        "premTermsFunc": "",
        "prepareClassConfig": "",
        "prepareSAPremConfig": "function (planDetail, quotation, planDetails) { quotDriver.prepareAmountConfig(planDetail, quotation, planDetails); if (quotation.plans && quotation.plans[0].sumInsured && planDetail.inputConfig.benlim.max > (quotation.plans[0].sumInsured * 0.002)) { planDetail.inputConfig.benlim.max = math.multiply(quotation.plans[0].sumInsured, 0.002); }}",
        "prepareTermConfig": "",
        "saFunc": "",
        "validAfterCalcFunc": "function (quotation, planInfo, planDetail) { quotValid.validatePlanAfterCalc(quotation, planInfo, planDetail); if (planDetail.gstInd == \"Y\") { planInfo.tax = { yearTax: math.number(math.round(math.multiply(math.bignumber(planInfo.yearPrem), planDetail.gstRate), 2)), halfYearTax: math.number(math.round(math.multiply(math.bignumber(planInfo.halfYearPrem), planDetail.gstRate), 2)), quarterTax: math.number(math.round(math.multiply(math.bignumber(planInfo.quarterPrem), planDetail.gstRate), 2)), monthTax: math.number(math.round(math.multiply(math.bignumber(planInfo.monthPrem), planDetail.gstRate), 2)) }; }}",
        "validBeforeCalcFunc": "",
        "validQuotFunc": "",
        "willValidQuotFunc": ""
    },
    "genderInd": "*",
    "insuredAgeDesc": {
        "en": "15 - 70"
    },
    "jointLives": "N",
    "keyProdFeatures": {
        "en": "-"
    },
    "levelPrem": {
        "en": "-"
    },
    "licence": [
        "p5",
        "p2",
        "p1"
    ],
    "payMethodsDesc": {
        "en": "-"
    },
    "payModeDesc": {
        "en": "-"
    },
    "payModes": [
        {
            "covMonth": 12,
            "default": "Y",
            "factor": 1,
            "mode": "A",
            "operator": "M"
        },
        {
            "covMonth": 6,
            "default": "",
            "factor": 0.51,
            "mode": "S",
            "operator": "M"
        },
        {
            "covMonth": 3,
            "default": "",
            "factor": 0.26,
            "mode": "Q",
            "operator": "M"
        },
        {
            "covMonth": 1,
            "default": "",
            "factor": 0.0875,
            "mode": "M",
            "operator": "M"
        }
    ],
    "paymentMethods": [
        "crCard",
        "teleTransfter",
        "chequeCashierOrder",
        "eNets",
        "dbsCrCardIpp",
        "cash",
        "axasam"
    ],
    "planInd": "R",
    "polMatSameAsPremMat": "N",
    "polTermDesc": {
        "en": "To Age 75"
    },
    "polTermInd": "N",
    "polTermRule": "na",
    "policyMatSameAsBasic": "Y",
    "premInput": [
        {
            "ccy": "SGD",
            "decimal": 2,
            "factor": 0
        }
    ],
    "premInputInd": "N",
    "premMatSameAsBasic": "Y",
    "premMatSameAsPolMat": "N",
    "premTermDesc": {
        "en": "To Age 75"
    },
    "premTermInd": "N",
    "premTermRule": "na",
    "premType": "L",
    "prodFeature": {
        "en": "We will pay Your selected benefit for a maximum of 100 days of hospitalisation. In the event that the Life Assured should be hospitalized in an ICU, we will pay double the benefit for a maximum of 50 days."
    },
    "productCategory": "protectOnly",
    "productLine": "AP",
    "rates": {
        "premRate": {
            "rates": [
                7.5,
                8.25,
                9,
                11.25
            ]
        }
    },
    "ref_no": "BAA rider - DAHI",
    "releaseDate": "2018-03-21 16:25:25",
    "remarks": {
        "en": "-"
    },
    "saDesc": {
        "en": "50 - 400 @50"
    },
    "saInput": [
        {
            "ccy": "SGD",
            "decimal": 0,
            "factor": 50
        }
    ],
    "saInputInd": "Y",
    "saPostfix": {
        "en": "per day"
    },
    "saRule": "0",
    "saScale": 50,
    "saSecDesc": {
        "en": "-"
    },
    "saViewInd": "Y",
    "smokeInd": "*",
    "status": "A",
    "task_desc": "BAA rider - Daily Accident Hospitalisation Income",
    "type": "product",
    "upd": "SYSTEM  on 28 Aug 2017 14:42:26",
    "version": 1,
    "wholeLifeInd": "N"
}