{
    "compCode": "08",
    "expDate": "2047-02-01 08:14:40",
    "footer": {
        "en": "\n<div class=\"global_intro\">\n<xsl:if test=\"*/mainInfo/quickQuote='Y'\">\n<table style=\"text-align: left; table-layout: fixed; width: 100%; font-size: 10pt; margin: 0 auto;\">\n<tbody>\n<xsl:if test=\"*/cover/sameAs='N'\">\n<tr style=\"color: white;\">\n<td style=\"padding-left: 50px;\">\n<div style=\"border-bottom: solid 1px black; width: 80%;\">1</div>\n</td>\n<td style=\"padding-left: 50px;\">\n<div style=\"border-bottom: solid 1px black; width: 80%;\">2</div>\n</td>\n<td style=\"padding-left: 50px;\">\n<div style=\"border-bottom: solid 1px black; width: 80%;\">3</div>\n</td>\n</tr>\n<tr>\n<td style=\"padding-left: 50px; padding-top: 3px;\">Adviser's Signature<xsl:value-of select=\"*/footer/compName\"/></td>\n<td style=\"padding-left: 50px; padding-top: 3px;\">Proposer's Signature</td>\n<td style=\"padding-left: 50px; padding-top: 3px;\">Life Assured 2's Signature</td>\n</tr>\n<tr>\n<td style=\"padding-left: 50px;\">Date:</td>\n<td style=\"padding-left: 50px;\">Date:</td>\n<td style=\"padding-left: 50px;\">Date:</td>\n</tr>\n</xsl:if>\n<xsl:if test=\"*/cover/sameAs='Y'\">\n<tr style=\"color: white;\">\n<td style=\"padding-left: 50px;\">\n<div style=\"border-bottom: solid 1px black; width: 80%;\">1</div>\n</td>\n<td style=\"padding-left: 50px;\">\n<div style=\"border-bottom: solid 1px black; width: 80%;\">2</div>\n</td>\n</tr>\n<tr>\n<td style=\"padding-left: 50px; padding-top: 3px;\">Adviser's Signature</td>\n<td style=\"padding-left: 50px; padding-top: 3px;\">Proposer's Signature</td>\n</tr>\n<tr>\n<td style=\"padding-left: 50px;\">Date:</td>\n<td style=\"padding-left: 50px;\">Date:</td>\n</tr>\n</xsl:if>\n</tbody>\n</table>\n</xsl:if>\n<table style=\"width: 100%; font-size: 10pt;\">\n<tbody>\n<tr>\n<td style=\"width: 49.8018%;\"><strong>Page [[@PAGE_NO]] of [[@TOTAL_PAGE]]</strong></td>\n<td style=\"text-align: right; width: 46.1982%;\">Release Version <xsl:value-of select=\"*/releaseVersion\"/></td>\n</tr>\n</tbody>\n</table>\n<p></p>\n<div style=\"text-align: center;\"><xsl:value-of select=\"*/footer/compName\"/> (Co. Reg. No. <xsl:value-of select=\"*/footer/compRegNo\"/>)</div>\n<div style=\"text-align: center;\"><xsl:value-of select=\"*/footer/compAddr\"/></div>\n<div style=\"text-align: center;\"><xsl:value-of select=\"*/footer/compAddr2\"/> TEL: <xsl:value-of select=\"*/footer/compTel\"/> FAX: <xsl:value-of select=\"*/footer/compFax\"/></div>\n<div style=\"text-align: center;\"><xsl:value-of select=\"*/footer/compWeb\"/></div>\n</div>",
        "zh-Hant": "<p></p>"
    },
    "formulas": {
        "prepareReportData": "function(quotation, planInfo, planDetails, extraPara) { var basicPlan = quotation.plans[0]; var hasSpTopUp = quotation.policyOptions.topUpSelect; var hasRspTopUp = quotation.policyOptions.rspSelect; var hasWithdrawal = quotation.policyOptions.wdSelect; var company = extraPara.company; var illust = extraPara.illustrations[planInfo.covCode]; var getSmokingDesc = function(value){ return value == \"N\"? \"Non-Smoker\": \"Smoker\"; }; var getGenderDesc = function(value){ return value == \"M\"? \"Male\": \"Female\"; }; var getCurrencyDesc = function(value,decimals){ return quotation.ccy + ' ' + getCurrency(value, '', decimals); }; return { footer: { compName: company.compName, compRegNo: company.compRegNo, compAddr: company.compAddr, compAddr2: company.compAddr2, compTel: company.compTel, compFax: company.compFax, compWeb: company.compWeb, sysdate: new Date(extraPara.systemDate).format(extraPara.dateFormat), planCode: basicPlan.planCode, releaseVersion: \"1\" }, proposer: { name: quotation.pFullName, gender: getGenderDesc(quotation.pGender), dob: new Date(quotation.pDob).format(extraPara.dateFormat), age: quotation.pAge, smoking: getSmokingDesc(quotation.pSmoke) }, insured: { name: quotation.iFullName, gender: getGenderDesc(quotation.iGender), dob: new Date(quotation.iDob).format(extraPara.dateFormat), age: quotation.iAge, smoking: getSmokingDesc(quotation.iSmoke) }, cover: { sameAs: quotation.sameAs, polType: quotation.policyOptions.policytype, genDate: new Date(extraPara.systemDate).format(extraPara.dateFormat), riskCommenDate: new Date(quotation.riskCommenDate).format(extraPara.dateFormat), basicTDC: getCurrencyDesc(illust[0].basic_TDC, 0) } };}"
    },
    "header": {
        "en": "<table style=\"width: 100%;\">\n<tbody>\n<tr>\n<td><div class=\"awt-intro-logo\"/></td>\n</tr>\n</tbody>\n</table>",
        "zh-Hant": "<p></p>"
    },
    "launchDate": "2018-02-01 08:14:16",
    "pdfCode": "PVTVUL_INTRO",
    "pdfName": {
        "en": "AWT Introduction and Important Notes",
        "zh-Hant": "AWT Introduction and Important Notes",
        "zh-tw": "AWT Introduction and Important Notes"
    },
    "releaseDate": "2019-02-26 06:01:31",
    "remarks": {
        "en": "AWT Introduction and Important Notes"
    },
    "status": "A",
    "style": "",
    "template": {
        "en": [
            "<div class=\"global_main\">\n\n    <table class=\"w100\" style=\"border-bottom: solid 1pt black\">\n        <colgroup>\n            <col style=\"width:25%\" />\n            <col style=\"width:40%\" />\n            <col style=\"width:10%;\" />\n            <col style=\"width:25%\" />\n        </colgroup>\n        <tr>\n            <th colspan=\"4\" style=\"text-align: center; width: 100%; padding-bottom: 10px;\">\n                <strong>MAIN POLICY ILLUSTRATION</strong>\n            </th>\n        </tr>\n\n        <xsl:if test=\"*/cover/polType='joint'\">\n        <tr>\n                <td class=\"vtop b tleft\" style=\"padding-top: 4px;\">\n                    <b>\n                        Proposal on the life of\n                    </b>\n                </td>\n                <td class=\"vtop b tleft\" style=\"padding-top: 4px;\">\n                    <b>\n                        :\n                        <xsl:value-of select=\"*/proposer/name\" />\n                        AND\n                        <xsl:value-of select=\"*/insured/name\" />\n                    </b>\n                </td>\n                <td class=\"vtop b tleft\" style=\"padding-top: 4px;\">\n                    <b>\n                        Date\n                    </b>\n                </td>\n                <td class=\"vtop b tleft\" style=\"padding-top: 4px;\">\n                    <b>\n                        :\n                        <xsl:value-of select=\"*/cover/genDate\" />\n                    </b>\n                </td>\n            </tr>\n            <tr>\n                <td class=\"vtop b tleft\">\n                    <b>\n                        <xsl:value-of select=\"*/proposer/name\" />\n                        Gender\n                    </b>\n                </td>\n                <td class=\"vtop b tleft\">\n                    <b>\n                        :\n                        <xsl:value-of select=\"*/proposer/gender\" />\n                        (\n                        <xsl:value-of select=\"*/proposer/smoking\" />\n                        )\n                    </b>\n                </td>\n                <td class=\"vtop b tleft\">\n                    <b>\n                        Age\n                    </b>\n                </td>\n                <td class=\"vtop b tleft\">\n                    <b>\n                        :\n                        <xsl:value-of select=\"*/proposer/age\" />\n                        (As At\n                        <xsl:value-of select=\"*/cover/genDate\" />\n                        )\n                    </b>\n                </td>\n            </tr>\n            <tr>\n                <td class=\"vtop b tleft\">\n                    <b>\n                        <xsl:value-of select=\"*/insured/name\" />\n                        Gender\n                    </b>\n                </td>\n                <td class=\"vtop b tleft\">\n                    <b>\n                        :\n                        <xsl:value-of select=\"*/insured/gender\" />\n                        (\n                        <xsl:value-of select=\"*/insured/smoking\" />\n                        )\n                    </b>\n                </td>\n                <td class=\"vtop b tleft\">\n                    <b>\n                        Age\n                    </b>\n                </td>\n                <td class=\"vtop b tleft\">\n                    <b>\n                        :\n                        <xsl:value-of select=\"*/insured/age\" />\n                        (As At\n                        <xsl:value-of select=\"*/cover/genDate\" />\n                        )\n                    </b>\n                </td>\n            </tr>\n        </xsl:if>\n\n        <xsl:if test=\"*/cover/polType='single'\">\n        <tr>\n            <td class=\"vtop b tleft\">Proposal on the life of </td>\n            <td class=\"vtop b tleft\">: <span><xsl:value-of select=\"*/insured/name\"/></span> </td>\n            <td class=\"vtop b tleft\">Date</td>\n            <td class=\"vtop b tleft\">:\n                <xsl:value-of select=\"*/cover/genDate\" />\n            </td>\n        </tr>\n        <tr>\n            <td class=\"vtop b tleft\">Gender</td>\n            <td class=\"vtop b tleft\">:\n                <xsl:value-of select=\"*/insured/gender\" /> \n                (<xsl:value-of select=\"*/insured/smoking\" />)</td>\n            <td class=\"vtop b tleft\">Age</td>\n            <td class=\"vtop b tleft\">:\n                <xsl:value-of select=\"*/insured/age\" /> (as at\n                <xsl:value-of select=\"*/cover/riskCommenDate\" />)</td>\n        </tr>\n        </xsl:if>\n\n        <tr>\n            <td>\n                 <div class=\"sectionSpace\" />\n            </td>\n            <td></td>\n            <td></td>\n            <td></td>\n        </tr>\n    </table>\n    <div class=\"sectionSpace\" />\n    <table class=\"w100\">\n        <tr>\n            <td class=\"vtop b tleft\">INTRODUCTION</td>\n        </tr>\n\t\t<tr>\n            <td class=\"vtop  tleft\">\n                <br/>\n            </td>\n        </tr>\n        <tr>\n            <td class=\"vtop  tleft\">AXA believes that it is important that you fully appreciate the benefits of your policy. You should also understand how the cost of your insurance cover and the expenses of administration and sales affect the benefits that you will receive.</td>\n        </tr>\n        <tr>\n            <td class=\"vtop  tleft\">\n                <br/>\n            </td>\n        </tr>\n        <tr>\n            <td class=\"vtop  tleft\">\n\t\t\t\tThe illustration that follows shows how the value of your policy progresses over time and the sum(s) that would be payable. The methods used to derive the values shown follow guidelines established by the Life Insurance Association, Singapore, to ensure that a fair and consistent approach is used in preparing this illustration.</td>\n        </tr>\n        <tr>\n            <td class=\"vtop  tleft\">\n                <br/>\n            </td>\n        </tr>\n        <tr>\n            <td class=\"vtop  tleft\">Buying a life insurance policy can be a long-term commitment. An early termination of the policy usually involves high costs and the surrender value payable may be less than the total premiums paid.</td>\n        </tr>\n        <tr>\n            <td class=\"vtop  tleft\">\n                <br/>\n            </td>\n        </tr>\n        <tr>\n            <td class=\"vtop  tleft\">If you need clarification please do not hesitate to ask your adviser.</td>\n        </tr>\n        <tr>\n            <td class=\"vtop  tleft\">\n                <br/>\n            </td>\n        </tr>\n\n        <tr>\n            <td class=\"vtop  tleft\">\n                <br/>\n            </td>\n        </tr>\n\t\t\n        <tr>\n            <td class=\"vtop b tleft\">\n                IMPORTANT NOTES\n            </td>\n        </tr>\n\t\t<tr>\n            <td class=\"vtop  tleft\">\n                <br/>\n            </td>\n        </tr>\n        <tr>\n            <td class=\"vtop  tleft\">\n                1. The quotation is for illustrative purposes only and is not a contract of insurance. The precise terms and conditions of this plan are specified in the policy contract.\n            </td>\n        </tr>\n        <tr>\n            <td class=\"vtop  tleft\">\n                <br/>\n            </td>\n        </tr>\n        <tr>\n            <td class=\"vtop  tleft\">\n                2. This policy will lapse when the Policy Fund Value is zero or negative, or when the Policy Fund Value falls below the Minimum Account Balance due to withdrawals.\n            </td>\n        </tr>\n\t\t\n\t\t<tr>\n            <td class=\"vtop  tleft\">\n                <br/>\n            </td>\n        </tr>\n        <tr>\n            <td class=\"vtop  tleft\">\n                3. Please note the termination clause in the product summary and policy contract.\n            </td>\n        </tr>\n\t\t        <tr>\n            <td class=\"vtop  tleft\">\n                <br/>\n            </td>\n        </tr>\n\n        <tr>\n            <td class=\"vtop  tleft\">\n                <br/>\n            </td>\n        </tr>\n\t\t\n\t\t<tr>\n            <td class=\"vtop b tleft\">What is the significance of the Illustrated Investment Rate of Return?</td>\n        </tr>\n\t\t<tr>\n            <td class=\"vtop  tleft\">\n                <br/>\n            </td>\n        </tr>\n        <tr>\n            <td class=\"vtop  tleft\">For illustrations based on your Chosen Investment Rate of Return, this Chosen Investment Rate of Return is determined by you and/or your asset manager in accordance to your investment strategy. You are strongly encouraged to speak to your asset manager who would be able to provide further information on these funds - both for your intial fund selection and subsequently.</td>\n        </tr>\n        <tr>\n            <td class=\"vtop  tleft\">\n                <br/>\n            </td>\n        </tr>\n        <tr>\n            <td class=\"vtop  tleft\">\n\t\t\t\tThe illustrations are based on Illustrated Investment Rate of Return of 0.0% p.a., 4.0% p.a., and 8.0% p.a. The three rates of return used are net of custodian and asset management fees. They are purely for illustrative purposes and do not represent upper and lower limits on the investment performance. They also do not reflect potential volatility over the short-term resulting in potential sharp movements, up or down, of the underlying assets. The actual benefits payable will depend on the actual performance of the underlying assets. The performance of the assets are not guaranteed and the Surrender Value may be less than the capital invested.</td>\n        </tr>   \n    </table>\n</div>",
            "<div class=\"global_main\">\n\n    <table class=\"w100\" style=\"border-bottom: solid 1pt black\">\n        <colgroup>\n            <col style=\"width:25%\" />\n            <col style=\"width:40%\" />\n            <col style=\"width:10%;\" />\n            <col style=\"width:25%\" />\n        </colgroup>\n        <tr>\n            <th colspan=\"4\" style=\"text-align: center; width: 100%; padding-bottom: 10px;\">\n                <strong>MAIN POLICY ILLUSTRATION</strong>\n            </th>\n        </tr>\n                <xsl:if test=\"*/cover/polType='joint'\">\n        <tr>\n                <td class=\"vtop b tleft\" style=\"padding-top: 4px;\">\n                    <b>\n                        Proposal on the life of\n                    </b>\n                </td>\n                <td class=\"vtop b tleft\" style=\"padding-top: 4px;\">\n                    <b>\n                        :\n                        <xsl:value-of select=\"*/proposer/name\" />\n                        AND\n                        <xsl:value-of select=\"*/insured/name\" />\n                    </b>\n                </td>\n                <td class=\"vtop b tleft\" style=\"padding-top: 4px;\">\n                    <b>\n                        Date\n                    </b>\n                </td>\n                <td class=\"vtop b tleft\" style=\"padding-top: 4px;\">\n                    <b>\n                        :\n                        <xsl:value-of select=\"*/cover/genDate\" />\n                    </b>\n                </td>\n            </tr>\n            <tr>\n                <td class=\"vtop b tleft\">\n                    <b>\n                        <xsl:value-of select=\"*/proposer/name\" />\n                        Gender\n                    </b>\n                </td>\n                <td class=\"vtop b tleft\">\n                    <b>\n                        :\n                        <xsl:value-of select=\"*/proposer/gender\" />\n                        (\n                        <xsl:value-of select=\"*/proposer/smoking\" />\n                        )\n                    </b>\n                </td>\n                <td class=\"vtop b tleft\">\n                    <b>\n                        Age\n                    </b>\n                </td>\n                <td class=\"vtop b tleft\">\n                    <b>\n                        :\n                        <xsl:value-of select=\"*/proposer/age\" />\n                        (As At\n                        <xsl:value-of select=\"*/cover/genDate\" />\n                        )\n                    </b>\n                </td>\n            </tr>\n            <tr>\n                <td class=\"vtop b tleft\">\n                    <b>\n                        <xsl:value-of select=\"*/insured/name\" />\n                        Gender\n                    </b>\n                </td>\n                <td class=\"vtop b tleft\">\n                    <b>\n                        :\n                        <xsl:value-of select=\"*/insured/gender\" />\n                        (\n                        <xsl:value-of select=\"*/insured/smoking\" />\n                        )\n                    </b>\n                </td>\n                <td class=\"vtop b tleft\">\n                    <b>\n                        Age\n                    </b>\n                </td>\n                <td class=\"vtop b tleft\">\n                    <b>\n                        :\n                        <xsl:value-of select=\"*/insured/age\" />\n                        (As At\n                        <xsl:value-of select=\"*/cover/genDate\" />\n                        )\n                    </b>\n                </td>\n            </tr>\n        </xsl:if>\n\n        <xsl:if test=\"*/cover/polType='single'\">\n        <tr>\n            <td class=\"vtop b tleft\">Proposal on the life of </td>\n            <td class=\"vtop b tleft\">: <span><xsl:value-of select=\"*/insured/name\"/></span> </td>\n            <td class=\"vtop b tleft\">Date</td>\n            <td class=\"vtop b tleft\">:\n                <xsl:value-of select=\"*/cover/genDate\" />\n            </td>\n        </tr>\n        <tr>\n            <td class=\"vtop b tleft\">Gender</td>\n            <td class=\"vtop b tleft\">:\n                <xsl:value-of select=\"*/insured/gender\" /> \n                (<xsl:value-of select=\"*/insured/smoking\" />)</td>\n            <td class=\"vtop b tleft\">Age</td>\n            <td class=\"vtop b tleft\">:\n                <xsl:value-of select=\"*/insured/age\" /> (as at\n                <xsl:value-of select=\"*/cover/riskCommenDate\" />)</td>\n        </tr>\n        </xsl:if>\n        <tr>\n            <td>\n                <br/>\n            </td>\n            <td></td>\n            <td></td>\n            <td></td>\n        </tr>\n    </table>\n  <div class=\"sectionSpace\" />\n<table class=\"w100\">\n\t\t<tr>\n            <td class=\"vtop b tleft\">\n                What is the Total Distribution Cost for this policy?\n            </td>\n        </tr>\n\t\t<tr>\n            <td class=\"vtop  tleft\">\n                <br/>\n            </td>\n        </tr>\n        <tr>\n            <td class=\"vtop  tleft\">\n                1. The Total Distribution Cost that AXA expects to incur in relation to your policy is <xsl:value-of select=\"*/cover/basicTDC\" />. Such costs include cash payments in the form of commission, costs of benefits and services paid to the distribution channel.\n            </td>\n        </tr>\n        <tr>\n            <td class=\"vtop  tleft\">\n                <br/>\n            </td>\n        </tr>\n        <tr>\n            <td class=\"vtop  tleft\">\n                2. Please note that the Total Distribution Cost is not an additional cost to you; it has already been allowed for in calculating your premium.\n            </td>\n        </tr>\n  \n    </table>\n</div>"
        ],
        "zh-Hant": []
    },
    "type": "pdfTemplate",
    "version": 1
}