{
    "compCode": "08",
    "effDate": "2018-03-21 15:40:25",
    "expDate": "2019-03-21 16:05:25",
    "fHeight": "",
    "footer": {
        "en": "<div class=\"global_intro\">\n<table style=\"width: 100%; font-size: 10pt;\">\n<tbody>\n<tr>\n<td style=\"width: 49.8018%;\">\n<strong>Page [[@PAGE_NO]] of [[@TOTAL_PAGE]]</strong>\n</td>\n<td style=\"text-align: right; width: 46.1982%;\">Release Version\n<xsl:value-of select=\"*/releaseVersion\"/>\n</td>\n</tr>\n</tbody>\n</table>\n<p></p>\n<div class=\"smallerfont\" style=\"text-align: center;\">\n<xsl:value-of select=\"*/footer/compName\"/> (Co. Reg. No.\n<xsl:value-of select=\"*/footer/compRegNo\"/>)</div>\n<div class=\"smallerfont\" style=\"text-align: center;\">\n<xsl:value-of select=\"*/footer/compAddr\"/>\n</div>\n<div class=\"smallerfont\" style=\"text-align: center;\">\n<xsl:value-of select=\"*/footer/compAddr2\"/> TEL:\n<xsl:value-of select=\"*/footer/compTel\"/> FAX:\n<xsl:value-of select=\"*/footer/compFax\"/>\n</div>\n<div class=\"smallerfont\" style=\"text-align: center;\">\n<xsl:value-of select=\"*/footer/compWeb\"/>\n</div>\n</div>",
        "zh-Hant": "<p></p>"
    },
    "formulas": {
        "prepareReportData": "function (quotation, planInfo, planDetails, extraPara) {return {}; }"
    },
    "hHeight": "",
    "header": {
        "en": "<table style=\"width: 100%;\">\n<tbody>\n<tr>\n<td>\n<div class=\"logo\"></div>\n</td>\n<td style=\"float: right; width: 200px;\"></td>\n</tr>\n</tbody>\n</table>",
        "zh-Hant": "<p></p>"
    },
    "launchDate": "2018-03-21 16:05:01",
    "pdfCode": "LMP_SUPPLEMENTARY_B",
    "pdfName": {
        "en": "LMP SUPPLEMENTARY B",
        "zh-Hant": "LMP SUPPLEMENTARY B",
        "zh-tw": "LMP SUPPLEMENTARY B"
    },
    "ref_no": "LMP SUPPLEMENTARY B",
    "releaseDate": "2018-06-04 12:36:11",
    "remarks": {
        "en": "LMP SUPPLEMENTARY B",
        "zh-tw": "LMP SUPPLEMENTARY B"
    },
    "status": "A",
    "style": "",
    "task_desc": "LMP_SUPPLEMENTARY_B",
    "template": {
        "en": [
            "<xsl:if test=\"*/conditions/show_suppBiPage='Y'\">\n    <div style=\"font-size: 10pt;padding-top: 8px;width:100%;\">\n        <div style=\"text-align: center; width: 100%; paddingtop: 10px;\">\n            <strong>SUPPLEMENTARY BENEFIT ILLUSTRATION</strong>\n        </div>\n        <div class=\"emptyspace10\"></div>\n        <table>\n            <tbody>\n                <tr class=\"bold\">\n                    <td style=\" width: 20%;\">Proposal on the life of </td>\n                    <td style=\" width: 40%;\">:\n                        <xsl:value-of select=\"*/life_assured_details/l_assured_name\" />\n                    </td>\n                    <td style=\" width: 20%;\">\n                        <div>Date</div>\n                    </td>\n                    <td style=\" width: 20%;\">\n                        <div>:\n                            <xsl:value-of select=\"*/cover/genDate\" />\n                        </div>\n                    </td>\n                </tr>\n                <tr class=\"bold\">\n                    <td style=\" width: 20%;\">Gender</td>\n                    <td style=\" width: 40%;\">:\n                        <xsl:value-of select=\"*/life_assured_details/l_assured_gender\" /> (\n                        <xsl:value-of select=\"*/life_assured_details/l_assured_smoke\" /> )\n                    </td>\n                    <td style=\" width: 20%;\">Age</td>\n                    <td style=\" width: 20%;\">:\n                        <xsl:value-of select=\"*/life_assured_details/l_assured_age\" /> (As at\n                        <xsl:value-of select=\"*/life_assured_details/l_comm_date\" />)</td>\n                </tr>\n            </tbody>\n        </table>\n        <div class=\"line\"></div>\n        <table>\n            <tbody>\n                <tr>\n                    <td class=\"alignleft\" colspan=\"2\">\n                        Benefit Illustration of Rider(s)\n                    </td>\n                </tr>\n                <tr>\n                    <td style=\"width: 20%; \">Policy Currency</td>\n                    <td>:\n                        <xsl:value-of select=\"*/basic_plan/policy_currency\" />\n                    </td>\n                </tr>\n            </tbody>\n        </table>\n        <div class=\"emptyspace10\"></div>\n        <div class=\"line\"></div>\n        <div class=\"emptyspace10\"></div>\n        <div class=\"remark\">This is only a supplementary illustration and must be read in conjunction with the main illustration.\n        </div>\n        <div class=\"emptyspace10\"></div>\n        <div class=\"remark\">The following table of values relate to the supplementary benefit(s) selected.</div>\n        <div class=\"emptyspace10\"></div>\n\n\n\n        <table style=\"width: 80%; margin: auto;text-align: center\">\n            <thead>\n                <tr>\n                    <th></th>\n                    <th colspan=\"2\" class=\"bgblack white\">Total Distribution Cost</th>\n                </tr>\n                <tr>\n                    <td class=\"vtop\" style=\"width:33%\">\n                        End of\n                        <br/>Policy\n                        <br/>Year/Age</td>\n                    <td class=\"vtop\" style=\"width:33%\">\n                        Rider Premiums\n                        <br/>Paid To-date\n                        <br/><span class='notbold aligncenter'>(<xsl:value-of select=\"*/basic_plan/currency_symbol\" />)</span>\n                    </td>\n                    <td class=\"vtop\">\n                        Total Distribution\n                        <br/>Cost To-date\n                        <br/><span class='notbold aligncenter'>(<xsl:value-of select=\"*/basic_plan/currency_symbol\" />)</span>\n                    </td>\n                </tr>          \n            </thead>\n            <tbody>\n                <xsl:for-each select=\"*/illustration/totalDistributionCostSuppBi\">\n                    <tr>\n                        <td class=\"tdCol\">\n                            <xsl:value-of select=\"policyYearAge\" />\n                        </td>\n                        <td class=\"tdCol\">\n                            <xsl:value-of select=\"totalPremiumPaidToDate\" />\n                        </td>\n                        <td class=\"tdCol\">\n                            <xsl:value-of select=\"totalDistributionCostToDate\" />\n                        </td>\n                    </tr>\n                </xsl:for-each>\n            </tbody>\n        </table>\n\n    </div>\n</xsl:if>\n\n\n<xsl:if test=\"*/conditions/show_suppBiPage='Y'\">   \n<div id=\"pageSupp\" class=\"pagebreak\" />\n</xsl:if>\n<div style=\"font-size: 10pt;padding-top: 8px;width:100%;\">\n    <div style=\"text-align: center; width: 100%; paddingtop: 10px;\">\n        <strong>PRODUCT SUMMARY</strong>\n    </div>\n    <br/>\n    <div class=\"sectiontitle underl\">Presented to</div>\n    <table>\n        <tbody>\n            <xsl:if test=\"*/conditions/same_as='N'\">\n                <tr style=\"\">\n                    <td style=\" width: 20%;\">Name of Proposer</td>\n                    <td>:\n                        <xsl:value-of select=\"*/proposer_details/assured_name\" />\n                    </td>\n                </tr>\n            </xsl:if>\n            <tr style=\"\">\n                <td style=\" width: 20%;\">Name of Life Assured </td>\n                <td>:\n                    <xsl:value-of select=\"*/life_assured_details/l_assured_name\" />\n                </td>\n            </tr>\n        </tbody>\n    </table>\n\n\n    <div class=\"sectiontitle underl\">Your Plan and Riders</div>\n    <table>\n        <tbody>\n            <xsl:for-each select=\"*/your_plan/plans\"> \n                <xsl:if test=\"((covCode!='MBX') and (covCode!='ADBX') and (covCode!='TPDX'))\">\n                    <tr>\n                        <td class=\"alignleft\"><xsl:value-of select=\"name\" /></td>\n                    </tr>            \n                </xsl:if>\n                <xsl:if test=\"( (covCode='MBX') or (covCode='ADBX') or (covCode='TPDX') )\">        \n                    <tr>\n                        <td class=\"alignleft pdleft20\"><xsl:value-of select=\"name\" /></td>\n                    </tr>                  \n                </xsl:if>                \n                <xsl:if test=\"covCode='LMP'\">\n                    <tr>\n                        <td class=\"alignleft\">Packaged Riders</td>\n                    </tr>\n                </xsl:if>\n            </xsl:for-each>\n        </tbody>\n    </table>\n    <div class=\"sectiontitle underl\">Client(s) Acknowledgement of Product Summary: </div>\n    <ol style=\"padding: 0;margin:0 0 0 16px;\">\n        <li>I / We confirm that I / We have received all pages of the Benefit Illustration for the basic plan and/or all riders listed above, where applicable.</li>\n        <li>I / We confirm that I / We have received all pages of the Product Summary for the basic plan and/or riders listed above where applicable, and that the terms and conditions of the policy as set out in the Product Summary have been explained to\n            me and that I understand the features of the policy and the applicable fees and charges.</li>\n    </ol>\n\n\n    <xsl:if test=\"not(*/mainInfo/quickQuote='Y')\">\n        <div class=\"global_prodSumm\" style=\"position:absolute; bottom: 0px;\">\n            <div style=\"width: 100%;\">\n                <table style=\"text-align: left; table-layout: fixed; width: 100%; font-size: 10pt; margin: 0 auto;\">\n                    <tbody>\n                        <tr style=\"color: white;\">\n                            <td style=\"padding-left: 50px;\">\n                                <div style=\"border-bottom: solid 1px black; width: 80%;\">ADVISOR_SIGNATURE</div>\n                            </td>\n                            <td style=\"padding-left: 50px;\">\n                                <div style=\"border-bottom: solid 1px  black; width: 80%;\">PROPOSER_SIGNATURE</div>\n                            </td>\n                        </tr>\n                        <tr>\n                            <td style=\"padding-left: 50px; padding-top: 10px;\">Adviser's Signature</td>\n                            <td style=\"padding-left: 50px; padding-top: 10px;\">Proposer's Signature</td>\n                        </tr>\n                        <tr>\n                            <td style=\"padding-left: 50px;\">Date:</td>\n                            <td style=\"padding-left: 50px;\">Date:</td>\n                        </tr>\n                    </tbody>\n                </table>\n            </div>\n        </div>\n    </xsl:if>\n\n</div>\n\n\n"
        ],
        "zh-Hant": []
    },
    "type": "pdfTemplate",
    "version": 1
}