{
  "type": "layout",
  "formId": "menu_plan",
  "skipCheck": true,
  "items": [
    {
      "type": "BLOCK",
      "id": "planDetails",
      "title": "",
      "items": [
        {
          "type": "block",
          "style": {
            "paddingBottom": "30px",
            "borderBottom": "1px solid #cac4c4"
          },
          "items": [
            {
              "type": "heading",
              "id": "planTypeName",
              "detailSeq": 1
            },
            {
              "type": "BLOCK",
              "trigger": {
                "id": "paymentMode",
                "type": "showIfNotEqual",
                "value": "L"
              },
              "items": [
                {
                  "type": "table",
                  "id": "displayPlanList",
                  "allowEdit": false,
                  "totalColSpan": 10,
                  "no1stItemLeftPadding": true,
                  "items": [
                    {
                      "type": "HBOX",
                      "title": "Basic Plan",
                      "presentation": "planCover@covName",
                      "colSpan": 2.5,
                      "items": [
                        {
                          "type": "image",
                          "id": "planCover"
                        },
                        {
                          "type": "TEXT",
                          "id": "covName"
                        }
                      ]
                    },
                    {
                      "type": "READONLY",
                      "id": "incomePayout",
                      "title": "Guaranteed Annual Income",
                      "subType": "currency",
                      "decimal": 2,
                      "colSpan": 1.5,
                      "right": true
                    },
                    {
                      "type": "READONLY",
                      "id": "polTermDesc",
                      "title": "Policy Term",
                      "colSpan": 1.5,
                      "right":true
                    },
                    {
                      "type": "READONLY",
                      "id": "premTermDesc",
                      "title": "Premium Term",
                      "colSpan": 1.5,
                      "right":true
                    }
                  ]
                },
                {
                  "type": "table",
                  "id": "riderList",
                  "allowEdit": false,
                  "totalColSpan": 10,
                  "no1stItemLeftPadding": true,
                  "trigger": {
                    "type": "notEmpty",
                    "id": "riderList"
                  },
                  "items": [
                    {
                      "type": "HBOX",
                      "title": "Rider",
                      "presentation": "planCover@covName",
                      "colSpan": 2.5,
                      "items": [
                        {
                          "type": "image",
                          "id": "planCover"
                        },
                        {
                          "type": "TEXT",
                          "id": "covName"
                        }
                      ]
                    },
                    {
                      "type": "READONLY",
                      "id": "incomePayout",
                      "title": "Guaranteed Annual Income",
                      "subType": "currency",
                      "decimal": 2,
                      "colSpan": 1.5,
                      "right": true
                    },
                    {
                      "type": "READONLY",
                      "id": "polTermDesc",
                      "title": "Policy Term",
                      "colSpan": 1.5,
                      "right":true
                    },
                    {
                      "type": "READONLY",
                      "id": "premTermDesc",
                      "title": "Premium Term",
                      "colSpan": 1.5,
                      "right":true
                    }
                  ]
                }
              ]
            },
            {
              "type": "BLOCK",
              "trigger": {
                "id": "paymentMode",
                "type": "showIfEqual",
                "value": "L"
              },
              "items": [
                {
                  "type": "table",
                  "id": "displayPlanList",
                  "allowEdit": false,
                  "totalColSpan": 8,
                  "no1stItemLeftPadding": true,
                  "items": [
                    {
                      "type": "HBOX",
                      "title": "Basic Plan",
                      "presentation": "planCover@covName",
                      "colSpan": 2.5,
                      "items": [
                        {
                          "type": "image",
                          "id": "planCover"
                        },
                        {
                          "type": "TEXT",
                          "id": "covName"
                        }
                      ]
                    },
                    {
                      "type": "READONLY",
                      "id": "incomePayout",
                      "title": "Guaranteed Annual Income",
                      "subType": "currency",
                      "decimal": 2,
                      "colSpan": 1.5,
                      "right": true
                    },
                    {
                      "type": "READONLY",
                      "id": "polTermDesc",
                      "title": "Policy Term",
                      "colSpan": 1.5,
                      "right":true
                    },
                    {
                      "type": "READONLY",
                      "id": "riderBasicEmpty",
                      "title": "",
                      "colSpan": 4,
                      "right":true
                    }
                  ]
                },
                {
                  "type": "table",
                  "id": "riderList",
                  "allowEdit": false,
                  "totalColSpan": 8,
                  "no1stItemLeftPadding": true,
                  "trigger": {
                    "type": "notEmpty",
                    "id": "riderList"
                  },
                  "items": [
                    {
                      "type": "HBOX",
                      "title": "Rider",
                      "presentation": "planCover@covName",
                      "colSpan": 2.5,
                      "items": [
                        {
                          "type": "image",
                          "id": "planCover"
                        },
                        {
                          "type": "TEXT",
                          "id": "covName"
                        }
                      ]
                    },
                    {
                      "type": "READONLY",
                      "id": "incomePayout",
                      "title": "Guaranteed Annual Income",
                      "subType": "currency",
                      "decimal": 2,
                      "colSpan": 1.5,
                      "right": true
                    },
                    {
                      "type": "READONLY",
                      "id": "polTermDesc",
                      "title": "Policy Term",
                      "colSpan": 1.5,
                      "right":true
                    },
                    {
                      "type": "READONLY",
                      "id": "riderEmpty",
                      "title": "",
                      "colSpan": 4,
                      "right":true
                    }
                  ]
                }
              ]
            }
          ]
        },
        {
          "type": "block",
          "title": "Other Plan Details",
          "items": [
            {
              "type": "HBOX",
              "items": [
                {
                  "id": "ccy",
                  "title": "Policy Currency",
                  "type": "READONLY",
                  "options": [
                    {
                      "value": "ALL",
                      "title": {
                        "en": "All Currencies",
                        "zh-hant": "所有貨幣"
                      },
                      "exRate": "1",
                      "seq": "1"
                    },
                    {
                      "value": "AUD",
                      "title": {
                        "en": "AUD",
                        "zh-hant": "澳元"
                      },
                      "_title": {
                        "en": "Australian Dollars",
                        "zh-hant": "澳元"
                      },
                      "shortTitle": "AUD",
                      "exRate": "1.2",
                      "seq": "2"
                    },
                    {
                      "value": "CAD",
                      "title": {
                        "en": "Canadian Dollars",
                        "zh-hant": "加幣"
                      },
                      "exRate": "1.2",
                      "seq": "3"
                    },
                    {
                      "value": "CHF",
                      "title": {
                        "en": "Swiss Francs",
                        "zh-hant": "瑞士法郎"
                      },
                      "exRate": "1.2",
                      "seq": "4"
                    },
                    {
                      "value": "EUR",
                      "title": {
                        "en": "EUR",
                        "zh-hant": "歐元"
                      },
                      "_title": {
                        "en": "Euros",
                        "zh-hant": "歐元"
                      },
                      "exRate": "1",
                      "seq": "5"
                    },
                    {
                      "value": "GBP",
                      "title": {
                        "en": "GBP",
                        "zh-hant": "英鎊"
                      },
                      "_title": {
                        "en": "British Pounds",
                        "zh-hant": "英鎊"
                      },
                      "exRate": "0.64",
                      "seq": "6"
                    },
                    {
                      "value": "HKD",
                      "title": {
                        "en": "Hong Kong Dollars",
                        "zh-hant": "港幣"
                      },
                      "shortTitle": "HK$",
                      "exRate": "8",
                      "seq": "7"
                    },
                    {
                      "value": "NZD",
                      "title": {
                        "en": "New Zealand Dollars",
                        "zh-hant": "紐元"
                      },
                      "exRate": "1.8",
                      "seq": "8"
                    },
                    {
                      "value": "USD",
                      "title": {
                        "en": "USD",
                        "zh-hant": "美金"
                      },
                      "exRate": "1",
                      "seq": "9"
                    },
                    {
                      "value": "SGD",
                      "title": {
                        "en": "SGD",
                        "zh-hant": "新加坡幣"
                      },
                      "exRate": "1.6",
                      "seq": "10"
                    }
                  ]
                },
                {
									"id": "paymentTerm",
									"title": "Payment Term",
									"type": "READONLY"
								}
              ]
            },
            {
              "type": "HBOX",
              "items": [
                {
                  "type": "READONLY",
                  "id": "payoutTermDesc",
                  "title": "Income Payout Period"
                },
                {
                  "id": "paymentMode",
                  "title": "Payment Mode",
                  "type": "READONLY",
                  "trigger": {
                    "id": "paymentMode",
                    "type": "showIfNotEqual",
                    "value": "L"
                  },
                  "hiddenField": {
                    "type": "skip"
                  },
                  "options": [
                    {
                      "value": "M",
                      "title": "Monthly"
                    },
                    {
                      "value": "Q",
                      "title": "Quarterly"
                    },
                    {
                      "value": "S",
                      "title": "Semi-Annual"
                    },
                    {
                      "value": "A",
                      "title": "Annual"
                    },
                    {
                      "value": "L",
                      "title": "Single Premium"
                    }
                  ]
                },
                {
                  "id": "paymentMethod",
                  "title": "Payment Method",
                  "type": "READONLY",
                  "trigger": {
                    "id": "paymentMode",
                    "type": "showIfEqual",
                    "value": "L"
                  },
                  "hiddenField": {
                    "type": "skip"
                  },
                  "options": [
                    {
                      "title": {
                          "en": "Cash"
                      },
                      "value": "cash"
                  },
                  {
                      "title": {
                          "en": "SRS"
                      },
                      "value": "srs"
                  }
                  ]
                }
              ]
            },
            {
              "type": "HBOX",
              "items": [
                {
                  "type": "READONLY",
                  "id": "accumulationPeriod",
                  "title": "Accumulation Period",
                  "options": [
                    {
                      "title": {
                          "en": "0 Years"
                      },
                      "value": "0"
                  },
                  {
                      "title": {
                          "en": "5 Years"
                      },
                      "value": "5"
                  }
                  ]
                },
                {
									"id": "isBackDate",
									"title": "Backdating",
									"type": "READONLY",
									"options": [
										{
											"value": "Y",
											"title": "Yes"
										},
										{
											"value": "N",
											"title": "No"
										}
									]
								}
              ]
            },
            {
              "type": "HBOX",
              "trigger": {
                "id": "isBackDate",
                "type": "dynamicCondition",
                "value": "#1==='Y'"
              },
              "items": [
                {
                  "id": "depositInputEmpty",
                  "title": "",
                  "type": "READONLY",
                  "value": ""
                },
                {
                  "id": "riskCommenDate",
                  "title": "Selected Commencement Date (dd/mm/yyyy)",
                  "type": "READONLY",
                  "subType": "date",
                  "trigger": {
                    "id": "isBackDate",
                    "type": "showIfEqual",
                    "value": "Y"
                  }
                }
              ]
            },
            {
              "type": "HBOX",
              "items": [
                {
                  "type": "READONLY"
                },
                {
                  "type": "READONLY",
                  "id": "premium",
                  "title": "Total Premium Amount (including riders if any)",
                  "subType": "currency",
                  "decimal": 2
                }
              ]
            }
          ]
				}
      ]
    }
  ]
}
