{
	"type": "layout",
  	"formId":"menu_declaration",
	"items": [
		{
			"title": "Proposer",
			"subType": "proposer",
			"type":"tab",
			"items": [
				{
					"type":"block",
					"id":"declaration",
					"items":[
						{
							"type": "BLOCK",
							"title": "Term Conversion",
              "detailSeq": 1,
              "trigger":{
								"id":"#insured.0.policies.havExtPlans,@extra.baseProductCode,@extra.isPhSameAsLa,#proposer.policies.havExtPlans",
								"value":"( (#3=='N' && #1=='Y') || (#3=='Y' && #4=='Y') ) && (#2=='LMP' || #2 == 'FPX' || #2=='FSX' || #2=='LITE')",
								"type":"dynamicCondition"
							},
							"items": [
								{
									"type": "QRADIOGROUP",
									"id": "isTermConversion",
									"mandatory":true,
									"title": "Is this application a Term conversion? ",
									"detailSeq": 1,
									"horizontal": true,
									"align": "left",
									"options": [
										{
											"value": "Y",
											"title": "Yes"
										},
										{
											"value": "N",
											"title": "No"
										}
									]
                },
                {
                  "type": "PARAGRAPH",
                  "id": "pWarning",
                  "paragraphType": "warningWithNote",
                  "align": "left",
                  "content": "<p>Note: Please submit duly completed Service Request Form</p>",
                  "detailSeq": 2,
                  "trigger":{
                    "id":"isTermConversion",
                    "value":"Y",
                    "type":"showIfEqual"
                  }
                }
							]
						},
						{
							"type": "BLOCK",
							"title": "Bankruptcy",
							"detailSeq": 1,
							"items": [
								{
									"type": "QRADIOGROUP",
									"id": "BANKRUPTCY01",
									"mandatory":true,
									"title": "Are you an undischarged bankrupt? ",
									"detailSeq": 1,
									"horizontal": true,
									"align": "left",
									"options": [
										{
											"value": "Y",
											"title": "Yes"
										},
										{
											"value": "N",
											"title": "No"
										}
									]
								}
							]
						},
						{
							"type": "BLOCK",
							"title": "Politically Exposed Person (PEP)",
							"tips":{
								"title":"PEP means an individual who is or has been entrusted with prominent public functions in Singapore, a foreign country or an international organisation, which includes the roles held by a head of state, a head of government, government ministers, senior civil or public servants, senior judicial or military officials, senior executives of state owned corporations, senior political party officials, members of the legislature and senior management of international organisations."
								},
							"detailSeq": 2,
							"items": [
								{
									"type": "QRADIOGROUP",
									"id": "PEP01",
									"mandatory":true,
									"title": "Are you a current/former Political Exposed Person (PEP) or a family member (parent, step parent, child, step-child, adopted child, spouse, sibling, step-sibling and adopted sibling) or close associate (closely connected either socially or professionally) of a PEP?",
									"detailSeq": 1,
									"horizontal": true,
									"align": "left",
									"options": [
										{
											"value": "Y",
											"title": "Yes"
										},
										{
											"value": "N",
											"title": "No"
										}
									]
								},
								{
									"type": "table",
									"id":"PEP01_DATA",
									"mandatory":true,
									"allowEdit": true,
									"hasBorder": true,
									"max":8,
									"trigger":{
												"id":"PEP01",
												"type":"showIfEqual",
												"value":"Y"
											},
									"items": [
										{
											"id": "PEP01a",
											"mandatory":true,
											"type": "TEXT",
											"title": "Relationship with the PEP",
											"max":50

										},
										{
											"id": "PEP01b",
											"mandatory":true,
											"type": "TEXT",
											"title": "Full Name of the PEP",
											"max":50
										},
										{
											"id": "PEP01c",
											"mandatory":true,
											"type": "TEXT",
											"title": "Position held by the PEP",
											"max":50
										},
										{
											"id": "PEP01d",
											"mandatory":true,
											"type": "picker",
											"subType": "limit",
											"title": "Country where he/she is the PEP",
											"max":50,
											"options":"country"
										},
										{
											"type": "TABLE-BLOCK-T",
											"key":"PEP01-bb",
											"mandatory":true,
											"title": "Source of Funds",
                      "presentation": "PEP01e1$PEP01e2$PEP01e3$PEP01e4$PEP01e5$PEP01e6",
                      "presnetationStyle": {
                        "width": "22%"
                      },
											"items": [
												{
													"title": "Salary/Commission",
													"id": "PEP01e1",
													"type": "CHECKBOX"
												},
												{
													"type": "CHECKBOX",
													"title": "Gift/Inheritance",
													"id": "PEP01e2"
												},
												{
													"type": "CHECKBOX",
													"title": "Proceeds from sale of assets ",
													"id": "PEP01e3"
												},
												{
													"type": "CHECKBOX",
													"title": "Business Income",
													"id": "PEP01e4"
												},
														{
													"type": "CHECKBOX",
													"title": "Proceeds from maturity/surrender of a policy",
													"id": "PEP01e5"
												},
												{
													"type": "CHECKBOX",
													"title": "Others",
													"id": "PEP01e6",
													"valueId": "PEP01e7"
												},
												{
													"id": "PEP01e7",
													"type": "text",
													"mandatory":true,
													"max": 50,
													"title": "Please specify the Source of Funds",
													"trigger": {
														"id": "PEP01e6",
														"type": "showIfEqual",
														"value": "Y"
													}
												}
											]
										},
										{
											"type": "TABLE-BLOCK-T",
											"key":"PEP01-c",
											"mandatory":true,
											"title": "Source of Wealth",
                      "presentation": "PEP01f1$PEP01f2$PEP01f3$PEP01f4$PEP01f5$PEP01f6",
                      "presnetationStyle": {
                        "width": "22%"
                      },
											"items": [
												{
													"title": "Salary/Commission",
													"id": "PEP01f1",
													"type": "CHECKBOX"
												},
												{
													"type": "CHECKBOX",
													"title": "Gift/Inheritance",
													"id": "PEP01f2"
												},
												{
													"type": "CHECKBOX",
													"title": "Investment Profits (shares, bonds, unit trust, property etc)",
													"id": "PEP01f3"
												},
												{
													"type": "CHECKBOX",
													"title": "Business Income",
													"id": "PEP01f4"
												},
												{
													"type": "CHECKBOX",
													"title": "Withdrawal of CPF money",
													"id": "PEP01f5"
												},
												{
													"type": "CHECKBOX",
													"title": "Others",
													"id": "PEP01f6",
													"valueId": "PEP01f7"
												},
												{
													"id": "PEP01f7",
                          "type": "text",
                          "mandatory":true,
													"max": 50,
													"title": "Please specify the Source of Wealth",
													"trigger": {
														"id": "PEP01f6",
														"type": "showIfEqual",
														"value": "Y"
													}
												}
											]
										}
									]
								}
							]
						},
						{
							"type": "BLOCK",
							"title": "Foreign Account Tax Compliance Act (FATCA) and Common Reporting Standard (CRS) Tax Residency",
							"detailSeq": 3,
							"trigger": {
								"id": "#planDetails.paymentMethod",
								"type": "dynamicCondition",
								"value": "#1!='cpfisoa' && #1 !='cpfissa'"
							},
							"items": [
								{
									"id": "FATCA01",
									"mandatory":true,
									"type": "QRADIOGROUP",
									"title": "Is the Proposer a tax resident of {{Singapore}}?",
									"detailSeq": 1,
									"horizontal": true,
                  "align": "left",
                  "needToHighlight": true,
									"options": [
										{
											"value": "Y",
											"title": "Yes"
										},
										{
											"value": "N",
											"title": "No"
										}
									]
								},
								{
									"id": "FATCA01b",
									"mandatory":true,
									"type": "text",
									"max": 15,
									"title": "Please provide Taxpayer Identification Number TIN",
									"trigger":{
										"id":"FATCA01",
										"type":"showIfEqual",
										"value":"Y"
									}
								},
								{
									"id": "FATCA02",
									"type": "QRADIOGROUP",
									"mandatory":true,
									"title": "Is the Proposer a citizen or tax resident of {{United States (US)}}?",
									"detailSeq": 2,
									"horizontal": true,
                  "align": "left",
                  "needToHighlight": true,
									"options": [
										{
											"value": "Y",
											"title": "Yes"
										},
										{
											"value": "N",
											"title": "No"
										}
									]
								},
								{
									"id": "FATCA03",
									"mandatory":true,
									"type": "TEXT",
									"max": 15,
									"title": "Please provide Taxpayer Identification Number TIN",
									"detailSeq": 3,
									"trigger": [
										{
											"id": "FATCA02",
											"type": "showIfEqual",
											"value": "Y"
										},
										{
											"id": "FATCA03",
											"type": "showIfEqual",
											"value": "Y"
										}
									]
								},
								{
									"id": "CRS01",
									"mandatory":true,
									"type": "QRADIOGROUP",
									"title": "Other than Singapore and US, is the Proposer a tax resident of other {{countries/jurisdictions}}?",
                  "tips": {
                    "msg": "Each jurisdiction has its own rules for defining tax residence, and jurisdictions have provided information on how to determine if you are resident in the jurisdiction on the following website: [OECD AEOI Portal]. In general, you will find that tax residence is the country/jurisdiction in which you live. Special circumstances may cause you to be resident elsewhere or resident in more than one country/jurisdiction at the same time (dual residency).For more information on tax residence, please consult your tax adviser or the information at the OECD automatic exchange of information portal."
                  },
									"detailSeq": 4,
									"horizontal": true,
                  "align": "left",
                  "needToHighlight": true,
									"options": [
										{
											"value": "Y",
											"title": "Yes"
										},
										{
											"value": "N",
											"title": "No"
										}
									]
								},
								{
									"type": "table",
									"allowEdit": true,
									"hasBorder": true,
									"id": "CRS01_DATA",
									"max":6,
									"mandatory":true,
									"trigger": {
										"id": "CRS01",
										"type": "showIfEqual",
										"value": "Y"
									},
									"items": [
										{
											"id": "CRS01a",
											"mandatory":true,
											"type": "picker",
											"subType": "limit",
											"title": "Country/Jurisdiction of Tax Residency",
											"options": "residency",
											"trigger":{
												"type":"excludeSG",
												"value":"R2,R252"
											}
										},
										{
                      "id": "CRS01b",
                      "mandatoryTrigger":{
                        "id":"CRS01c",
                        "type":"trueIfEmpty"
                      },
                      "type": "text",
                      "detailSeq": 2,
                      "max":25,
                      "title": "Tax Identification Number (TIN)"
                    },
                    {
                      "id": "CRS01c",
                      "type": "QRADIOGROUP",
                      "title":"Reason (if TIN is not available, please select appropriate Reason)",
                      "detailSeq": 3,
                      "trigger": {
                        "id": "CRS01b",
                        "type": "empty"
                      },
                      "options": [
                        {
                          "value": "A",
                          "title": "Reason A – The country/jurisdiction where the Proposer is resident does not issue TINs to its residents. "
                        },
                        {
                          "value": "B",
                          "title": "Reason B – The Proposer is otherwise unable to obtain a TIN or equivalent number due to reason/s. Reasons to be provided."
                        }
                      ]
                    },
                    {
                      "id": "CRS01d",
                      "type": "text",
                      "mandatory":true,
                      "title": "Please provide further details if Reason B is selected",
                      "max":150,
                      "triggerType":"and",
                      "trigger":
                      [
                        {
                          "id": "CRS01b",
                          "type": "empty"
                        },
                        {
                          "id": "CRS01c",
                          "type": "showIfEqual",
                          "value": "B"
                        }
                      ]
                    }
									]
								}
							]
						},
						{
							"type": "BLOCK",
							"title": "Trusted Individual",
							"triggerType":"and",
							"trigger":
							[
								{
									"id":"trustedIndividuals.firstName",
									"type":"notEmpty"
								},
								{
									"id":"extra/channel",
									"type":"showIfNotEqual",
									"value":"FA"
								}
							],
							"detailSeq": 4,
							"items": [
								{
									"type": "hbox",
									"items":[{
										"id": "TRUSTED_IND01",
										"mandatory":true,
										"label":"title",
										"title": "Language",
										"type": "picker",
										"options": [
											{
												"value": "en",
												"title": "English"
											},
											{
												"value": "mandarin",
												"title": "Mandarin"
											},
											{
												"value": "malay",
												"title": "Malay"
											},
											{
												"value": "tamil",
												"title": "Tamil"
											},
											{
												"value": "other",
												"title": "Other"
											}
										]
									},
									{
										"id": "TRUSTED_IND02",
										"mandatory":true,
										"type": "text",
										"placeholder": {
											"en": "Please specify the Language if other"
										},
										"trigger": {
											"id": "TRUSTED_IND01",
											"type": "showIfEqual",
											"value": "other"
										},
										"max":15
									}]
								},
								{
									"id": "TRUSTED_IND04",
									"mandatory":true,
									"type": "checkbox",
									"trigger": {
										"id": "TRUSTED_IND01",
										"type": "showIfEqual",
										"value": "other"
									},
									"hiddenField": {
										"type": "skip"
									},
									"content": "I, <b><trustedIndividuals/fullName></b> of NRIC/Passport: <b><trustedIndividuals/idCardNo></b> acknowledge that I have fulfilled the definition of a Trusted Individual and I am a Trusted Individual to <b><@personalInfo/fullName></b>. I confirm that the Financial Consultant has conversed in <b><TRUSTED_IND02></b>  to conduct the Financial Needs Analysis and explained the recommendations and application form(s). I confirm that I understand the explanations and recommendations made by the Financial Consultant and I have translated and explained them to <b><@personalInfo/fullName></b>."
								},
								{
									"id": "TRUSTED_IND04",
									"mandatory":true,
									"type": "checkbox",
									"trigger": {
										"id": "TRUSTED_IND01",
										"type": "showIfNotEqual",
										"value": "other"
									},
									"hiddenField": {
										"type": "skip"
									},
									"content": "I, <b><trustedIndividuals/fullName></b> of NRIC/Passport: <b><trustedIndividuals/idCardNo></b> acknowledge that I have fulfilled the definition of a Trusted Individual and I am a Trusted Individual to <b><@personalInfo/fullName></b>. I confirm that the Financial Consultant has conversed in <b><TRUSTED_IND01></b>  to conduct the Financial Needs Analysis and explained the recommendations and application form(s). I confirm that I understand the explanations and recommendations made by the Financial Consultant and I have translated and explained them to <b><@personalInfo/fullName></b>."
								}
							]
						},
						{
							"type": "BLOCK",
							"title": "e-Policy",
							"detailSeq": 5,
							"trigger": {
                "id": "removeThisTriggerInRelease2",
                "type": "showIfEqual",
                "value": "Y"
              },
							"items": [
								{
									"id": "EPOLICY01",
									"type": "checkbox",
									"title": "I would also like to receive a copy of my policy documents by mail, aside from my e-policy in MyAXA",
									"value":"Y"
								}
							]
						},
						{
							"type": "BLOCK",
							"title": "Roadshow Declaration",
							"detailSeq": 6,
							"trigger":{
								"id":"extra/channel",
								"type":"showIfNotEqual",
								"value":"FA"
							},
							"items": [
                                {
                                    "id": "ROADSHOW01",
                                    "type": "QRADIOGROUP",
                                    "mandatory": true,
                                    "detailSeq": 1,
                                    "title": "Is this case closed at the venue of the roadshow/canvassing or seminar event? ",
                                    "horizontal": true,
                                    "align": "left",
                                    "options": [
                                        {
                                            "value": "Y",
                                            "title": "Yes"
                                        },
                                        {
                                            "value": "N",
                                            "title": "No"
                                        }
                                    ]
                                },
                                {
                                    "id": "ROADSHOW04",
                                    "type": "QRADIOGROUP",
                                    "mandatory": true,
                                    "detailSeq": 1,
                                    "title": "",
                                    "align": "left",
                                    "noPadding": true,
                                    "trigger": {
                                        "id": "ROADSHOW01",
                                        "type": "showIfEqual",
                                        "value": "Y"
                                    },
                                    "options": [
                                        {
                                            "value": "roadshow",
                                            "title": "Roadshow"
                                        },
                                        {
                                            "value": "canvassing",
                                            "title": "Canvassing"
                                        },
                                        {
                                            "value": "seminar",
                                            "title": "Seminar event"
                                        }
                                    ]
                                },
                                {
                                    "id": "ROADSHOW02",
                                    "mandatory": true,
                                    "type": "datepicker",
                                    "max": 0,
                                    "min": 100,
                                    "detailSeq": 2,
                                    "title": "Date of event",
                                    "trigger": {
                                        "id": "ROADSHOW01",
                                        "type": "showIfEqual",
                                        "value": "Y"
                                    }
                                },
                                {
                                    "id": "ROADSHOW03",
                                    "mandatory": true,
                                    "type": "text",
                                    "max": 50,
                                    "detailSeq": 3,
                                    "title": "Venue where case was closed  ",
                                    "trigger": {
                                        "id": "ROADSHOW01",
                                        "type": "showIfEqual",
                                        "value": "Y"
                                    }
                                }
                            ]
                        },
						{
							"type": "BLOCK",
							"title": "Source of Funds",
							"detailSeq": 7,
							"items": [
                {
                  "type": "block",
                  "title": "1. Source of Payment",
                  "titleType": "normal",
                  "items": [
                    {
                      "id": "FUND_SRC01",
                      "mandatory": true,
                      "type": "QRADIOGROUP",
                      "detailSeq": 1,
                      "title": "Please select the origin of the funds used for this application.",
                      "align": "left",
                      "options": [
                        {
                          "value": "sg",
                          "title": "Singapore (e.g. Singapore banks/credit cards)"
                        },
                        {
                          "value": "foreign",
                          "title": "Foreign (e.g. overseas banks/credit cards)"
                        }
                      ]
                    }
                  ]
								},
								{
									"type":"BLOCK",
									"title":"CPFIS Self-Awareness Questionnaire (SAQ) Declaration ",
									"asterisk": false,
									"trigger": {
										"id": "#planDetails.paymentMethod",
										"type": "dynamicCondition",
										"value": "#1=='cpfisoa' || #1=='cpfissa'"
										},
									"items":[
										{
											"id": "SAQDeclaration",
											"type":"paragraph",
											"paragraphType": "replaceableText",
											"content": "<p style='margin: 0px; font-weight: bold;'><u>Important Note on CPFIS SAQ</u></p><p style='margin-top: 0px; padding: 0px'>If you do not have a CPFIS account*, you <b>must</b> take the Self-Awareness Questionnaire (SAQ) before you can invest under CPFIS. The SAQ is to help CPF members self-assess if they have basic financial knowledge and whether the CPFIS is suitable for them.</p><p>You can access the SAQ via the CPF website after logging in with your SingPass.<p>If you have a CPFIS account, you are encouraged to take the SAQ.</p><p style='font-size: 12px'>*You are deemed to have a CPFIS account if you have ever had a CPF Investment Account held with an Agent Bank under the CPFIS-OA or have ever invested under the CPFIS-SA.</p><p style='font-weight: bold;'>Declaration by {{[applicant/investor]}} <sup style='color: red'>*</sup></p>"
										},
										{
												"id": "SAQ_Declaration",
												"title": "I declare that I have (1) opened a CPF Investment Account before; (2) invested under the CPF Investment Scheme - Special Account before; and/or (3) completed the Self-Awareness Questionnaire. If the above declaration is found to be false, I understand and agree that CPF Board will reject the withdrawal of monies from my ordinary or special account, as the CPF Board deems fit.",
												"type": "CHECKBOX",
												"mandatory": true,
												"labelStyle": {
													"fontSize": 15
												}
										}
									]
								},
								{
									"type":"block",
									"title":"2. Payor's Details",
									"titleType":"normal",
									"items":[
										{
											"type":"QTITLE",
											"title":"Who is paying the insurance premium for this application?"
                    },
                    {
                      "type": "HBOX",
                      "items": [
                        {
                          "id": "FUND_SRC02",
                          "mandatory":true,
                          "type": "picker",
                          "detailSeq": 2,
                          "optionsTable":"payors",
                          "options": []
                        }
                      ]
                    },
										{
											"type": "block",
											"detailSeq": 3,
											"trigger": {
												"id": "FUND_SRC02",
												"type": "showIfEqual",
												"value": "other"
											},
											"items": [
												{
													"type": "hbox",
													"key":"hnamebox",
													"detailSeq": 1,
													"errorMsg":"Surname and Given Name has max 50 characters",
													"mandatory":true,
													"max":50,
													"items": [
														{
															"id": "FUND_SRC03",
															"type": "text",
															"max": 30,
															"validation":{
																"id":"FUND_SRC04",
																"type":"sum",
																"max":50
															},
															"title": "Surname of Payor (as shown in ID)"
														},
														{
															"id": "FUND_SRC04",
															"mandatory":true,
															"type": "text",
															"max": 30,
															"validation":{
																"id":"FUND_SRC03",
																"type":"sum",
																"max":50
															},
															"title": "Given Name of Payor (as shown in ID)"
														}
													]
												},
												{
													"type": "hbox",
													"detailSeq": 2,
													"items": [
														{
															"id": "FUND_SRC05",
															"type": "text",
															"max": 30,
															"title": "English or other Name of Payor "
														},
														{
															"id": "FUND_SRC06",
															"type": "text",
															"max": 30,
															"title": "Han Yu Pin Yin Name of Payor"
														}
													]
												},
												{
													"type": "hbox",
													"detailSeq": 3,
													"items": [
														{
															"id": "FUND_SRC07",
															"mandatory":true,
															"type": "text",
															"max": 30,
															"title": "Payor's ID No. "
														},
														{
															"id": "FUND_SRC08",
															"mandatory":true,
															"type": "picker",
															"max": 30,
															"title": "Payor's Nationality or Country of Incorporation",
															"options": "residency",
															"subType": "limit"
														}
													]
												},
												{
													"type": "HBOX",
													"detailSeq": 4,
													"items": [
														{
															"type": "picker",
															"id": "FUND_SRC09",
															"mandatory":true,
															"title": "Relationship of Payor to Proposer",
															"detailSeq": 1,
															"options": "relationship"
														},
														{
															"type": "text",
															"id": "FUND_SRC10",
															"mandatory": true,
															"maxLength": 20,
															"detailSeq": 5,
															"title": "Other Relationship",
															"trigger": {
																"id": "FUND_SRC09",
																"type": "showIfEqual",
																"value": "OTH"
															}
														},
														{
															"type": "HBOX",
															"detailSeq": 2,
                              "title":"Payor's Contact No.",
                              "subType":"TEXT",
															"items": [
																{
																	"type": "PICKER",
																	"id": "FUND_SRC11",
																	"mandatory": true,
																	"detailSeq": 1,
																	"options": "countryTelCode",
																	"value":"+65"
																},
																{
																	"type": "TEXT",
																	"id": "FUND_SRC12",
																	"subType": "number",
																	"mandatory": true,
																	"detailSeq": 2,
																	"max":999999999999999
																}
															]
														},
														{
															"id":"FUND_SRC20",
															"mandatory": true,
															"title":"Payor's Occupation",
															"type":"text",
															"max":100
														},
														{
															"id":"FUND_SRC21",
															"mandatory": true,
															"title":"Payor's Annual Income (S$)",
															"allowEmpty":true,
															"type":"text",
															"max":999999999,
                              "subType":"currency",
                              "ccy": "SGD"
														}
													]
												},

												{
													"id": "FUND_SRC13title",
													"title": "Payor's Residential/Registered Address",
													"type":"QTITLE",
													"detailSeq": 7
												},
												{
													"type": "hbox",
													"detailSeq": 8,
													"items": [
														{
															"id": "FUND_SRC13",
															"mandatory": false,
															"type": "PICKER",
															"subType": "limit",
															"title": "Country",
															"options": "residency",
															"value": "R2"

														},
                            {
                              "id": "FUND_SRC14",
                              "mandatory": true,
                              "type": "text",
                              "subType": "postalcode",
                              "max": 10,
                              "title": "Postal Code",
                              "countryAllowed": "FUND_SRC13",
                              "mapping": {
                                "bldgNo": "FUND_SRC15,12",
                                "bldgName": "FUND_SRC18,40",
                                "streetName": "FUND_SRC16,24"
                              }
                            }
													]
												},
												{
													"type": "hbox",
													"detailSeq": 9,
													"items": [
														{
															"id": "FUND_SRC15",
															"mandatory": true,
															"type": "text",
															"title": "Block/House Number",
															"max": 12
														},
														{
															"id": "FUND_SRC16",
															"mandatory": true,
															"type": "text",
															"max": 24,
															"title": "Street/Road Name"
														}
													]
												},
												{
													"type": "hbox",
													"detailSeq": 10,
													"items": [
														{
															"id": "FUND_SRC17",
															"type": "text",
															"title": "Unit Number",
															"subType": "unit_no",
															"max": 13
														},
														{
															"id": "FUND_SRC18",
															"type": "text",
															"max": 40,
															"title": "Building/ Estate Name"
														}
													]
												},
												{
													"type": "hbox",
													"detailSeq": 11,
													"items": [
														{
															"id": "FUND_SRC19",
															"type": "text",
															"max": 12,
															"title": "City/State",
															"mandatoryTrigger":{
																"id":"FUND_SRC13",
																"value":["R51","R52"],
																"type":"trueIfContains"
															}
														}
													]
												},
												{
													"id": "FUND_SRC22",
													"type": "text",
													"detailSeq": 11,
													"mandatory": true,
													"max": 100,
													"title": "Reason for payment by third party"
												},
												{
													"id": "FUND_SRC23",
													"type": "paragraph",
													"detailSeq": 12,
													"paragraphType": "warning",
													"align": "left",
													"content": "<p>For Individual 3rd party payor: Please furnish copy of ID and Proof of Address<br/>For Corporate 3rd party payor: Please furnish copy of business profile showing the shareholders and directors.</p> "
												}
											]
										},
										{
											"type": "BLOCK",
											"mandatory": true,
											"key":"FUND_SRC31-DATA",
											"title": "3. Source of Wealth",
											"titleType":"normal",
                      "detailSeq": 1,
                      "trigger": [
                        {
                          "type":"comparePremium",
                          "id":"extra/premium",
                          "ccys":[
                            {
                              "ccy":"SGD",
                              "amount":20000
                            },
                            {
                              "ccy":"AUD",
                              "amount":19000
                            },
                            {
                              "ccy":"EUR",
                              "amount":13000
                            },
                            {
                              "ccy":"GBP",
                              "amount":9600
                            },
                            {
                              "ccy":"USD",
                              "amount":14000
                            }
                          ]
                        },
                        {
                          "type":"showIfEqual",
                          "id":"FUND_SRC01",
                          "value":"foreign"
                        }
                      ],
											"items": [
												{
													"type":"QTITLE",
													"normal":true,
													"title":"Refers to the origin of your total assets. (You may tick more than one option)"
												},
												{
													"title": "Salary/Commissions/CPF",
													"id": "FUND_SRC33",
													"type": "CHECKBOX"
												},
												{
													"type": "CHECKBOX",
													"title": "Gift/Inheritance",
													"id": "FUND_SRC34"
												},
												{
													"type": "CHECKBOX",
													"title": "Profit from investments",
													"id": "FUND_SRC35"
												},
												{
													"type": "CHECKBOX",
													"title": "Business or trade income",
													"id": "FUND_SRC36"
												},
												{
													"type": "CHECKBOX",
													"title": "Others",
													"id": "FUND_SRC38"
												},
												{
													"id": "FUND_SRC39",
													"type": "text",
													"mandatory": true,
													"max": 50,
													"title": "Please specify the Source of Wealth",
													"trigger": {
														"id": "FUND_SRC38",
														"type": "showIfEqual",
														"value": "Y"
													}
												}
											]
										},
										{
											"type": "BLOCK",
											"mandatory": true,
											"key":"FUND_SRC40-DATA",
											"title": "4. Source of Funds",
											"titleType":"normal",
                      "detailSeq": 13,
                      "trigger": [
                        {
                          "type":"comparePremium",
                          "id":"extra/premium",
                          "ccys":[
                            {
                              "ccy":"SGD",
                              "amount":20000
                            },
                            {
                              "ccy":"AUD",
                              "amount":19000
                            },
                            {
                              "ccy":"EUR",
                              "amount":13000
                            },
                            {
                              "ccy":"GBP",
                              "amount":9600
                            },
                            {
                              "ccy":"USD",
                              "amount":14000
                            }
                          ]
                        },
                        {
                          "type":"showIfEqual",
                          "id":"FUND_SRC01",
                          "value":"foreign"
                        }
                      ],
											"items": [
												{
													"type":"QTITLE",
													"normal":true,
													"title":"Refers to the origin of funds/assets used for this investment. (You may tick more than one option)"
												},
												{
													"title": "Local Funds from Self/CPF",
													"id": "FUND_SRC41",
													"type": "CHECKBOX"
												},
												{
													"type": "CHECKBOX",
													"title": "Local Funds from Spouse",
													"id": "FUND_SRC42"
												},
												{
													"type": "CHECKBOX",
													"title": "Foreign Funds from Self",
													"id": "FUND_SRC43"
												},
												{
													"type": "CHECKBOX",
													"title": "Foreign Funds from Spouse",
													"id": "FUND_SRC44"
												},
												{
													"type": "CHECKBOX",
													"title": "Others",
													"id": "FUND_SRC30"
												},
												{
													"id": "FUND_SRC31",
													"type": "text",
													"mandatory": true,
													"max": 50,
													"title": "Please specify the Source of Funds",
													"trigger": {
														"id": "FUND_SRC30",
														"type": "showIfEqual",
														"value": "Y"
													}
												}
											]
										}
									]
								}
							]
						},
            {
              "type": "BLOCK",
              "title": "Financial Consultant's Declaration",
              "items": [
                {
                  "id": "FCD_01",
                  "type": "text",
                  "max": 30,
                  "title": "How long have you known your customer?",
                  "mandatory":true
                },
                {
                  "type": "QRADIOGROUP",
									"id": "FCD_02",
									"mandatory":true,
									"title": "Are you related to your customer?",
									"detailSeq": 1,
									"horizontal": true,
									"align": "left",
									"options": [
										{
											"value": "Y",
											"title": "Yes"
										},
										{
											"value": "N",
											"title": "No"
										}
									]
                },
                {
                  "type": "text",
									"id": "FCD_03",
									"mandatory":true,
									"title": "Relationship to customer",
                  "max": 20,
                  "trigger": {
                    "id": "FCD_02",
                    "type": "showIfEqual",
                    "value": "Y"
                  }
                }
              ]
						},
						{
							"type":"BLOCK",
							"trigger": {
								"id": "#planDetails.paymentMethod",
								"type": "dynamicCondition",
								"value": "#1=='cpfisoa' || #1=='cpfissa'"
								},
							"items":[
								{
									"id": "FCdeclaration",
									"type":"paragraph",
									"paragraphType": "replaceableTextFC",
									"content": "<p style='font-weight: bold;'>Declaration by {{[customer service officer]}} <sup style='color: red'>*</sup></p>"
								},
								{
										"id": "FC_declaration",
										"proposerText": true,
										"title": "I have checked that {{[applicant/investor]}} has (1) opened a CPF Investment Account before; (2) invested in the CPF Investment Scheme - Special Account before; and/or (3) completed the Self-Awareness Questionnaire.",
										"type": "CHECKBOX",
										"mandatory": true,
										"labelStyle": {
											"fontSize": 15
										}
									}
							]
						},
            {
              "type": "BLOCK",
              "title": "Personal Data Acknowledgement",
              "trigger": {
                "id":"extra/channel",
                "type":"showIfEqual",
                "value":"FA"
              },
              "items": [
                {
                  "id": "pda",
                  "type": "paragraph",
                  "paragraphType": "pda",
                  "content": "<p style='padding: 0px; line-height: 18px'>The information I or We have provided is my or our personal data and, where it is not my or our personal data, that I or We have the consent of the owner of such personal data to provide such information.<br/></p><br/>By providing this information, I or We understand and give my or our consent for AXA Insurance Pte Ltd (\"AXA\") and its representatives or agents to:</p><p style='padding: 0px; line-height: 18px'>i. Collect, use, store, transfer and/or disclose the information, to or with all such persons (including any member of the AXA Group or any third party service provider, and whether within or outside of Singapore) for the purpose of enabling AXA to provide me with services required of an insurance provider, including the evaluating, processing, administering and/or managing of my or our relationship and policy(ies) with AXA, and for the purposes set out in AXA's Data Use Statement which can be found at http://www.axa.com.sg (\"Purposes\").</p><p style='padding: 0px; line-height: 18px'>ii. Collect, use, store, transfer and/or disclose personal data about me or us and those whose personal data I or We have provided from sources other than myself or us for the Purposes.</p><p style='padding: 0px; line-height: 18px'>iii. Contact me or us to share marketing information about products and services from AXA that may be of interest to me or us by post and e-mail and</p><p style='padding: 0px; line-height: 18px'>(Please tick accordingly and you may tick more than one option)</p>"
                },
                {
                  "type": "BLOCK",
                  "key": "PDPA01",
                  "items": [
                    {
                      "type": "BLOCK",
                      "style": {
                        "display": "flex",
                        "width": "50%"
                      },
                      "items": [
                        {
                          "id":"PDPA01a",
                          "type":"checkbox",
                          "title":"By Telephone"
                        },
                        {
                          "id":"PDPA01b",
                          "type":"checkbox",
                          "title":"By Text Message"
                        }
                      ]
                    }
                  ]
                }
              ]
            }
					]
				}
			]
		},
		{
			"title": "Proposer",
			"subType": "insured",
			"type":"tab",
			"items": [
				{
					"type":"block",
					"id":"declaration",
					"items":[
						{
							"type": "BLOCK",
							"title": "Bankruptcy",
							"detailSeq": 1,
							"items": [
								{
									"type": "QRADIOGROUP",
									"id": "BANKRUPTCY01",
									"mandatory":true,
									"title": "Are you an undischarged bankrupt? ",
									"detailSeq": 1,
									"horizontal": true,
									"align": "left",
									"options": [
										{
											"value": "Y",
											"title": "Yes"
										},
										{
											"value": "N",
											"title": "No"
										}
									]
								}
							]
						},
						{
							"type": "BLOCK",
							"title": "Politically Exposed Person (PEP)",
							"tips":{
								"title":"PEP means an individual who is or has been entrusted with prominent public functions in Singapore, a foreign country or an international organisation, which includes the roles held by a head of state, a head of government, government ministers, senior civil or public servants, senior judicial or military officials, senior executives of state owned corporations, senior political party officials, members of the legislature and senior management of international organisations."
								},
							"detailSeq": 2,
							"items": [
								{
									"type": "QRADIOGROUP",
									"id": "PEP01",
									"mandatory":true,
									"title": "Are you a current/former Political Exposed Person (PEP) or a family member (parent, step parent, child, step-child, adopted child, spouse, sibling, step-sibling and adopted sibling) or close associate (closely connected either socially or professionally) of a PEP?",
									"detailSeq": 1,
									"horizontal": true,
									"align": "left",
									"options": [
										{
											"value": "Y",
											"title": "Yes"
										},
										{
											"value": "N",
											"title": "No"
										}
									]
								},
								{
									"type": "table",
									"id":"PEP01_DATA",
									"max":8,
									"mandatory":true,
									"allowEdit": true,
									"hasBorder": true,
									"trigger":{
												"id":"PEP01",
												"type":"showIfEqual",
												"value":"Y"
											},
									"items": [
										{
											"id": "PEP01a",
											"mandatory":true,
											"type": "TEXT",
											"title": "Relationship with the PEP",
											"max":50

										},
										{
											"id": "PEP01b",
											"mandatory":true,
											"type": "TEXT",
											"title": "Full Name of the PEP",
											"max":50
										},
										{
											"id": "PEP01c",
											"mandatory":true,
											"type": "TEXT",
											"title": "Position held by the PEP",
											"max":50
										},
										{
											"id": "PEP01d",
											"mandatory":true,
											"type": "picker",
											"subType": "limit",
											"title": "Country where he/she is the PEP",
											"max":50,
											"options":"country"
										},
										{
											"type": "TABLE-BLOCK-T",
											"key":"PEP01-bb",
											"mandatory":true,
											"title": "Source of Funds",
                      "presentation": "PEP01e1$PEP01e2$PEP01e3$PEP01e4$PEP01e5$PEP01e6",
                      "presnetationStyle": {
                        "width": "22%"
                      },
											"items": [
												{
													"title": "Salary/Commission",
													"id": "PEP01e1",
													"type": "CHECKBOX"
												},
												{
													"type": "CHECKBOX",
													"title": "Gift/Inheritance",
													"id": "PEP01e2"
												},
												{
													"type": "CHECKBOX",
													"title": "Proceeds from sale of assets ",
													"id": "PEP01e3"
												},
												{
													"type": "CHECKBOX",
													"title": "Business Income",
													"id": "PEP01e4"
												},
												{
													"type": "CHECKBOX",
													"title": "Proceeds from maturity/surrender of a policy",
													"id": "PEP01e5"
												},
												{
													"type": "CHECKBOX",
													"title": "Others",
													"id": "PEP01e6",
													"valueId":"PEP01e7"
												},
												{
													"id": "PEP01e7",
                          "type": "text",
                          "mandatory":true,
													"max": 50,
													"title": "Please specify the Source of Funds",
													"trigger": {
														"id": "PEP01e6",
														"type": "showIfEqual",
														"value": "Y"
													}
												}
											]
										},
										{
											"type": "TABLE-BLOCK-T",
											"key":"PEP01-c",
											"mandatory":true,
											"title": "Source of Wealth",
                      "presentation": "PEP01f1$PEP01f2$PEP01f3$PEP01f4$PEP01f5$PEP01f6",
                      "presnetationStyle": {
                        "width": "22%"
                      },
											"items": [
												{
													"title": "Salary/Commission",
													"id": "PEP01f1",
													"type": "CHECKBOX"
												},
												{
													"type": "CHECKBOX",
													"title": "Gift/Inheritance",
													"id": "PEP01f2"
												},
												{
													"type": "CHECKBOX",
													"title": "Investment Profits (shares, bonds, unit trust, property etc)",
													"id": "PEP01f3"
												},
												{
													"type": "CHECKBOX",
													"title": "Business Income",
													"id": "PEP01f4"
												},
												{
													"type": "CHECKBOX",
													"title": "Withdrawal of CPF money",
													"id": "PEP01f5"
												},
												{
													"type": "CHECKBOX",
													"title": "Others",
                          "id": "PEP01f6",
                          "valueId":"PEP01f7"
												},
												{
													"id": "PEP01f7",
                          "type": "text",
                          "mandatory":true,
													"max": 50,
													"title": "Please specify the Source of Wealth",
													"trigger": {
														"id": "PEP01f6",
														"type": "showIfEqual",
														"value": "Y"
													}
												}
											]
										}
									]
								}
							]
            },
            {
              "type": "BLOCK",
              "title": "Financial Consultant's Declaration",
              "items": [
                {
                  "id": "FCD_01",
                  "type": "text",
                  "max": 30,
                  "title": "How long have you known your customer?",
                  "mandatory":true
                },
                {
                  "type": "QRADIOGROUP",
									"id": "FCD_02",
									"mandatory":true,
									"title": "Are you related to your customer?",
									"detailSeq": 1,
									"horizontal": true,
									"align": "left",
									"options": [
										{
											"value": "Y",
											"title": "Yes"
										},
										{
											"value": "N",
											"title": "No"
										}
									]
                },
                {
                  "type": "text",
									"id": "FCD_03",
									"mandatory":true,
									"title": "Relationship to customer",
                  "max": 20,
                  "trigger": {
                    "id": "FCD_02",
                    "type": "showIfEqual",
                    "value": "Y"
                  }
                }
              ]
            }
					]
				}
			]
		}
	]
}
