{
  "type": "layout",
  "formId": "menu_plan",
  "skipCheck": true,
  "items": [
    {
      "type": "BLOCK",
      "id": "planDetails",
      "title": "",
      "items": [
        {
          "type": "block",
          "style": {
            "paddingBottom": "30px",
            "borderBottom": "1px solid #cac4c4"
          },
          "items": [
            {
              "type": "heading",
              "id": "planTypeName",
              "detailSeq": 1
            },
            
            {
              "type": "table",
              "fullWidth": true,
              "no1stItemLeftPadding": true,
              "id": "displayPlanList",
              "allowEdit": false,
              "items": [
                {
                  "type": "HBOX",
                  "title": "Basic Plan",
                  "width": "50%",
                  "presentation": "planCover@covName",
                  "items": [
                    {
                      "type": "image",
                      "id": "planCover"
                    },
                    {
                      "type": "TEXT",
                      "id": "covName"
                    }
                  ]
                },
                {
                  "type": "TEXT",
                  "id": "premTermDesc",
                  "title": "Premium Term",
                  "width": "25%"
                },
                {
                  "id": "premium",
                  "title": "Total Premium Amount",
                  "width": "25%",
                  "type": "READONLY",
                  "subType": "currency",
                  "decimal": 2
                }
              ]
						}
          ]
        },

        {
          "type": "block",
          "title": "Other Plan Details",
          "items": [
            {
              "type": "HBOX",
              "items": [
                {
                  "id": "ccy",
                  "title": "Policy Currency",
                  "type": "READONLY",
                  "options": [
                    {
                      "value": "ALL",
                      "title": {
                        "en": "All Currencies",
                        "zh-hant": "所有貨幣"
                      },
                      "exRate": "1",
                      "seq": "1"
                    },
                    {
                      "value": "AUD",
                      "title": {
                        "en": "Australian Dollars",
                        "zh-hant": "澳元"
                      },
                      "shortTitle": "AUD",
                      "exRate": "1.2",
                      "seq": "2"
                    },
                    {
                      "value": "CAD",
                      "title": {
                        "en": "Canadian Dollars",
                        "zh-hant": "加幣"
                      },
                      "exRate": "1.2",
                      "seq": "3"
                    },
                    {
                      "value": "CHF",
                      "title": {
                        "en": "Swiss Francs",
                        "zh-hant": "瑞士法郎"
                      },
                      "exRate": "1.2",
                      "seq": "4"
                    },
                    {
                      "value": "EUR",
                      "title": {
                        "en": "Euros",
                        "zh-hant": "歐元"
                      },
                      "exRate": "1",
                      "seq": "5"
                    },
                    {
                      "value": "GBP",
                      "title": {
                        "en": "British Pounds",
                        "zh-hant": "英鎊"
                      },
                      "exRate": "0.64",
                      "seq": "6"
                    },
                    {
                      "value": "HKD",
                      "title": {
                        "en": "Hong Kong Dollars",
                        "zh-hant": "港幣"
                      },
                      "shortTitle": "HK$",
                      "exRate": "8",
                      "seq": "7"
                    },
                    {
                      "value": "NZD",
                      "title": {
                        "en": "New Zealand Dollars",
                        "zh-hant": "紐元"
                      },
                      "exRate": "1.8",
                      "seq": "8"
                    },
                    {
                      "value": "USD",
                      "title": {
                        "en": "USD",
                        "zh-hant": "美金"
                      },
                      "exRate": "1",
                      "seq": "9"
                    },
                    {
                      "value": "SGD",
                      "title": {
                        "en": "SGD",
                        "zh-hant": "新加坡幣"
                      },
                      "exRate": "1.6",
                      "seq": "10"
                    }
                  ]
                },
								{
									"type": "HBOX",
									"items": [
										{
											"id": "paymentMode",
											"title": "Payment Mode",
											"type": "READONLY",
											"options": [
												{
													"value": "M",
													"title": "Monthly"
												},
												{
													"value": "Q",
													"title": "Quarterly"
												},
												{
													"value": "S",
													"title": "Semi-Annual"
												},
												{
													"value": "A",
													"title": "Annual"
												},
												{
													"value": "L",
													"title": "Single Premium"
												}
											]
										}
									]
								}
              ]
            }
          ]
				},
        
        {
					"type": "HBOX",
					"items": [
						{
							"id": "deathBenefit",
							"title": "Death Benefit",
              "type": "READONLY",
              "options": [
                {
                  "value": "basic",
                  "title": "Basic"
                },
                {
                  "value": "enhanced",
                  "title": "Enhanced"
                }
              ]
            },
            
						{
							"id": "insuranceCharge",
							"title": "Insurance Charge",
              "type": "READONLY",
              "options": [
                {
                  "value": "yearlyRenew",
                  "title": "Yearly Renewable Term"
                }
              ],
              
              "trigger":{
                "id":"insuranceCharge",
                "type":"notEmpty"
              }
						}
					]
				},
        
        {
					"type": "HBOX",
					"items": [
						{
							"id": "topUpAmt",
							"decimal": 2,
							"title": "Top-Up Amount",
							"subType": "currency",
              "type": "READONLY",
              "trigger":{
                "id":"topUpAmt",
                "type":"notEmpty"
              }
						}
					]
        },
        
        { 
          "id": "wdOption",
					"type": "HBOX",
					"items": [
						{
							"title": "Regular Withdrawal Details: ",
							"type": "QTITLE"
						}
          ],

          "trigger":{
            "id":"wdAmount",
            "type":"notEmpty"
          }
        },
        
        {
          "id": "wdOptionDetails",
					"type": "HBOX",
					"items": [
						{
							"id": "wdAmount",
							"title": "Amount",
							"type": "READONLY",
							"subType": "currency",
							"decimal": 2
						},
						{
							"id": "wdFreq",
							"title": "Payment Frequency",
							"type": "READONLY",
							"options": [
								{
									"title": {
										"en": "Annual"
									},
									"value": "A"
								},
								{
									"title": {
										"en": "Semi-Annual"
									},
									"value": "S"
								},
								{
									"title": {
										"en": "Quarterly"
									},
									"value": "Q"
                },
                {
									"title": {
										"en": "Monthly"
									},
									"value": "M"
								}
							]
						}
          ],
          
          "trigger":{
            "id":"wdAmount",
            "type":"notEmpty"
          }
				},

        {
          "id": "wdOptionAge",
					"type": "HBOX",
					"items": [
						{
							"id": "wdFromAge",
							"title": "From Age",
							"type": "READONLY"
						},
						{
							"id": "wdToAge",
							"title": "To Age",
							"type": "READONLY"
						}
          ],
          
          "trigger":{
            "id":"wdAmount",
            "type":"notEmpty"
          }
				},

				{
          "id": "rspOption",
					"type": "HBOX",
					"items": [
						{
							"title": "Recurring Single Premium (RSP) Details: ",
							"type": "QTITLE"
						}
          ],

          "trigger":{
            "id":"rspAmount",
            "type":"notEmpty"
          }
				},
        
        {
          "id": "rspOptionDetails",
					"type": "HBOX",
					"items": [
						{
							"id": "rspAmount",
							"title": "RSP Amount",
							"type": "READONLY",
							"subType": "currency",
							"decimal": 2
            },
            
						{
							"id": "rspPayFreq",
							"title": "RSP Payment Frequency",
							"type": "READONLY",
							"options": [
								{
									"title": {
										"en": "Annual"
									},
									"value": "A"
								},
								{
									"title": {
										"en": "Semi-Annual"
									},
									"value": "S"
								},
								{
									"title": {
										"en": "Quarterly"
									},
									"value": "Q"
                },
                {
									"title": {
										"en": "Monthly"
									},
									"value": "M"
								}
							]
						}
          ],
          
          "trigger":{
            "id":"rspAmount",
            "type":"notEmpty"
          }
        },
        
				{
          "type": "block",
					"title": "Fund Details",
					"items": [
            {
              "type": "table",
              "fullWidth": true,
              "no1stItemLeftPadding": true,
              "id": "fundList",
              "allowEdit": false,
              "trigger": {
                "type": "notEmpty",
                "id": "topUpAmt"
              },
              "items": [
								{
									"id": "fundName",
									"type": "TEXT",
                  "title": "Fund Name",
                  "width": "50%"
								},
								{
									"id": "alloc",
									"type": "TEXT",
									"title": "Allocation (Regular Premium or RSP, as applicable)",
                  "subType": "percent",
                  "width": "25%"
								},
								{
									"id": "topUpAlloc",
									"type": "TEXT",
									"title": "Allocation (Top-Up Amount)",
                  "subType": "percent",
                  "width": "25%"
								}
              ]
            },

						{
              "type": "table",
              "fullWidth": true,
              "no1stItemLeftPadding": true,
              "id": "fundList",
              "allowEdit": false,
              
              "trigger": {
                "type": "empty",
                "id": "topUpAmt"
              },

              "items": [
								{
									"id": "fundName",
									"type": "TEXT",
                  "title": "Fund Name",
                  "width": "50%"
								},
								{
									"id": "alloc",
									"type": "TEXT",
									"title": "Allocation (Regular Premium or RSP, as applicable)",
									"subType": "percent",
									"width": "25%"
                },
                {
									"id": "",
									"type": "TEXT",
									"title": "",
									"width": "25%"
								}
              ]
						}
					]
        },
        
        {
          "type": "emptyDiv",
          "minHeight": "100px"
        }
      ]
    }
  ]
}