{
	"type": "layout",
	"formId":"menu_residency",
	"items": [
		{
			"title": "Proposer",
			"subType": "proposer",
			"type":"tab",
			"items": [
				{
					"title": "Residency Questions",
					"id":"residency",
					"type": "BLOCK",
					"detailSeq": 1,
					"trigger":
					[
						{
							"id":"personalInfo/nationality",
							"type":"showIfEqual",
							"value":"N1"
            },
            {
              "id":"personalInfo/prStatus",
              "type":"showIfEqual",
              "value":"Y"
            },
						{
							"id":"personalInfo/pass",
							"type":"showIfExist",
							"value":"ep,sp,wp,s,dp,svp,o,lp"
						}
					],
					"items": [
						{
							"type": "BLOCK",
							"trigger":{
								"id":"personalInfo/nationality",
								"type":"showIfEqual",
								"value":"N1"
							},
							"items":[
								{
								"type": "QTITLE",
								"title": "Singapore Citizen",
								"id": "tSingaporeC"
								},
								{
									"type": "QRADIOGROUP",
									"id": "EAPP-P6-F1",
									"mandatory":true,
									"align": "left",
									"title": "I am currently:",
									"options": [
										{
											"value": "resided",
											"title": "i)  residing in Singapore"
										},
										{
											"value": "outside",
											"needToHighlight": true,
											"title": "ii) residing outside Singapore: I have resided outside Singapore continuously for {{less than 5 years}} preceding the date of proposal."
										},
										{
											"value": "outside5",
											"needToHighlight": true,
											"title": "iii) residing outside Singapore: I have resided outside Singapore continuously for {{5 years or more}} preceding the date of proposal. "
										}
									]

								}
							]
						},
						{
							"type": "BLOCK",
              "trigger": {
                "id": "@personalInfo.nationality,@personalInfo.prStatus,@personalInfo.pass",
                "type": "dynamicCondition",
                "value": "#1!='N1' && (#2=='Y' || #3 == 'ep' || #3=='wp' || #3=='sp')"
              },
							"items":[
								{
									"type": "QTITLE",
									"trigger":{
										"id":"personalInfo/prStatus",
										"type":"showIfEqual",
										"value":"Y"
									},
									"title": "Singapore PR",
									"id": "tSiPrA"
								},
								{
									"type": "QTITLE",
									"trigger":{
										"id":"personalInfo/pass",
										"type":"showIfEqual",
										"value":"ep"
									},
									"title": "Employment Pass",
									"id": "tSiPrB"
								},
								{
									"type": "QTITLE",
									"trigger":{
										"id":"personalInfo/pass",
										"type":"showIfEqual",
										"value":"wp"
									},
									"title": "Work Permit",
									"id": "tSiPrC_"
                },
                {
									"type": "QTITLE",
									"trigger":{
										"id":"personalInfo/pass",
										"type":"showIfEqual",
										"value":"sp"
									},
									"title": "S Pass",
									"id": "tSiPrD"
								},
								{
									"type": "QRADIOGROUP",
									"id": "EAPP-P6-F2",
									"mandatory":true,
									"title": "1. Have you resided in Singapore for at least 183 days in the last 12 months preceding the date of proposal?",
									"value": "",
									"horizontal": true,
									"align": "left",
									"options": [
										{
											"value": "Y",
											"title": "Yes"
										},
										{
											"value": "N",
											"title": "No"
										}
									]
								},
								{
									"type": "QRADIOGROUP",
									"id": "EAPP-P6-F3",
									"mandatory":true,
									"title": "2. Do you intend to stay in Singapore on a permanent basis?",
									"value": "",
									"horizontal": true,
									"align": "left",
									"options": [
										{
											"value": "Y",
											"title": "Yes"
										},
										{
											"value": "N",
											"title": "No"
										}
									]
								}
							]
						},
						{
							"type":"block",
							"trigger":{
									"id":"personalInfo/pass",
									"type":"showIfExist",
									"value":"dp,s,lp"
								},
							"items":[
								{
									"type": "QTITLE",
									"title": "Dependent Pass",
									"id": "tSiPrCde",
									"trigger":{
										"id":"personalInfo/pass",
										"type":"showIfEqual",
										"value":"dp"
									}
								},
								{
									"type": "QTITLE",
									"title": "Student Pass",
									"id": "tSiPrCStS",
									"trigger":{
										"id":"personalInfo/pass",
										"type":"showIfEqual",
										"value":"s"
									}
								},
								{
									"type": "QTITLE",
									"title": "Long Term Visit Pass",
									"id": "tSiPrCStL",
									"trigger":{
										"id":"personalInfo/pass",
										"type":"showIfEqual",
										"value":"lp"
									}
								},
								{
									"type": "QRADIOGROUP",
									"id": "EAPP-P6-F4",
                  "title": "1.  Have you resided in Singapore for at least 90 days in the last 12 months preceding the date of proposal?",
                  "mandatory":true,
									"horizontal": true,
									"align": "left",
									"options": [
										{
											"value": "Y",
											"title": "Yes"
										},
										{
											"value": "N",
											"title": "No"
										}
									]
								}
							]
						},
						{
							"type":"block",
							"trigger":[
								{
									"id":"personalInfo/pass",
									"type":"showIfExist",
									"value":"svp,o"
								}

							],
							"items":[
								{

									"type": "QTITLE",
									"title": "Others",
									"id": "tSiPrD",
									"trigger":{
										"id":"personalInfo/pass",
										"type":"showIfEqual",
										"value":"o"
									},
									"replaceTitle":{
										"id":"personalInfo/passOther"
									}
								},
								{

									"type": "QTITLE",
									"title": "Social Visit Pass",
									"id": "tSiPrDD",
									"trigger":{
										"id":"personalInfo/pass",
										"type":"showIfEqual",
										"value":"svp"
									}
								},
								{
									"type": "CheckBox",
									"id": "EAPP-P6-F5",
									"disabled":true,
									"value":"Y",
									"title": "I hold Type of Pass above."
								}
							]
						}
					]
				},
				{
					"title": "Foreigner Questions",
					"id":"foreigner",
					"type": "BLOCK",
					"detailSeq": 2,
					"trigger":[
						{
							"id":"residency/EAPP-P6-F2",
							"type":"showIfEqual",
							"value":"N"
						},
						{

							"id":"residency/EAPP-P6-F3",
							"type":"showIfEqual",
							"value":"N"
						},
						{

							"id":"residency/EAPP-P6-F4",
							"type":"showIfEqual",
							"value":"N"

						},
						{
							"id":"personalInfo/pass",
							"type":"showIfExist",
							"value":"dp,s,lp,svp,o"
						}

					],
					"items": [
						{
							"type": "QTITLE",
							"style": {"marginBottom":"-20px"},
							"title": "When did you first arrive in Singapore (excluding holidays of less than 3 months)?"
						},
            {
              "type": "DATEPICKER",
              "subType": "date",
              "max": 0,
              "min": 100,
              "id": "faDate",
              "mandatory": true,
              "dateFormat": "mm/yyyy",
              "style": {
                "width": "50%",
                "margin": 0
              }
            },
						{
							"type": "QTITLE",
							"id": "familyResD",
							"style": {"marginTop":"25px"},
							"title": "Where do your immediate family members currently reside?"
						},
						{
							"type": "HBOX",
							"items": [
								{
									"title": "Country",
									"type": "PICKER",
									"subType": "limit",
									"id": "familyResCountry",
									"mandatory":true,
									"options": "residency"
								},
								{
									"title": "City",
									"type": "TEXT",
									"id": "familyResCity",
									"mandatory":true,
									"max":50
								}
							]
						},
						{
							"type": "QTITLE",
							"id": "5yearDesc",
							"style":{"paddingTop":"20px", "marginBottom":"5px"},
							"title": "Please provide details of your residence over the last five years:"
						},
						{
							"type": "table",
							"id": "reside5yrs",
							"mandatory":true,
							"allowEdit": true,
							"hasBorder":true,
							"max": 5,
							"items": [
								{
			                      "type": "DATEPICKER",
			                      "mandatory":true,
			                      "width":"10%",
			                      "title": "From (mm/yyyy)",
			                      "id":"res5Frm",
			                      "max":0,
			                      "min":5,
			                      "dateFormat":"mm/yyyy"
			                    },
			                    {
			                      "type": "DATEPICKER",
			                      "mandatory":true,
			                      "width":"10%",
			                      "title": "To (mm/yyyy)",
			                      "id":"res5To",
			                      "max":0,
			                      "min":5,
			                      "dateFormat":"mm/yyyy",
			                      "validation":{
			                      	"id":"res5Frm",
			                      	"type":"month_greater"
			                      }
			                    },
								{
									"id": "res5Country",
									"type": "PICKER",
									"subType": "limit",
									"title": "Country of Residence",
									"detailSeq": 2,
									"width":"20%",
									"mandatory":true,
									"options": "residency"
								},
								{
									"id": "res5City",
									"type": "TEXT",
									"title": "City of Residence",
									"detailSeq": 3,
									"width":"20%",
									"mandatory":true,
									"max": 50
								},
								{
									"type": "table-block-t",
									"title": "Reason",
									"presentation": "permanent$work$study$cob$family$immigrate$visit$other",
									"width":"30%",
									"mandatory":true,
									"key":"res_reason_t",
									"items": [
										{
				                          "id":"permanent",
				                          "type":"checkbox",
				                          "title":"Permanent Residence"
				                        },
				                        {
				                          "id":"work",
				                          "type":"checkbox",
				                          "title":"Business / Work"
				                        },
				                        {
				                          "id":"study",
				                          "type":"checkbox",
				                          "title":"Study"
				                        },
				                        {
				                          "id":"cob",
				                          "type":"checkbox",
				                          "title":"Country of birth"
				                        },

				                        {
				                          "id":"family",
				                          "type":"checkbox",
				                          "title":"Place where family members or relatives residing"
				                        },
				                        {
				                          "id":"immigrate",
				                          "type":"checkbox",
				                          "title":"Immigration"
				                        },

				                         {
				                          "id":"visit",
				                          "type":"checkbox",
				                          "title":"Visit family/relatives/friends"
				                        },
				                        {
				                          "id":"other",
				                          "type":"checkbox",
				                          "title":"Others"
				                        },
										{
											"type": "TEXT",
											"title": "Please Specify",
											"id": "resultOther",
											"mandatory":true,
											"max": 50,
											"detailSeq": 4,
											"trigger": {
												"id": "other",
												"type": "showIfEqual",
												"value": "Y"
											}
										}
									]
								}
							]
						},
						{
							"type": "QRADIOGROUP",
							"id": "hasTravelPlans",
							"mandatory":true,
							"title": "In the next 2 years, do you expect to go abroad (outside the current country of residence) for any future residency or travel plans? ",
							"horizontal": true,
							"align": "left",
							"options": [
								{
									"value": "Y",
									"title": "Yes"
								},
								{
									"value": "N",
									"title": "No"
								}
							]
						},
						{
							"type": "table",
							"max":5,
							"id": "travelPlans",
							"allowEdit": true,
							"hasBorder": true,
							"mandatory":true,
							"trigger": {
								"id": "hasTravelPlans",
								"type": "showIfEqual",
								"value": "Y"
							},
							"items": [
								{
                  "id": "travlCountry",
                  "title": "Country",
                  "type": "PICKER",
                  "subType": "limit",
                  "detailSeq": 1,
                  "mandatory": true,
                  "options": "residency"
								},
								{
									"id": "travlCity",
									"type": "TEXT",
									"title": "City",
									"detailSeq": 2,
									"mandatory":true,
									"max": 50
								},
								{
									"id": "travlCityDrn",
									"type": "TEXT",
									"subType": "number",
									"title": "Duration of each Stay (Days)",
									"detailSeq": 3,
									"mandatory":true,
									"max": 99999
								},
								{
									"id": "travlCityFrq",
									"type": "TEXT",
									"subType": "number",
									"title": "Frequency (per year)",
									"detailSeq": 4,
									"mandatory":true,
									"max": 99999
								},
								{
									"type": "table-block-t",
									"key":"res_reason_t",
									"title": "Reason",
									"presentation": "permanent$work$study$cob$family$immigrate$visit$other",
									"width":"30%",
									"mandatory":true,
									"items": [
										{
				                          "id":"permanent",
				                          "type":"checkbox",
				                          "title":"Permanent Residence"
				                        },
				                        {
				                          "id":"work",
				                          "type":"checkbox",
				                          "title":"Business / Work"
				                        },
				                        {
				                          "id":"study",
				                          "type":"checkbox",
				                          "title":"Study"
				                        },
				                        {
				                          "id":"cob",
				                          "type":"checkbox",
				                          "title":"Country of birth"
				                        },

				                        {
				                          "id":"family",
				                          "type":"checkbox",
				                          "title":"Place where family members or relatives residing"
				                        },
				                        {
				                          "id":"immigrate",
				                          "type":"checkbox",
				                          "title":"Immigration"
				                        },

				                         {
				                          "id":"visit",
				                          "type":"checkbox",
				                          "title":"Visit family/relatives/friends"
				                        },
				                        {
				                          "id":"other",
				                          "type":"checkbox",
				                          "title":"Others"
				                        },
										{
											"type": "TEXT",
											"title": "Please Specify",
											"id": "resultOther",
											"mandatory":true,
											"max": 50,
											"detailSeq": 4,
											"trigger": {
												"id": "other",
												"type": "showIfEqual",
												"value": "Y"
											}
										}
									]
								}
							]
						}
					]
				},
				{
					"type": "BLOCK",
					"title": "Details of Previous and Concurrent Policies",
					"id":"policies",
					"items": [
						{
							"id": "havAccPlans",
							"mandatory":true,
							"title": "1. Do you have any existing personal accident insurance policies?",
							"type": "QRADIOGROUP",
							"horizontal": true,
							"detailSeq": 1,
							"align": "left",
							"disableTrigger":{
								"id":"@extra/channel",
								"value":"AGENCY",
								"type":"trueIfEqual"
							},
							"options": [
								{
									"value": "Y",
									"title": "Yes"
								},
								{
									"value": "N",
									"title": "No"
								}
							]
						},
						{
							"id": "havPndinApp",
							"mandatory":true,
							"title": "2. Other than this current application, do you have any other pending or concurrent insurance applications with AXA and/or other companies?",
							"type": "QRADIOGROUP",
							"horizontal": true,
							"align": "left",
							"detailSeq": 2,
							"options": [
								{
									"value": "Y",
									"title": "Yes"
								},
								{
									"value": "N",
									"title": "No"
								}
							]
						},
						{
							"id": "isProslReplace",
							"mandatory":true,
							"title": "3. Is this proposal to replace or intended to replace (in part or full) any existing or recently terminated insurance policy, or other investment product from AXA Insurance Pte Ltd or other Financial Institution?",
							"type": "QRADIOGROUP",
							"horizontal": true,
							"align": "left",
							"detailSeq": 3,
							"disableTrigger":{
								"id":"@extra/channel",
								"value":"AGENCY",
								"type":"trueIfEqual"
							},
							"trigger":{
								"id":"extra/isPhSameAsLa",
								"value":"Y",
								"type":"showIfEqual"
							},
							"options": [
								{
									"value": "Y",
									"title": "Yes"
								},
								{
									"value": "N",
									"title": "No"
								}
							]
						},
						{
							"type": "PARAGRAPH",
							"id": "pWarning",
							"title": "WARNING NOTE:",
							"paragraphType": "warningWithNote",
							"align": "left",
							"content": "<p>It is usually disadvantageous to replace an existing life insurance policy or other investment product with a new one. Some of the factors to consider:</p><p>1. You may suffer a penalty for terminating the original policy or other investment product.</p><p>2. You may incur transaction costs without gaining any real benefit from replacing the policy or other investment product.</p><p>3. You may not be insurable on standard terms or may have to pay a higher premium in view of higher age or the financial benefits accumulated over the years may be lost.</p><p>In your own interest, we would advise that you consult your own financial consultant before making a final decision. Hear from both sides and make a careful comparison to ensure that you are making a decision that is in your best interest.</p>",
              "detailSeq": 4,
              "trigger":{
								"id":"isProslReplace",
								"value":"Y",
								"type":"showIfEqual"
							}
						},
						{
              "id": "saTable",
              "type": "saTable",
              "presentation": "havAccPlans$havPndinApp$isProslReplace"
						},
						{
							"trigger":{
								"id":"@extra/channel",
								"value":"FA",
								"type":"showIfNotEqual"
							},
							"type":"goFNA"
						}
					]
				}
			]
		},
		{
			"title": "LA",
			"subType": "insured",
			"type":"tab",
			"items": [
				{
					"title": "Residency Questions",
					"id":"residency",
					"type": "BLOCK",
					"detailSeq": 1,
					"trigger":
					[
						{
							"id":"personalInfo/nationality",
							"type":"showIfEqual",
							"value":"N1"
            },
            {
              "id":"personalInfo/prStatus",
              "type":"showIfEqual",
              "value":"Y"
            },
						{
							"id":"personalInfo/pass",
							"type":"showIfExist",
							"value":"ep,sp,wp,s,dp,svp,o,lp"
						}
					],
					"items": [
						{
							"type": "BLOCK",
							"trigger":{
								"id":"personalInfo/nationality",
								"type":"showIfEqual",
								"value":"N1"
							},
							"items":[
								{
								"type": "QTITLE",
								"title": "Singapore Citizen",
								"id": "tSingaporeC"
								},
								{
									"type": "QRADIOGROUP",
									"id": "EAPP-P6-F1",
									"mandatory":true,
									"align": "left",
									"title": "I am currently:",
									"options": [
										{
											"value": "resided",
											"title": "i)  residing in Singapore"
										},
										{
											"value": "outside",
											"needToHighlight": true,
											"title": "ii) residing outside Singapore: I have resided outside Singapore continuously for {{less than 5 years}} preceding the date of proposal."
										},
										{
											"value": "outside5",
											"needToHighlight": true,
											"title": "iii) residing outside Singapore: I have resided outside Singapore continuously for {{5 years or more}} preceding the date of proposal. "
										}
									]

								}
							]
						},
						{
							"type": "BLOCK",
							"trigger":{
                "id":"@personalInfo.nationality,@personalInfo.prStatus,@personalInfo.pass",
                "type": "dynamicCondition",
                "value":"#1!='N1' && (#2=='Y' || #3 == 'ep' || #3=='wp' || #3=='sp')"
              },
							"items":[
								{
									"type": "QTITLE",
									"trigger":{
										"id":"personalInfo/prStatus",
										"type":"showIfEqual",
										"value":"Y"
									},
									"title": "Singapore PR",
									"id": "tSiPrA"
								},
								{
									"type": "QTITLE",
									"trigger":{
										"id":"personalInfo/pass",
										"type":"showIfEqual",
										"value":"ep"
									},
									"title": "Employment Pass",
									"id": "tSiPrB"
								},
								{
									"type": "QTITLE",
									"trigger":{
										"id":"personalInfo/pass",
										"type":"showIfEqual",
										"value":"wp"
									},
									"title": "Work Permit",
									"id": "tSiPrC_"
                },
                {
									"type": "QTITLE",
									"trigger":{
										"id":"personalInfo/pass",
										"type":"showIfEqual",
										"value":"sp"
									},
									"title": "S Pass",
									"id": "tSiPrD"
								},
								{
									"type": "QRADIOGROUP",
									"id": "EAPP-P6-F2",
									"mandatory":true,
									"title": "1. Have you resided in Singapore for at least 183 days in the last 12 months preceding the date of proposal?",
									"value": "",
									"horizontal": true,
									"align": "left",
									"options": [
										{
											"value": "Y",
											"title": "Yes"
										},
										{
											"value": "N",
											"title": "No"
										}
									]
								},
								{
									"type": "QRADIOGROUP",
									"id": "EAPP-P6-F3",
									"mandatory":true,
									"title": "2. Do you intend to stay in Singapore on a permanent basis?",
									"value": "",
									"horizontal": true,
									"align": "left",
									"options": [
										{
											"value": "Y",
											"title": "Yes"
										},
										{
											"value": "N",
											"title": "No"
										}
									]
								}
							]
						},
						{
							"type":"block",
							"trigger":{
									"id":"personalInfo/pass",
									"type":"showIfExist",
									"value":"dp,s,lp"
								},
							"items":[
								{
									"type": "QTITLE",
									"title": "Dependent Pass",
									"id": "tSiPrCde",
									"trigger":{
										"id":"personalInfo/pass",
										"type":"showIfEqual",
										"value":"dp"
									}
								},
								{
									"type": "QTITLE",
									"title": "Student Pass",
									"id": "tSiPrCSt___",
									"trigger":{
										"id":"personalInfo/pass",
										"type":"showIfEqual",
										"value":"s"
									}
								},
								{
									"type": "QTITLE",
									"title": "Long Term Visit Pass",
									"id": "tSiPrCStL",
									"trigger":{
										"id":"personalInfo/pass",
										"type":"showIfEqual",
										"value":"lp"
									}
								},
								{
									"type": "QRADIOGROUP",
									"id": "EAPP-P6-F4",
									"title": "1.  Have you resided in Singapore for at least 90 days in the last 12 months preceding the date of proposal?",
									"mandatory":true,
									"horizontal": true,
									"align": "left",
									"options": [
										{
											"value": "Y",
											"title": "Yes"
										},
										{
											"value": "N",
											"title": "No"
										}
									]
								}
							]
						},
						{
							"type":"block",
							"trigger":[
								{
									"id":"personalInfo/pass",
									"type":"showIfExist",
									"value":"svp,o"
								}

							],
							"items":[
								{

									"type": "QTITLE",
									"title": "Others",
									"id": "tSiPrD",
									"trigger":{
										"id":"personalInfo/pass",
										"type":"showIfEqual",
										"value":"o"
									},
									"replaceTitle":{
										"id":"personalInfo/passOther"
									}
								},
								{

									"type": "QTITLE",
									"title": "Social Visit Pass",
									"id": "tSiPrDD",
									"trigger":{
										"id":"personalInfo/pass",
										"type":"showIfEqual",
										"value":"svp"
									}
								},
								{
									"type": "CheckBox",
									"disabled":true,
									"id": "EAPP-P6-F5",
									"value":"Y",
									"title": "I hold Type of Pass above."
								}
							]
						}
					]
				},
				{
					"title": "Foreigner Questions",
					"id":"foreigner",
					"type": "BLOCK",
					"detailSeq": 2,
					"trigger":[
						{
							"id":"residency/EAPP-P6-F2",
							"type":"showIfEqual",
							"value":"N"
						},
						{

							"id":"residency/EAPP-P6-F3",
							"type":"showIfEqual",
							"value":"N"
						},
						{

							"id":"residency/EAPP-P6-F4",
							"type":"showIfEqual",
							"value":"N"

						},
						{
							"id":"personalInfo/pass",
							"type":"showIfExist",
							"value":"dp,s,lp,svp,o"
						}

					],
					"items": [
						{
							"type": "QTITLE",
							"style": {"marginBottom":"-20px"},
							"title": "When did you first arrive in Singapore (excluding holidays of less than 3 months)?"
						},
            {
              "type": "DATEPICKER",
              "subType": "date",
              "id": "faDate",
              "max": 0,
              "min": 100,
              "dateFormat": "mm/yyyy",
              "mandatory": true,
              "style": {
                "width": "50%",
                "margin": 0
              }
            },
						{
							"type": "QTITLE",
							"id": "familyResD",
							"style": {"marginTop":"25px"},
							"title": "Where do your immediate family members currently reside?"
						},
						{
							"type": "HBOX",
							"items": [
								{
									"title": "Country",
									"type": "PICKER",
									"subType": "limit",
									"id": "familyResCountry",
									"mandatory":true,
									"options": "residency"
								},
								{
									"title": "City",
									"type": "TEXT",
									"id": "familyResCity",
									"mandatory":true,
									"max":50
								}
							]
						},
						{
							"type": "QTITLE",
							"id": "5yearDesc",
							"style":{"paddingTop":"20px", "marginBottom":"5px"},
							"title": "Please provide details of your residence over the last five years:"
						},
						{
							"type": "table",
							"id": "reside5yrs",
							"mandatory":true,
							"allowEdit": true,
							"hasBorder":true,
							"max": 5,
							"items": [
								{
                  "type": "DATEPICKER",
                  "mandatory":true,
                  "width":"10%",
                  "title": "From (mm/yyyy)",
                  "id":"res5Frm",
                  "max":0,
                  "min":5,
                  "dateFormat":"mm/yyyy"
                },
                {
                  "type": "DATEPICKER",
                  "mandatory":true,
                  "width":"10%",
                  "title": "To (mm/yyyy)",
                  "id":"res5To",
                  "max":0,
                  "min":5,
                  "dateFormat":"mm/yyyy",
                  "validation":{
                    "id":"res5Frm",
                    "type":"month_greater"
                  }
                },
								{
									"id": "res5Country",
									"type": "PICKER",
									"subType": "limit",
									"title": "Country of Residence",
									"detailSeq": 2,
									"width":"20%",
									"mandatory":true,
									"options": "residency"
								},
								{
									"id": "res5City",
									"type": "TEXT",
									"title": "City of Residence",
									"detailSeq": 3,
									"width":"20%",
									"mandatory":true,
									"max": 50
								},
								{
									"type": "table-block-t",
									"key":"res_reasons_1",
									"title": "Reason",
									"presentation": "permanent$work$study$cob$family$immigrate$visit$other",
									"width":"30%",
									"mandatory":true,
									"items": [
										{
				                          "id":"permanent",
				                          "type":"checkbox",
				                          "title":"Permanent Residence"
				                        },
				                        {
				                          "id":"work",
				                          "type":"checkbox",
				                          "title":"Business / Work"
				                        },
				                        {
				                          "id":"study",
				                          "type":"checkbox",
				                          "title":"Study"
				                        },
				                        {
				                          "id":"cob",
				                          "type":"checkbox",
				                          "title":"Country of birth"
				                        },

				                        {
				                          "id":"family",
				                          "type":"checkbox",
				                          "title":"Place where family members or relatives residing"
				                        },
				                        {
				                          "id":"immigrate",
				                          "type":"checkbox",
				                          "title":"Immigration"
				                        },

				                         {
				                          "id":"visit",
				                          "type":"checkbox",
				                          "title":"Visit family/relatives/friends"
				                        },
				                        {
				                          "id":"other",
				                          "type":"checkbox",
				                          "title":"Others"
				                        },
										{
											"type": "TEXT",
											"title": "Please Specify",
											"id": "resultOther",
											"mandatory":true,
											"max": 50,
											"detailSeq": 4,
											"trigger": {
												"id": "other",
												"type": "showIfEqual",
												"value": "Y"
											}
										}
									]
								}
							]
						},
						{
							"type": "QRADIOGROUP",
							"id": "hasTravelPlans",
							"mandatory":true,
							"title": "In the next 2 years, do you expect to go abroad (outside the current country of residence) for any future residency or travel plans? ",
							"horizontal": true,
							"align": "left",
							"options": [
								{
									"value": "Y",
									"title": "Yes"
								},
								{
									"value": "N",
									"title": "No"
								}
							]
						},
						{
							"type": "table",
							"max":5,
							"mandatory":true,
							"id": "travelPlans",
							"allowEdit": true,
							"hasBorder": true,
							"trigger": {
								"id": "hasTravelPlans",
								"type": "showIfEqual",
								"value": "Y"
							},
							"items": [
								{
                  "id": "travlCountry",
                  "title": "Country",
                  "type": "PICKER",
                  "subType": "limit",
                  "detailSeq": 1,
                  "mandatory": true,
                  "options": "residency"
								},
								{
									"id": "travlCity",
									"type": "TEXT",
									"title": "City",
									"detailSeq": 2,
									"mandatory":true,
									"max": 50
								},
								{
									"id": "travlCityDrn",
									"type": "TEXT",
									"subType": "number",
									"title": "Duration of each Stay (Days)",
									"detailSeq": 3,
									"mandatory":true,
									"max": 99999
								},
								{
									"id": "travlCityFrq",
									"type": "TEXT",
									"subType": "number",
									"title": "Frequency (per year)",
									"detailSeq": 4,
									"mandatory":true,
									"max": 99999
								},
								{
									"type": "table-block-t",
									"key":"res_reason_2",
									"title": "Reason",
									"presentation": "permanent$work$study$cob$family$immigrate$visit$other",
									"width":"30%",
									"mandatory":true,
									"items": [
										{
				                          "id":"permanent",
				                          "type":"checkbox",
				                          "title":"Permanent Residence"
				                        },
				                        {
				                          "id":"work",
				                          "type":"checkbox",
				                          "title":"Business / Work"
				                        },
				                        {
				                          "id":"study",
				                          "type":"checkbox",
				                          "title":"Study"
				                        },
				                        {
				                          "id":"cob",
				                          "type":"checkbox",
				                          "title":"Country of birth"
				                        },

				                        {
				                          "id":"family",
				                          "type":"checkbox",
				                          "title":"Place where family members or relatives residing"
				                        },
				                        {
				                          "id":"immigrate",
				                          "type":"checkbox",
				                          "title":"Immigration"
				                        },

				                         {
				                          "id":"visit",
				                          "type":"checkbox",
				                          "title":"Visit family/relatives/friends"
				                        },
				                        {
				                          "id":"other",
				                          "type":"checkbox",
				                          "title":"Others"
				                        },
										{
											"type": "TEXT",
											"title": "Please Specify",
											"id": "resultOther",
											"mandatory":true,
											"max": 50,
											"detailSeq": 4,
											"trigger": {
												"id": "other",
												"type": "showIfEqual",
												"value": "Y"
											}
										}
									]
								}
							]
						}
					]
				},
				{
					"type": "BLOCK",
					"title": "Details of Previous and Concurrent Policies",
					"id":"policies",
					"items": [
						{
							"id": "havAccPlans",
							"mandatory":true,
							"title": "1. Do you have any existing personal accident insurance policies?",
							"type": "QRADIOGROUP",
							"horizontal": true,
							"detailSeq": 1,
							"align": "left",
							"disableTrigger":{
								"id":"@extra/channel",
								"value":"AGENCY",
								"type":"trueIfEqual"
							},
							"options": [
								{
									"value": "Y",
									"title": "Yes"
								},
								{
									"value": "N",
									"title": "No"
								}
							]
						},
						{
							"id": "havPndinApp",
							"mandatory":true,
							"title": "2. Other than this current application, do you have any other pending or concurrent insurance applications with AXA and/or other companies?",
							"type": "QRADIOGROUP",
							"horizontal": true,
							"align": "left",
							"detailSeq": 2,
							"options": [
								{
									"value": "Y",
									"title": "Yes"
								},
								{
									"value": "N",
									"title": "No"
								}
							]
						},
						{
							"id": "isProslReplace",
							"mandatory":true,
							"title": "3. Is this proposal to replace or intended to replace (in part or full) any existing or recently terminated insurance policy, or other investment product from AXA Insurance Pte Ltd or other Financial Institution?",
							"type": "QRADIOGROUP",
							"horizontal": true,
							"align": "left",
							"detailSeq": 3,
							"disableTrigger":{
								"id":"@extra/channel",
								"value":"AGENCY",
								"type":"trueIfEqual"
							},
							"options": [
								{
									"value": "Y",
									"title": "Yes"
								},
								{
									"value": "N",
									"title": "No"
								}
							]
						},
						{
							"type": "PARAGRAPH",
							"id": "pWarning",
							"title": "WARNING NOTE:",
							"paragraphType": "warningWithNote",
							"align": "left",
							"content": "<p>It is usually disadvantageous to replace an existing life insurance policy or other investment product with a new one. Some of the factors to consider:</p><p>1. You may suffer a penalty for terminating the original policy or other investment product.</p><p>2. You may incur transaction costs without gaining any real benefit from replacing the policy or other investment product.</p><p>3. You may not be insurable on standard terms or may have to pay a higher premium in view of higher age or the financial benefits accumulated over the years may be lost.</p><p>In your own interest, we would advise that you consult your own financial consultant before making a final decision. Hear from both sides and make a careful comparison to ensure that you are making a decision that is in your best interest.</p>",
							"detailSeq": 4,
              "trigger":{
								"id":"isProslReplace",
								"value":"Y",
								"type":"showIfEqual"
							}
						},
						{
              "id": "saTable",
              "type": "saTable",
              "presentation": "havAccPlans$havPndinApp$isProslReplace"
						},
						{
							"trigger":{
								"id":"@extra/channel",
								"value":"FA",
								"type":"showIfNotEqual"
							},
							"type":"goFNA"
						}
					]
				}
			]
		}
	]
}
