{
	"type": "layout",
	"options":[
		{"value":"Alexandra","title":{"en" : "Alexandra"},"rlscode":"10"},
		{"value":"Ang Mo Kio Central","title":{"en" : "Ang Mo Kio Central"},"rlscode":"11"},
		{"value":"Bedok Central","title":{"en" : "Bedok Central"},"rlscode":"12"},
		{"value":"Bishan","title":{"en" : "Bishan"},"rlscode":"13"},
		{"value":"Bras Basah","title":{"en" : "Bras Basah"},"rlscode":"14"},
		{"value":"Bukit Batok Central","title":{"en" : "Bukit Batok Central"},"rlscode":"15"},
		{"value":"Bukit Merah Central","title":{"en" : "Bukit Merah Central"},"rlscode":"16"},
		{"value":"Bukit Panjang","title":{"en" : "Bukit Panjang"},"rlscode":"17"},
		{"value":"Bukit Timah","title":{"en" : "Bukit Timah"},"rlscode":"18"},
		{"value":"Changi Airport Terminal 2","title":{"en" : "Changi Airport Terminal 2"},"rlscode":"19"},
		{"value":"Chinatown","title":{"en" : "Chinatown"},"rlscode":"20"},
		{"value":"Choa Chua Kang Central","title":{"en" : "Choa Chua Kang Central"},"rlscode":"21"},
		{"value":"Clementi Central","title":{"en" : "Clementi Central"},"rlscode":"22"},
		{"value":"Clementi West","title":{"en" : "Clementi West"},"rlscode":"23"},
		{"value":"Crawford","title":{"en" : "Crawford"},"rlscode":"24"},
		{"value":"Geylang","title":{"en" : "Geylang"},"rlscode":"25"},
		{"value":"Geylang East","title":{"en" : "Geylang East"},"rlscode":"26"},
		{"value":"Ghim Moh Estate","title":{"en" : "Ghim Moh Estate"},"rlscode":"27"},
		{"value":"HarbourFront Centre","title":{"en" : "HarbourFront Centre"},"rlscode":"28"},
		{"value":"Hougang Central","title":{"en" : "Hougang Central"},"rlscode":"29"},
		{"value":"Jurong East","title":{"en" : "Jurong East"},"rlscode":"30"},
		{"value":"Jurong Point","title":{"en" : "Jurong Point"},"rlscode":"31"},
		{"value":"Jurong West","title":{"en" : "Jurong West"},"rlscode":"32"},
		{"value":"Katong","title":{"en" : "Katong"},"rlscode":"33"},
		{"value":"Killiney Road","title":{"en" : "Killiney Road"},"rlscode":"34"},
		{"value":"Kitchener Road","title":{"en" : "Kitchener Road"},"rlscode":"35"},
		{"value":"Lim Ah Pin Road","title":{"en" : "Lim Ah Pin Road"},"rlscode":"36"},
		{"value":"Marine Parade","title":{"en" : "Marine Parade"},"rlscode":"37"},
		{"value":"Newton","title":{"en" : "Newton"},"rlscode":"38"},
		{"value":"Novena","title":{"en" : "Novena"},"rlscode":"39"},
		{"value":"Orchard","title":{"en" : "Orchard"},"rlscode":"40"},
		{"value":"Pasir Panjang","title":{"en" : "Pasir Panjang"},"rlscode":"41"},
		{"value":"Pasir Ris Central","title":{"en" : "Pasir Ris Central"},"rlscode":"42"},
		{"value":"Pioneer Road","title":{"en" : "Pioneer Road"},"rlscode":"43"},
		{"value":"Potong Pasir","title":{"en" : "Potong Pasir"},"rlscode":"44"},
		{"value":"Punggol","title":{"en" : "Punggol"},"rlscode":"45"},
		{"value":"Raffles Place","title":{"en" : "Raffles Place"},"rlscode":"46"},
		{"value":"Robinson Road","title":{"en" : "Robinson Road"},"rlscode":"47"},
		{"value":"Rochor","title":{"en" : "Rochor"},"rlscode":"48"},
		{"value":"Sembawang","title":{"en" : "Sembawang"},"rlscode":"49"},
		{"value":"Sengkang Central","title":{"en" : "Sengkang Central"},"rlscode":"50"},
		{"value":"Serangoon Central","title":{"en" : "Serangoon Central"},"rlscode":"51"},
		{"value":"Serangoon Garden","title":{"en" : "Serangoon Garden"},"rlscode":"52"},
		{"value":"Siglap","title":{"en" : "Siglap"},"rlscode":"53"},
		{"value":"Simpang Bedok","title":{"en" : "Simpang Bedok"},"rlscode":"54"},
		{"value":"Paya Lebar","title":{"en" : "Paya Lebar"},"rlscode":"55"},
		{"value":"Suntec City","title":{"en" : "Suntec City"},"rlscode":"56"},
		{"value":"Tampines Central","title":{"en" : "Tampines Central"},"rlscode":"57"},
		{"value":"Tanglin","title":{"en" : "Tanglin"},"rlscode":"58"},
		{"value":"Tanjong Pagar","title":{"en" : "Tanjong Pagar"},"rlscode":"59"},
		{"value":"Teban Garden","title":{"en" : "Teban Garden"},"rlscode":"60"},
		{"value":"Thomson Road","title":{"en" : "Thomson Road"},"rlscode":"61"},
		{"value":"Tiong Bahru","title":{"en" : "Tiong Bahru"},"rlscode":"62"},
		{"value":"Toa Payoh Central","title":{"en" : "Toa Payoh Central"},"rlscode":"63"},
		{"value":"Toa Payoh North","title":{"en" : "Toa Payoh North"},"rlscode":"64"},
		{"value":"Towner","title":{"en" : "Towner"},"rlscode":"65"},
		{"value":"Woodlands Central","title":{"en" : "Woodlands Central"},"rlscode":"66"},
		{"value":"Yishun Central","title":{"en" : "Yishun Central"},"rlscode":"67"},
    {"value":"Mobile","title":{"en" : "Mobile"},"rlscode":"68"},
    {"value":"SingPost HQ","title":{"en" : "SingPost HQ"},"rlscode":"69"},
    {"value":"SingPost Staff Discount","title":{"en" : "SingPost Staff Discount"},"rlscode":"70"},
    {"value":"Mobile Sales Tower","title":{"en" : "Mobile Sales Tower"},"rlscode":"71"},
		{"value":"City Square","title":{"en" : "City Square"},"rlscode":"72"}

	]
}