{
    "id": "CaseTemplate",
    "items": [
        {
            "type": "CaseCard",
            "items": [
                {
                    "id": "approvalStatus",
                    "type": "caseStatus"
                },
                {
                    "id": "caseIcon",
                    "type": "icon",
                    "name": "folder"
                },
                {
                    "id": "cardBlock",
                    "type": "cardBlock",
                    "style": {"maxWidth": "calc(100% - 280px)", "width": "calc(100% - 280px)"},
                    "items": [
                        {
                            "id": "displayCaseNo",
                            "type": "CardNamedItem",
                            "name": "Case No."
                        },
                        {
                            "id": "customerICNo",
                            "type": "CardNamedItem",
                            "name": "Customer IC No."
                        },
                        {
                            "id": "customerName",
                            "type": "CardNamedItem",
                            "name": "Proposer"
                        },
                        {
                            "id": "product",
                            "type": "CardNamedItem",
                            "name": "Product"
                        },
                        {
                            "id": "agentName",
                            "type": "CardNamedItem",
                            "name": "Agent",
                            "Mapping": {
                                "method": "include",
                                "id": "agentProfileId"
                            }
                        },
                        {
                            "id": "managerName",
                            "type": "CardNamedItem",
                            "name": "Supervisor",
                            "Mapping": {
                                "method": "checkManagerisMyself",
                                "display": "Myself"
                            }
                        },
                        {
                            "id": "proxyManagerName",
                            "type": "CardNamedItem",
                            "name": "Proxy Supervisor",
                            "Mapping": {
                                "valuePair": ["proxyManagerId", "proxyManagerName"],
                                "method": "isEqual",
                                "display": "-"
                            }
                        },
                        {
                            "id": "searchFilter_directorName",
                            "type": "CardNamedItem",
                            "name": "Director Name"
                        },
                        {
                            "id": "submittedDate",
                            "type": "textOnly",
                            "prefix": "Submitted on",
                            "subType": "approval_date",
                            "trigger": {
                                "id": "inProgressBI,inProgressApp",
                                "type": "dynamicCondition",
                                "value": "#1 === undefined && #2 === undefined"
                            },
                            "hiddenField": {
                                "type": "skip"
                            }
                        },
                        {
                            "id": "approveRejectDate",
                            "type": "CardNamedItem",
                            "subType": "approval_date",
                            "name": "Date Approved / Rejected",
                            "Mapping": {
                                "value": "approveRejectDate",
                                "method": "isEmpty",
                                "display": "-"
                            }
                        },
                        {
                            "id": "submittedDate",
                            "type": "textOnly",
                            "subType": "expiryDate",
                            "stampedValue": "expiredDate",
                            "prefix": "Expiry on",
                            "warning": true,
                            "DisableMapping": {
                                "approvalStatus": ["A", "R"],
                                "inProgressBI": [true],
                                "inProgressApp": [true]
                            }
                        },
                        {
                            "id": "onHoldReason",
                            "type": "textOnly",
                            "onHoldReason": true,
                            "Mapping": {
                                "approvalStatus": "PDis,PDoc,PDocFAF,PDisFAF"
                            }
                        }
                    ]
                }
            ],
            "onClick": "openReviewPage"
        }
    ]
}
