{
  "type": "PAPER", 
  "showCol": true,
  "items": [
    {
      "id": "proposerAndLifeAssuredName",
      "type": "LABEL",
      "hideTitle": true, 
      "style":  {"height": 36, "fontWeight": 600}
    },
    {
      "id": "basicPlanName",
      "type": "LABEL",
      "hideTitle": true, 
      "style":  {"height": 36, "fontWeight": 600}
    },
    {
      "id": "ridersName",
      "type": "LABEL",
      "hideTitle": true, 
      "style":  {"height": 36, "fontWeight": 600}
    }
  ]
}