{
    "mapping": {
        "AG": {
            "999999999": [
                "BAA",
                "SAV",
                "IND"
            ]
        },
        "FA": {
            "999999999": [
                "*"
            ]
        }
    },
    "type": "settings"
}