{
    "agentCode": "008008",
    "appStep": 2,
    "applicationForm": {
        "values": {
            "appFormTemplate": {
                "dynTemplate": {
                    "declaration": "appform_dyn_declaration",
                    "insurability": {
                        "la": {
                            "PET": "dyn_la_insurability_sio"
                        }
                    },
                    "personal": "appform_dyn_personal",
                    "plan": "appform_dyn_plan",
                    "residency": "appform_dyn_residency"
                },
                "main": "appform_report_main",
                "properties": {
                    "dollarSignForAllCcy": true
                },
                "template": [
                    "appform_report_common",
                    "appform_report_personal_details",
                    "appform_report_plan_details_sav",
                    "appform_report_residency",
                    "appform_report_insurability",
                    "appform_report_declaration"
                ]
            },
            "checkedMenu": [
                "menu_person",
                "menu_residency",
                "menu_insure",
                "menu_declaration"
            ],
            "completedMenus": [
                "menu_plan",
                "menu_person",
                "menu_residency",
                "menu_insure",
                "menu_declaration"
            ],
            "insured": [],
            "isCompleted": true,
            "menus": [
                "menu_person",
                "menu_residency",
                "menu_insure",
                "menu_plan",
                "menu_declaration"
            ],
            "planDetails": {
                "ccy": "SGD",
                "displayPlanList": [
                    {
                        "calcBy": "premium",
                        "covCode": "SAV",
                        "covName": {
                            "en": "SavvySaver",
                            "zh-Hant": "SavvySaver"
                        },
                        "halfYearPrem": 583.84,
                        "monthPrem": 100.17,
                        "planCode": "15SS",
                        "polTermDesc": "15 Years",
                        "policyTerm": "15",
                        "premRate": 108,
                        "premTerm": "15",
                        "premTermDesc": "15 Years",
                        "premium": 1144.8,
                        "productId": "08_product_SAV_2",
                        "productLine": "WLE",
                        "quarterPrem": 297.64,
                        "saViewInd": "Y",
                        "sumInsured": 10600,
                        "totalPremium": 1158.19,
                        "version": 2,
                        "yearPrem": 1144.8
                    }
                ],
                "hasRiders": "Y",
                "isBackDate": "N",
                "paymentMode": "A",
                "paymentTerm": "Regular",
                "planList": [
                    {
                        "calcBy": "premium",
                        "covCode": "SAV",
                        "covName": {
                            "en": "SavvySaver",
                            "zh-Hant": "SavvySaver"
                        },
                        "halfYearPrem": 583.84,
                        "monthPrem": 100.17,
                        "planCode": "15SS",
                        "polTermDesc": "15 Years",
                        "policyTerm": "15",
                        "premRate": 108,
                        "premTerm": "15",
                        "premTermDesc": "15 Years",
                        "premium": 1144.8,
                        "productId": "08_product_SAV_2",
                        "productLine": "WLE",
                        "quarterPrem": 297.64,
                        "saViewInd": "Y",
                        "sumInsured": 10600,
                        "version": 2,
                        "yearPrem": 1144.8
                    },
                    {
                        "covCode": "PET",
                        "covName": {
                            "en": "PremiumEraser Total",
                            "zh-Hant": "PremiumEraser Total"
                        },
                        "halfYearPrem": 6.82,
                        "monthPrem": 1.17,
                        "planCode": "15WOP",
                        "polTermDesc": "15 Years",
                        "policyTerm": "15",
                        "premRate": 1.17,
                        "premTerm": "15",
                        "premTermDesc": "15 Years",
                        "premium": 13.39,
                        "productId": "08_product_PET_2",
                        "productLine": "WLE",
                        "quarterPrem": 3.48,
                        "saViewInd": "N",
                        "sumInsured": " - ",
                        "version": 2,
                        "yearPrem": 13.39
                    }
                ],
                "planTypeName": {
                    "en": "SavvySaver",
                    "zh-Hant": "SavvySaver"
                },
                "premium": 1158.19,
                "riderList": [
                    {
                        "covCode": "PET",
                        "covName": {
                            "en": "PremiumEraser Total",
                            "zh-Hant": "PremiumEraser Total"
                        },
                        "halfYearPrem": 6.82,
                        "monthPrem": 1.17,
                        "planCode": "15WOP",
                        "polTermDesc": "15 Years",
                        "policyTerm": "15",
                        "premRate": 1.17,
                        "premTerm": "15",
                        "premTermDesc": "15 Years",
                        "premium": 13.39,
                        "productId": "08_product_PET_2",
                        "productLine": "WLE",
                        "quarterPrem": 3.48,
                        "saViewInd": "N",
                        "sumInsured": " - ",
                        "version": 2,
                        "yearPrem": 13.39
                    }
                ],
                "riskCommenDate": "2018-09-03",
                "sumInsured": 11744.8,
                "totYearPrem": 1158.19,
                "type": 1
            },
            "proposer": {
                "declaration": {
                    "BANKRUPTCY01": "N",
                    "CRS01": "N",
                    "FATCA01": "N",
                    "FATCA02": "N",
                    "FCD_01": "asdf",
                    "FCD_02": "N",
                    "FUND_SRC01": "sg",
                    "FUND_SRC02": "CP001003-00061",
                    "PEP01": "N",
                    "ROADSHOW01": "N",
                    "ccy": "SGD",
                    "trustedIndividuals": {}
                },
                "extra": {
                    "baseProductCode": "SAV",
                    "ccy": "SGD",
                    "channel": "AGENCY",
                    "channelName": "AGENCY",
                    "hasTrustedIndividual": null,
                    "isPhSameAsLa": "Y",
                    "premium": 1158.19
                },
                "insurability": {
                    "FAMILY01": "N",
                    "HEALTH_GIO01": "N",
                    "HEALTH_GIO02": "N",
                    "HW01": 1,
                    "HW02": 12,
                    "HW03": "N",
                    "INS01": "N",
                    "INS02": "N",
                    "LIFESTYLE01": "N",
                    "LIFESTYLE02": "N",
                    "LIFESTYLE03": "N",
                    "insAllNoInd": "Y"
                },
                "personalInfo": {
                    "addrBlock": "a",
                    "addrCity": "",
                    "addrCountry": "R2",
                    "addrEstate": "",
                    "addrStreet": "s",
                    "age": 30,
                    "agentCode": "008008",
                    "agentId": "008008",
                    "allowance": 11,
                    "bundle": [
                        {
                            "id": "FN001003-00289",
                            "isValid": true
                        }
                    ],
                    "cid": "CP001003-00061",
                    "compCode": "01",
                    "dealerGroup": "AGENCY",
                    "dependants": [],
                    "dob": "1988-08-06",
                    "education": "above",
                    "email": "ale@eab.com",
                    "employStatus": "ft",
                    "firstName": "Alex 5",
                    "fnaRecordIdArray": "",
                    "fullName": "Alex 5",
                    "gender": "M",
                    "hanyuPinyinName": "",
                    "idCardNo": "S1234567D",
                    "idDocType": "nric",
                    "industry": "I15",
                    "initial": "A",
                    "isSameAddr": "Y",
                    "isSmoker": "N",
                    "language": "en",
                    "lastName": "",
                    "lastUpdateDate": "2018-09-03T11:51:56.128Z",
                    "marital": "S",
                    "mobileCountryCode": "+65",
                    "mobileNo": "1231231",
                    "nameOrder": "L",
                    "nationality": "N1",
                    "nearAge": 30,
                    "occupation": "O3",
                    "organization": "asd",
                    "organizationCountry": "R2",
                    "othName": "",
                    "otherMobileCountryCode": "+65",
                    "otherNo": "",
                    "photo": "",
                    "postalCode": "2222222",
                    "prStatus": "Y",
                    "referrals": "",
                    "residenceCountry": "R2",
                    "title": "Dr",
                    "type": "cust",
                    "unitNum": ""
                },
                "policies": {
                    "existCi": 0,
                    "existCiAXA": 0,
                    "existCiOther": 0,
                    "existLife": 0,
                    "existLifeAXA": 0,
                    "existLifeOther": 0,
                    "existPaAdb": 0,
                    "existPaAdbAXA": 0,
                    "existPaAdbOther": 0,
                    "existTotalPrem": 0,
                    "existTotalPremAXA": 0,
                    "existTotalPremOther": 0,
                    "existTpd": 0,
                    "existTpdAXA": 0,
                    "existTpdOther": 0,
                    "havExtPlans": "N",
                    "havPndinApp": "N",
                    "isProslReplace": "N",
                    "pendingCi": 0,
                    "pendingCiAXA": 0,
                    "pendingCiOther": 0,
                    "pendingLife": 0,
                    "pendingLifeAXA": 0,
                    "pendingLifeOther": 0,
                    "pendingPaAdb": 0,
                    "pendingPaAdbAXA": 0,
                    "pendingPaAdbOther": 0,
                    "pendingTotalPrem": 0,
                    "pendingTotalPremAXA": 0,
                    "pendingTotalPremOther": 0,
                    "pendingTpd": 0,
                    "pendingTpdAXA": 0,
                    "pendingTpdOther": 0,
                    "replaceCi": 0,
                    "replaceCiAXA": 0,
                    "replaceCiOther": 0,
                    "replaceLife": 0,
                    "replaceLifeAXA": 0,
                    "replaceLifeOther": 0,
                    "replacePaAdb": 0,
                    "replacePaAdbAXA": 0,
                    "replacePaAdbOther": 0,
                    "replacePolTypeAXA": "-",
                    "replacePolTypeOther": "-",
                    "replaceTotalPrem": 0,
                    "replaceTotalPremAXA": 0,
                    "replaceTotalPremOther": 0,
                    "replaceTpd": 0,
                    "replaceTpdAXA": 0,
                    "replaceTpdOther": 0
                },
                "residency": {
                    "EAPP-P6-F1": "outside"
                }
            },
            "undefined": {}
        }
    },
    "applicationInforceDate": 0,
    "applicationSignedDate": 0,
    "applicationStartedDate": "2018-09-03T11:51:57.323Z",
    "applicationSubmittedDate": 0,
    "bundleId": "FN001003-00289",
    "compCode": "01",
    "createDate": 1535975517323,
    "dealerGroup": "AGENCY",
    "iCid": "CP001003-00061",
    "id": "NB001003-02064",
    "isApplicationSigned": true,
    "isBackDate": false,
    "isFailSubmit": false,
    "isFullySigned": true,
    "isInitialPaymentCompleted": false,
    "isMandDocsAllUploaded": false,
    "isProposalSigned": true,
    "isStartSignature": true,
    "isSubmittedStatus": false,
    "isValid": true,
    "lastUpdateDate": 1535975571074,
    "pCid": "CP001003-00061",
    "payment": {
        "backdatingPrem": 0,
        "baseProductCode": "SAV",
        "ccNo": "",
        "covCode": "SAV",
        "cpfisoaBlock": {
            "idCardNo": "S1234567D"
        },
        "cpfissaBlock": {
            "idCardNo": "S1234567D"
        },
        "initBasicPrem": 1158.19,
        "initPayMethod": "",
        "initPayMethodButton": false,
        "initRspPrem": 0,
        "initTotalPrem": 1158.19,
        "paymentMethod": "",
        "paymentMode": "A",
        "policyCcy": "SGD",
        "proposalNo": "101-4681710",
        "rspSelect": "N",
        "srsBlock": {
            "idCardNo": "S1234567D"
        },
        "subseqPayMethod": "N",
        "topupPrem": 0,
        "trxAmount": 0,
        "trxCcy": "",
        "trxMethod": "",
        "trxNo": "",
        "trxPayType": "",
        "trxRemark": "",
        "trxStartTime": 0,
        "trxStatus": "",
        "trxStatusRemark": "",
        "trxTime": 0,
        "ttDOR": "",
        "ttRemarks": "",
        "ttRemittingBank": ""
    },
    "policyNumber": "101-4681710",
    "quotation": {
        "_attachments": {
            "proposal": {
                "content_type": "application/pdf",
                "digest": "sha1-DibB26ZlND05g4vL4jbPTouMyPs=",
                "length": 114150,
                "revpos": 2,
                "stub": true
            }
        },
        "_id": "QU001003-01415",
        "_rev": "3-2e9a29e8d393c2fb7195d120f536555e",
        "agent": {
            "agentCode": "008008",
            "company": "AXA Insurance Pte Ltd",
            "dealerGroup": "AGENCY",
            "email": "alex.tang@eabsystems.com",
            "mobile": "12345678",
            "name": "Alex Tang",
            "tel": "0"
        },
        "agentCode": "008008",
        "baseProductCode": "SAV",
        "baseProductId": "08_product_SAV_2",
        "baseProductName": {
            "en": "SavvySaver",
            "zh-Hant": "SavvySaver"
        },
        "budgetRules": [
            "RP"
        ],
        "bundleId": "FN001003-00289",
        "ccy": "SGD",
        "clientChoice": {
            "isClientChoiceSelected": true,
            "recommendation": {
                "benefit": "SavvySaver is a regular premium participating anticipated endowment policy. It provides you Death and Terminal Illness coverage, yearly Guaranteed Cash Payouts from the end of the second Policy year and a Guaranteed Maturity benefit plus bonuses (if any), payable to you in a lump sum upon Policy maturity. SavvySaver terminates upon full payout of either your TI benefit, Death benefit, Policy maturity amount or any other reasons as stated in Product Summary.\n\nFree-Look Period: We will give you a period of fourteen (14) days from the date you receive this Policy to review it. If your Policy is delivered by post or email, it is considered to have been received by you seven (7) days from the date of posting or email. If you decide to cancel this Policy, you must write to us and return the Policy documents within the period of 14 days allowed. We will refund the Premium paid less any medical fees and other expenses such as payments for medical check-ups and medical reports incurred in processing your Application.\n\nPremiumEraser Total Rider will waive future Premiums upon Total and Permanent Disability before the Policy Anniversary nearest to your 70th year birthday or you are diagnosed with one of the 36 Critical Illness, while this Additional Benefit is in force.",
                "limitation": "The Sum Assured is a notional value, used solely for the calculation of Guaranteed Maturity Payout, Guaranteed Cash Payout, Reversionary and Terminal Bonuses – it is not the amount payable in the event of Death or Terminal Illness. For the actual payout in the event of death and terminal illness please refer to the product summary.\nGuaranteed Cash Payouts could be deposited with us at a non-guaranteed interest rate. You can withdraw partial OR all of the re-deposited amounts with earned interest, subject to the minimum withdrawal amount equal to 1 Guaranteed Cash Payout payment. The bonus rates used for the policy illustration are non-guaranteed, the actual benefit payable may vary according to the future performance of the Participating Fund. There are certain conditions under which no benefits will be payable under this Policy. These are stated as exclusions in this Policy. Refer to your Product Summary for the exclusions, terms & conditions for payable Benefits.\nBuying a life insurance is a long-term commitment. An early termination of this Policy usually involves high costs and the surrender value may be less than the total Premiums paid.\n\nPremiumEraser Total Rider terminates upon its coverage expiry date of this additional benefit OR when Policy is assigned OR when you no longer suffers from TPD  or any other event which results in the termination of this Additional Benefit as set out in the Policy.\nThe premium rates for this Additional Benefit are not guaranteed. The rates may be adjusted based on future experience. Premiums are payable throughout the term of this Additional Benefit.\nPlease refer to product summary for terms and conditions and exclusions.",
                "reason": "asda",
                "rop": {
                    "choiceQ1": "N",
                    "choiceQ1Sub1": "",
                    "choiceQ1Sub2": "",
                    "choiceQ1Sub3": "",
                    "existCi": 0,
                    "existLife": 0,
                    "existPaAdb": 0,
                    "existTotalPrem": 0,
                    "existTpd": 0,
                    "replaceCi": 0,
                    "replaceLife": 0,
                    "replacePaAdb": 0,
                    "replaceTotalPrem": 0,
                    "replaceTpd": 0
                },
                "rop_shield": {
                    "ropBlock": {
                        "iCidRopAnswerMap": {},
                        "ropQ1sub3": "",
                        "ropQ2": "",
                        "ropQ3": "",
                        "shieldRopAnswer_0": "",
                        "shieldRopAnswer_1": "",
                        "shieldRopAnswer_2": "",
                        "shieldRopAnswer_3": "",
                        "shieldRopAnswer_4": "",
                        "shieldRopAnswer_5": ""
                    }
                }
            }
        },
        "compCode": "01",
        "createDate": "2018-09-03T11:50:24.728Z",
        "dealerGroup": "AGENCY",
        "extraFlags": {
            "fna": {
                "riskProfile": 1
            },
            "nationalityResidence": {
                "iCategory": "A1",
                "iRejected": "N",
                "pCategory": "A1",
                "pRejected": "N"
            }
        },
        "fund": null,
        "iAge": 30,
        "iCid": "CP001003-00061",
        "iDob": "1988-08-06",
        "iEmail": "",
        "iFirstName": "Alex 5",
        "iFullName": "Alex 5",
        "iGender": "M",
        "iLastName": "",
        "iOccupation": "O3",
        "iOccupationClass": "1",
        "iResidence": "R2",
        "iSmoke": "N",
        "id": "QU001003-01415",
        "isBackDate": "N",
        "lastUpdateDate": "2018-09-03T11:50:44.856Z",
        "pAge": 30,
        "pCid": "CP001003-00061",
        "pDob": "1988-08-06",
        "pEmail": "",
        "pFirstName": "Alex 5",
        "pFullName": "Alex 5",
        "pGender": "M",
        "pLastName": "",
        "pOccupation": "O3",
        "pOccupationClass": "1",
        "pResidence": "R2",
        "pSmoke": "N",
        "paymentMode": "A",
        "plans": [
            {
                "calcBy": "premium",
                "covCode": "SAV",
                "covName": {
                    "en": "SavvySaver",
                    "zh-Hant": "SavvySaver"
                },
                "halfYearPrem": 583.84,
                "monthPrem": 100.17,
                "planCode": "15SS",
                "polTermDesc": "15 Years",
                "policyTerm": "15",
                "premRate": 108,
                "premTerm": "15",
                "premTermDesc": "15 Years",
                "premium": 1144.8,
                "productId": "08_product_SAV_2",
                "productLine": "WLE",
                "quarterPrem": 297.64,
                "saViewInd": "Y",
                "sumInsured": 10600,
                "version": 2,
                "yearPrem": 1144.8
            },
            {
                "covCode": "PET",
                "covName": {
                    "en": "PremiumEraser Total",
                    "zh-Hant": "PremiumEraser Total"
                },
                "halfYearPrem": 6.82,
                "monthPrem": 1.17,
                "planCode": "15WOP",
                "polTermDesc": "15 Years",
                "policyTerm": "15",
                "premRate": 1.17,
                "premTerm": "15",
                "premTermDesc": "15 Years",
                "premium": 13.39,
                "productId": "08_product_PET_2",
                "productLine": "WLE",
                "quarterPrem": 3.48,
                "saViewInd": "N",
                "sumInsured": 1144.8,
                "version": 2,
                "yearPrem": 13.39
            }
        ],
        "policyOptions": {},
        "policyOptionsDesc": {},
        "premTerm": "15",
        "premium": 1158.19,
        "productLine": "WLE",
        "productVersion": "2.0",
        "riskCommenDate": "2018-09-03",
        "sameAs": "Y",
        "sumInsured": 11744.8,
        "totHalfyearPrem": 590.66,
        "totMonthPrem": 101.34,
        "totQuarterPrem": 301.12,
        "totYearPrem": 1158.19,
        "type": "quotation"
    },
    "quotationDocId": "QU001003-01415",
    "sameAs": "Y",
    "supportDocuments": {
        "isAllViewed": false,
        "values": {
            "insured": {
                "mandDocs": {
                    "iNric": [],
                    "iPass": [],
                    "iPassport": [],
                    "iPassportWStamp": []
                },
                "optDoc": {
                    "iChinaVisit": [],
                    "iJapaneseNotShield": [],
                    "iJuvenileQuestions": [],
                    "iMedicalTest": []
                }
            },
            "policyForm": {
                "mandDocs": {
                    "axasam": [],
                    "cAck": [],
                    "cash": [],
                    "chequeCashierOrder": [],
                    "pAddrProof": [],
                    "pNric": [
                        {
                            "feUploadDate": "04/09/2018 17:04:52",
                            "fileSize": "69.7KB",
                            "fileType": "image/png",
                            "id": "suppDocs20180904170452",
                            "length": 71411,
                            "title": "20180904_Screen Shot 2018-08-22 at 2.png",
                            "uploadDate": "2018-09-04T17:04:52Z"
                        }
                    ],
                    "pPass": [],
                    "pPassport": [],
                    "pPassportWStamp": [],
                    "teleTransfer": [],
                    "thirdPartyAddrProof": [],
                    "thirdPartyID": []
                },
                "optDoc": {
                    "axasam": [],
                    "cash": [],
                    "chequeCashierOrder": [],
                    "pChinaVisit": [],
                    "pJapaneseNotShield": [],
                    "teleTransfer": []
                },
                "sysDocs": {
                    "appPdf": {
                        "fileSize": "",
                        "fileType": "application/pdf",
                        "id": "appPdf",
                        "title": "e-App"
                    },
                    "eCpdPdf": {
                        "fileSize": "",
                        "fileType": "application/pdf",
                        "id": "eCpdPdf",
                        "title": "e-CPD"
                    },
                    "eapproval_supervisor_pdf": {
                        "fileSize": "",
                        "fileType": "application/pdf",
                        "id": "eapproval_supervisor_pdf",
                        "title": "Supervisor Validation"
                    },
                    "faFirm_Comment": {
                        "fileSize": "",
                        "fileType": "application/pdf",
                        "id": "faFirm_Comment",
                        "title": "Comments by FA Firm Admin"
                    },
                    "fnaReport": {
                        "fileSize": "",
                        "fileType": "application/pdf",
                        "id": "fnaReport",
                        "title": "e-FNA"
                    },
                    "proposal": {
                        "fileSize": "",
                        "fileType": "application/pdf",
                        "id": "proposal",
                        "title": "e-PI"
                    }
                }
            },
            "proposer": {
                "mandDocs": {},
                "optDoc": {
                    "pMedicalTest": []
                }
            }
        },
        "viewedList": {
            "008008": {
                "appPdf": false,
                "fnaReport": false,
                "proposal": false
            }
        }
    },
    "type": "application"
}