{
  "completed": {
    "id": "needsSummarySection",
      "style": {"padding": "24px", "width": "calc(100vw - 48px)", "overflowY": "auto"},
      "items": [
      {
        "id": "sfAspects",
        "desc": {"en": "Shortfall"},
        "groupId": "hcProtection",
        "reference": "needSection@aspects",
        "subType": "shortfall",
        "type": "needsSummary",
        "seperateObj": [
							{
								"id": "psGoals",
								"value": "goals",
								"formula": "var result = [];  var totusedAssets=0; var uassetValue = 0; var s; var tH; if(aValue && aValue.goals) { aValue.goals.forEach(  (panel, index)=>  { if (panel.assets){ _.forEach(panel.assets, (ass) => { uassetValue += ( (Number(ass.usedAsset) * Math.pow( (1 + (Number(ass.return) / 100) ) , panel.timeHorizon) ) || 0) }) } s =-panel.compFv  + uassetValue; tH=panel.timeHorizon; result.push({'shortFall': s , 'timeHorizon': tH, 'title': panel.goalName}) });  result || []} "
							},
							{
								"id": "other",
								"value": "goals",
								"formula": "var result = []; var s; if(aValue && aValue.goals) { aValue.goals.forEach (g => { s =-g.planForValue +  (g.extInsuDisplayl || 0); result.push({'shortFall': s, 'timeHorizon': undefined, 'title': g.planFor}) }); result || []}"
							}
						]
      },
      {
        "id": "spAspects",
        "desc": {"en": "surplus"},
        "groupId": "hcProtection",
        "reference": "needSection@aspects",
        "subType": "surplus",
        "type": "needsSummary",
        "seperateObj": [
							{
								"id": "psGoals",
								"value": "goals",
								"formula": "var result = [];  var totusedAssets=0; var uassetValue = 0; var s; var tH; if(aValue && aValue.goals) { aValue.goals.forEach(  (panel, index)=>  { if (panel.assets){ _.forEach(panel.assets, (ass) => { uassetValue += ( (Number(ass.usedAsset) * Math.pow( (1 + (Number(ass.return) / 100) ) , panel.timeHorizon) ) || 0) }) } s =-panel.compFv  + uassetValue; tH=panel.timeHorizon; result.push({'shortFall': s , 'timeHorizon': tH, 'title': panel.goalName}) });  result || []} "
							},
							{
								"id": "other",
								"value": "goals",
								"formula": "var result = []; var s; if(aValue && aValue.goals) { aValue.goals.forEach (g => { s =-g.planForValue +  (g.extInsuDisplayl || 0); result.push({'shortFall': s, 'timeHorizon': undefined, 'title': g.planFor}) }); result || []}"
							}
						]
      }]
  },
  "inCompleted": {
    "id": "needsSummarySection",
      "style": {"padding": "24px", "width": "calc(100vw - 48px)", "overflowY": "auto"},
      "items": [{
        "id": "sfAspects",
        "groupId": "hcProtection",
        "reference": "needSection@aspects",
        "inComplete": true,
        "type": "needsSummary",
        "seperateObj": [
							{
								"id": "psGoals",
								"value": "goals",
								"formula": "var result = [];  var totusedAssets=0; var uassetValue = 0; var s; var tH; if(aValue && aValue.goals) { aValue.goals.forEach(  (panel, index)=>  { if (panel.assets){ _.forEach(panel.assets, (ass) => { uassetValue += ( (Number(ass.usedAsset) * Math.pow( (1 + (Number(ass.return) / 100) ) , panel.timeHorizon) ) || 0) }) } s =-panel.compFv  + uassetValue; tH=panel.timeHorizon; result.push({'shortFall': s , 'timeHorizon': tH, 'title': panel.goalName}) });  result || []} "
							},
							{
								"id": "other",
								"value": "goals",
								"formula": "var result = []; var s; if(aValue && aValue.goals) { aValue.goals.forEach (g => { s =-g.planForValue +  (g.extInsuDisplayl || 0); result.push({'shortFall': s, 'timeHorizon': undefined, 'title': g.planFor}) }); result || []}"
							}
						]
      }
    ]
  }
}