{
  "type":"setup",
  "checkAgentForProductFunc": "function(suitability,agent,productList,extraParams){var products=_.filter(productList,function(product){if(suitability.products&&suitability.products[product.covCode]){var requiredQualis=suitability.products[product.covCode].requiredQualis;return _.every(requiredQualis,function(quali){return agent.authorised&&agent.authorised.indexOf(quali)>-1;});}return true;});return{productList:products};}",
  "checkClientForProductFunc": "function (suitability, profiles, productList, extraParams) { var optionsMap = extraParams.optionsMap; var insured = profiles[1]; var proposer = profiles[0]; var dependant = null; if (proposer.cid !== insured.cid) { dependant = _.find(proposer.dependants, (d) => d.cid === insured.cid); } var products = _.filter(productList, function (product) { var suitProd = suitability.products && suitability.products[product.covCode]; if (proposer.cid !== insured.cid) { var allowedRelationships = (suitProd && suitProd.allowedRelationships) || ['DAU', 'SON', 'SPO']; if (suitProd && suitProd.allowedAllRelationships && suitProd.allowedAllRelationships === 'Y') {} else { if (!dependant || allowedRelationships.indexOf(dependant.relationship) === -1) { return false; } } } if (suitProd) { var requiredOccupClass = suitProd.requiredOccupClass; if (requiredOccupClass) { var occOpt = _.find(optionsMap.occupation.options, (opt) => opt.value === profiles[1].occupation); if (!occOpt || requiredOccupClass.indexOf(occOpt.paplan) === -1) { return false; } } var only1stparty = suitProd.only1stparty; var requiredGender = suitProd.requiredGender; if (requiredGender) { if (only1stparty && profiles[0].cid !== profiles[1].cid) { if (insured.gender !== suitProd.requiredGender) return false; } else { if (proposer.gender !== suitProd.requiredGender) return false; } } if (suitProd.filterByClientFunc) { return runFunc(suitProd.filterByClientFunc, profiles); } } return true; }); var getNationalityCategory = function (profile) { if (profile.prStatus === 'Y') { return 'A'; } var option = _.find(optionsMap.nationality.options, function (opt) { return opt.value === profile.nationality; }); return option && option.category; }; var getResidenceCategory = function (profile) { var option = _.find(optionsMap.cityCategory.options, function (opt) { return opt.residency === profile.residenceCountry && (!opt.city || opt.city === profile.residenceCity); }); return option && option.category; }; var getMapping = function (profile) { if (profile) { var nationalityCat = getNationalityCategory(profile); var residenceCategory = getResidenceCategory(profile); return suitability.nationalityResidence[nationalityCat + residenceCategory]; } }; var getFinalProductList = function (productList) { var haveExtraFuncProducts = _.filter(productList, (product) => { return suitability.products[product.covCode] && suitability.products[product.covCode].checkClientForProductExtraFunc; }); _.forEach(haveExtraFuncProducts, (product) => { var keepProduct = runFunc(suitability.products[product.covCode].checkClientForProductExtraFunc, suitability, profiles, productList); if (!keepProduct) { _.remove(productList, (p) => { return p.covCode === product.covCode; }); } }); return productList; }; var recoverShieldProduct = function (profiles, orgProductList, targetProductList, isProposer) { if (profiles) { var canBuyShield = false; if (isProposer && profiles[0]) { canBuyShield = (profiles[0].nationality === 'N1' || profiles[0].prStatus === 'Y'); } if (!isProposer && profiles[1]) { canBuyShield = (profiles[1].nationality === 'N1' || profiles[1].prStatus === 'Y'); } if (canBuyShield) { var shieldIndex = _.findIndex(targetProductList, function (product) { return product.covCode === 'ASIM'; }); if (shieldIndex === -1) { _.forEach(orgProductList, function (orgProduct) { if (orgProduct.covCode === 'ASIM') { targetProductList.push(orgProduct); return false; } }); } } } return targetProductList; }; var iMapping = getMapping(insured); if (iMapping.reject) { var recoverList = recoverShieldProduct(profiles, productList, [], false); if (recoverList.length > 0) return { productList: recoverList, message: suitability.messages[iMapping.message] }; return { productList: [], message: suitability.messages[iMapping.message], error: true }; } var pMapping = getMapping(proposer); if (pMapping.reject) { return { productList: [], message: suitability.messages[pMapping.message], error: true }; } var runFilterFunc = pMapping.reject ? suitability.filterPlanFuncs.protectionOnly : suitability.filterPlanFuncs[iMapping.filterPlanFunc]; var filteredProductList = runFunc(runFilterFunc, products); var finalProductList = getFinalProductList(filteredProductList); var recoverList = recoverShieldProduct(profiles, productList, finalProductList, false); return { productList: recoverList, message: suitability.messages[pMapping.message] };}",
  "checkProdSuitForViewFunc": "function(suitability,fnaInfo,product,profiles){var covCode=product.covCode;var productLine=product.productLine;var fna=fnaInfo&&fnaInfo.fna;var aspects=(fna&&fna.aspects&&fna.aspects.split(','))||[];var productType=_.get(fna,'productType.prodType')||[];var suitableProd=suitability.products&&suitability.products[covCode];if(suitableProd&&suitableProd.checkSuitForViewFunc){return runFunc(suitableProd.checkSuitForViewFunc,fnaInfo,profiles);}if(['IL','WLE','CIT'].indexOf(productLine)>-1){return productType.indexOf('nonParticipatingPlan')>-1||productType.indexOf('participatingPlans')>-1||productType.indexOf('investLinkedPlans')>-1;}else if(productLine==='HP'){return productType.indexOf('accidentHealthPlans')>-1&&aspects.indexOf('hcProtection')>-1;}else if(productLine==='AP'){return productType.indexOf('accidentHealthPlans')>-1&&aspects.indexOf('paProtection')>-1;}return false;}",
  "checkProdSuitForQuotFunc": "function(suitability,fnaInfo,product){var covCode=product.covCode;var productLine=product.productLine;var fna=fnaInfo&&fnaInfo.fna;var aspects=(fna&&fna.aspects&&fna.aspects.split(','))||[];var productType=_.get(fna,'productType.prodType')||[];var suitableProd=suitability.products&&suitability.products[covCode];if(suitableProd&&suitableProd.checkSuitForQuotFunc){return runFunc(suitableProd.checkSuitForQuotFunc,fnaInfo);}if(productLine==='IL'){if(productType.indexOf('investLinkedPlans')===-1){return'Please complete the Risk Profile Assessment/CKA in FNA.';}}else if(productLine==='WLE'){if(productType.indexOf('investLinkedPlans')===-1&&productType.indexOf('participatingPlans')===-1){return'Please complete the Risk Profile Assessment/CKA in FNA.';}}else if(['CIT','AP','HP'].indexOf(productLine)>-1){return true;}return true;}",
  "checkQuotSuitabilityFunc": "function(suitability,fnaInfo,quotation){const budgets=['aRegPremBudget','singPrem','cpfOaBudget','cpfSaBudget','cpfMsBudget','srsBudget'];let selectedBudgets=_.filter(budgets,b=>fnaInfo&&fnaInfo.fe.owner[b]);let productMapping=suitability.products[quotation.baseProductCode];if(productMapping){if(productMapping.checkBudgetFunc){return runFunc(productMapping.checkBudgetFunc,suitability,selectedBudgets,quotation);}else if(productMapping.budgetRules){let budgetRules=productMapping&&productMapping.budgetRules;let match=_.find(budgetRules,(rule,budget)=>{if(selectedBudgets&&selectedBudgets.indexOf(budget)>-1){if(rule.paymentMethods&&(rule.paymentMethods==='*'||rule.paymentMethods.indexOf(quotation.policyOptions.paymentMethod)>-1)){return true;}if(rule.paymentModes&&(rule.paymentModes==='*'||rule.paymentModes.indexOf(quotation.paymentMode)>-1)){return true;}}return false;});if(match){return true;}else{return productMapping.budgetRulesErrorMsg||false;}}}return true;}",
  "filterPlanFuncs": {
    "all": "function (products) { return products; }",
    "protectionOnly": "function(products){return _.filter(products,function(product){return product.productCategory==='protectionOnly';});}",
    "exceptILP": "function(products){return _.filter(products,function(product){return product.productCategory!=='ilp';});}",
    "exceptSGOnly": "function(products){return _.filter(products,function(product){return product.productCategory!=='sgResidentOnly';});}",
    "exceptILPnSGOnly": "function(products){return _.filter(products,function(product){return (product.productCategory !== 'ilp' && product.productCategory !== 'sgResidentOnly');});}",
    "cvAndProtection": "function(products){return _.filter(products,function(product){return product.productCategory==='cv'||product.productCategory==='protectionOnly';});}",
    "none": "function (products) { return []; }"
  },
  "messages": {
    "RUW_1_I": "Application will be subject to underwriting review based on Life Assured's residency and/or nationality. Please note that a Certificate of Endorsement (COE) will be required if the Life Assured's Type of Pass is any of the following -- Social Visit pass or Long Term Visit Pass or Others.",
    "RUW_1_P": "Application will be subject to underwriting review based on Proposer's residency and/or nationality. Please note that a Certificate of Endorsement (COE) will be required if the Proposer's Type of Pass is any of the following -- Social Visit pass or Long Term Visit Pass or Others.",
    "RUW_2_I": "Application will be subject to underwriting review based on Life Assured's residency and/or nationality. Please note that a Certificate of Endorsement (COE) will be required if the Life Assured's Type of Pass is any of the following -- Social Visit pass or Long Term Visit Pass or Others.",
    "RUW_2_P": "Application will be subject to underwriting review based on Proposer's residency and/or nationality. Please note that a Certificate of Endorsement (COE) will be required if the Proposer's Type of Pass is any of the following -- Social Visit pass or Long Term Visit Pass or Others.",
    "RUW_3_I": "Application will be subject to underwriting review based on Life Assured's residency and/or nationality. Please note that a Certificate of Endorsement (COE) will be required if the Life Assured's Type of Pass is any of the following -- Social Visit pass or Long Term Visit Pass or Others.",
    "RUW_3_P": "Application will be subject to underwriting review based on Proposer's residency and/or nationality. Please note that a Certificate of Endorsement (COE) will be required if the Proposer's Type of Pass is any of the following -- Social Visit pass or Long Term Visit Pass or Others.",
    "Reject_1": "There is no product available for current select insured."
  },
  "nationalityResidence": {
    "A1": {
      "filterPlanFunc": "all"
    },
    "A2": {
      "filterPlanFunc": "exceptSGOnly",
      "message": "RUW_1",
      "showInQuot": true
    },
    "A3": {
      "filterPlanFunc": "exceptSGOnly",
      "message": "RUW_1",
      "showInQuot": true
    },
    "A4": {
      "filterPlanFunc": "exceptSGOnly",
      "message": "RUW_1",
      "showInQuot": true
    },
    "A5": {
      "filterPlanFunc": "none",
      "reject": true,
      "message": "Reject_1"
    },
    "A6": {
      "filterPlanFunc": "none",
      "reject": true,
      "message": "Reject_1"
    },
    "A7": {
      "filterPlanFunc": "exceptILPnSGOnly",
      "message": "RUW_1",
      "showInQuot": true
    },
    "B1": {
      "filterPlanFunc": "all"
    },
    "B2": {
      "filterPlanFunc": "exceptSGOnly",
      "message": "RUW_2",
      "showInQuot": true
    },
    "B3": {
      "filterPlanFunc": "exceptSGOnly",
      "message": "RUW_3",
      "showInQuot": true
    },
    "B4": {
      "filterPlanFunc": "none",
      "message": "Reject_1",
      "reject": true
    },
    "B5": {
      "filterPlanFunc": "none",
      "reject": true,
      "message": "Reject_1"
    },
    "B6": {
      "filterPlanFunc": "none",
      "reject": true,
      "message": "Reject_1"
    },
    "B7": {
      "filterPlanFunc": "none",
      "reject": true,
      "message": "Reject_1"
    },
    "C1": {
      "filterPlanFunc": "all",
      "message": "RUW_1",
      "showInQuot": true
    },
    "C2": {
      "filterPlanFunc": "exceptSGOnly",
      "message": "RUW_2",
      "showInQuot": true
    },
    "C3": {
      "filterPlanFunc": "exceptSGOnly",
      "message": "RUW_3",
      "showInQuot": true
    },
    "C4": {
      "filterPlanFunc": "none",
      "message": "Reject_1",
      "reject": true
    },
    "C5": {
      "filterPlanFunc": "none",
      "reject": true,
      "message": "Reject_1"
    },
    "C6": {
      "filterPlanFunc": "none",
      "reject": true,
      "message": "Reject_1"
    },
    "C7": {
      "filterPlanFunc": "none",
      "reject": true,
      "message": "Reject_1"
    },
    "D1": {
      "filterPlanFunc": "all",
      "message": "RUW_1",
      "showInQuot": true
    },
    "D2": {
      "filterPlanFunc": "exceptSGOnly",
      "message": "RUW_2",
      "showInQuot": true
    },
    "D3": {
      "filterPlanFunc": "exceptSGOnly",
      "message": "RUW_3",
      "showInQuot": true
    },
    "D4": {
      "filterPlanFunc": "none",
      "reject": true,
      "message": "Reject_1"
    },
    "D5": {
      "filterPlanFunc": "none",
      "reject": true,
      "message": "Reject_1"
    },
    "D6": {
      "filterPlanFunc": "none",
      "reject": true,
      "message": "Reject_1"
    },
    "D7": {
      "filterPlanFunc": "none",
      "reject": true,
      "message": "Reject_1"
    },
    "E1": {
      "filterPlanFunc": "exceptILP",
      "message": "RUW_1",
      "showInQuot": true
    },
    "E2": {
      "filterPlanFunc": "cvAndProtection",
      "message": "RUW_3",
      "showInQuot": true
    },
    "E3": {
      "filterPlanFunc": "cvAndProtection",
      "message": "RUW_3",
      "showInQuot": true
    },
    "E4": {
      "filterPlanFunc": "none",
      "reject": true,
      "message": "Reject_1"
    },
    "E5": {
      "filterPlanFunc": "none",
      "reject": true,
      "message": "Reject_1"
    },
    "E6": {
      "filterPlanFunc": "none",
      "reject": true,
      "message": "Reject_1"
    },
    "E7": {
      "filterPlanFunc": "none",
      "reject": true,
      "message": "Reject_1"
    }
  },
  "occupationClassByPlan": {
    "adb":
    {
      "messageKey": "IC (Appear Class 4) With UW Error Message",
      "warning" : "Application will be subject to underwriting review based on Occupation of the Life Assured /Proposer."
    }
  },
  "products": {
    "SAV": {
      "budgetRules": {
        "aRegPremBudget": {
          "paymentModes": ["A", "S", "Q", "M"]
        }
      }
    },
    "ESP": {
      "budgetRules": {
        "aRegPremBudget": {
          "paymentModes": ["A", "S", "Q", "M"]
        }
      }
    },
    "IND": {
      "budgetRules": {
        "singPrem": {
          "paymentMethods": ["cash"]
        },
        "cpfOaBudget": {
          "paymentMethods": ["cpfisoa"]
        },
        "cpfSaBudget": {
          "paymentMethods": ["cpfissa"]
        },
        "srsBudget": {
          "paymentMethods": ["srs"]
        }
      }
    },
    "BAA": {
      "budgetRules": {
        "aRegPremBudget": {
          "paymentModes": ["A", "S", "Q", "M"]
        }
      },
      "checkSuitForViewFunc": "function(fnaInfo,profiles){var pda=fnaInfo&&fnaInfo.pda;var fna=fnaInfo&&fnaInfo.fna;var productType=_.get(fna,'productType.prodType')||[];var aspects=(fna&&fna.aspects&&fna.aspects.split(','))||[];var getSelectedNeeds=function(tid,p,pda,fna){var dt='';var hasSpouse=_.get(pda,'applicant')==='joint'?true:false;var sp=_.find(_.get(p,'dependants'),d=>d.relationship==='SPO');var sid=_.get(sp,'cid');if(tid===p.cid){dt='owner';}else if(hasSpouse&&sid===tid){dt='spouse';}else if(_.find(_.get(pda,'dependants')&&_.get(pda,'dependants').split(','),dCid=>dCid===tid)){dt='dependants';}if(!dt){return;}var aspects=_.split(_.get(fna,'aspects'),',');var result={};for(var i in aspects){var a=aspects[i];var v=_.get(fna,`${a}.${dt}`);if(dt==='dependants'){for(var _v in v){if(v[_v]&&v[_v].cid===tid){v=v[_v];break;}}}if(!_.get(v,'init')&&_.get(v,'isActive')){result[a]=v;}}return result;};var needs=getSelectedNeeds(profiles[1].cid,profiles[0],pda,fna);return(needs.paProtection&&productType.indexOf('accidentHealthPlans')>-1);}",
      "requiredQualis": ["HI"],
      "requiredOccupClass": ["1", "2", "3", "4"]
    },
    "LMP": {
      "budgetRules": {
        "aRegPremBudget": {
          "paymentModes": ["A", "S", "Q", "M"]
        }
      }
    },
    "LITE": {
      "budgetRules": {
        "aRegPremBudget": {
          "paymentModes": ["A", "S", "Q", "M"]
        }
      }
    },
    "PNP":{
      "filterByClientFunc": "function(profiles){return profiles[0].cid === profiles[1].cid;}",
      "requiredGender" : "F",
      "budgetRules": {
        "aRegPremBudget": {
          "paymentModes": ["A", "S", "Q", "M"]
        }
      }
    },
    "PNPP":{
      "filterByClientFunc": "function(profiles){return profiles[0].cid === profiles[1].cid;}",
      "requiredGender" : "F",
      "budgetRules": {
        "aRegPremBudget": {
          "paymentModes": ["A", "S", "Q", "M"]
        }
      }
    },
    "PNP2":{
      "requiredGender" : "F",
      "only1stparty": true,
      "budgetRules": {
        "aRegPremBudget": {
          "paymentModes": ["A", "S", "Q", "M"]
        }
      }
    },
    "PNPP2":{
      "requiredGender" : "F",
      "only1stparty": true,
      "budgetRules": {
        "aRegPremBudget": {
          "paymentModes": ["A", "S", "Q", "M"]
        }
      }
    },
    "DTS":{
      "allowedRelationships": ["SPO", "SON", "DAU", "MOT", "FAT"]
    },
    "DTJ":{
      "allowedAllRelationships" : "Y",
      "allowedRelationships": ["SPO", "SIS", "BRO", "SON", "DAU", "MOT", "FAT", "GFA", "GMO", "GDA", "GSO"],
      "filterByClientFunc" : "function(profiles) {var insured = profiles[1];var proposer = profiles[0];var dependant = null;if(profiles[0].cid === profiles[1].cid){return false;}return true;}"
    },
    "AWICP":{
      "filterByClientFunc": "function(profiles){return profiles[0].cid === profiles[1].cid;}",
      "budgetRules": {
        "cpfOaBudget": {
          "paymentMethods": ["cpfisoa"]
        },
        "cpfSaBudget": {
          "paymentMethods": ["cpfissa"]
        }
      }
    },

    "AWICA":{
      "budgetRules": {
        "singPrem": {
          "paymentMethods": ["cash"]
        },
        "srsBudget": {
          "paymentMethods": ["srs"]
        }
      }
    },
    "TEMPCODE" : {
      "filterByClientFunc" : "function(profiles) {var insured = profiles[1];var proposer = profiles[0];var dependant = null;if(profiles[0].cid === profiles[1].cid){return false;}if(profiles[0].nationality === 'N1' || profiles[0].prStatus === 'Y'){if(profiles[1].nationality === 'N1' || profiles[1].prStatus === 'Y'){return true;}} dependant = _.find(proposer.dependants, (d) => d.cid === insured.cid);var allowedRelationships = ['SPO', 'SON', 'DAU', 'MOT', 'FAT', 'SIS', 'BRO'];if (!dependant || allowedRelationships.indexOf(dependant.relationship) === -1) {return false;}return true;}"
    },
    "ASIM": {
      "allowedRelationships": ["SPO", "SON", "DAU", "MOT", "FAT", "GFA", "GMO"],
      "filterByClientFunc": "function(profiles){return profiles[0].nationality==='N1'||profiles[0].prStatus==='Y';}",
      "checkSuitForQuotFunc": "function(fnaInfo){var fna=fnaInfo&&fnaInfo.fe;const budgets=['aRegPremBudget','singPrem','cpfOaBudget','cpfSaBudget','cpfMsBudget','srsBudget'];let selectedBudgets=_.filter(budgets,b=>fnaInfo&&fnaInfo.fe.owner[b]);if(selectedBudgets.indexOf('cpfMsBudget')===-1){return'Please change the selected product/payment mode or input the relevant budget in FNA.';}return true;}",
      "checkBudgetFunc": "function(suitability,selectedBudgets,quotation){if(selectedBudgets.indexOf('cpfMsBudget')===-1){return false;}if(selectedBudgets.indexOf('aRegPremBudget')===-1&&_.find(quotation.insureds,(subQuot)=>subQuot.plans&&subQuot.plans.length>1)){return false;}return true;}",
      "requiredQualis": ["HI"]
    },
    "TPX": {
      "checkBudgetFunc": "function(suitability,selectedBudgets,quotation){if(quotation.paymentMode==='L'){return selectedBudgets.indexOf('singPrem')>-1;}else{return selectedBudgets.indexOf('aRegPremBudget')>-1;}}"
    },
    "TPPX": {
      "checkBudgetFunc": "function(suitability,selectedBudgets,quotation){if(quotation.paymentMode==='L'){return selectedBudgets.indexOf('singPrem')>-1;}else{return selectedBudgets.indexOf('aRegPremBudget')>-1;}}"
    },
    "FPX": {
      "checkBudgetFunc": "function(suitability,selectedBudgets,quotation){if(quotation.policyOptions.topUpSelect && selectedBudgets.indexOf('singPrem')===-1){return'Please change the selected product/payment mode or input the relevant budget in FNA.';}if(selectedBudgets.indexOf('aRegPremBudget')===-1){return'Please change the selected product/payment mode or input the relevant budget in FNA.';}return true;}"
    },
    "FSX": {
      "checkBudgetFunc": "function(suitability,selectedBudgets,quotation){if(quotation.policyOptions.topUpSelect && selectedBudgets.indexOf('singPrem')===-1){return'Please change the selected product/payment mode or input the relevant budget in FNA.';}if(selectedBudgets.indexOf('aRegPremBudget')===-1){return'Please change the selected product/payment mode or input the relevant budget in FNA.';}return true;}"
    },
    "AWT": {
      "checkBudgetFunc": "function(suitability,selectedBudgets,quotation){if(quotation.policyOptions.topUpSelect && selectedBudgets.indexOf('singPrem')===-1){return'Please change the selected product/payment mode or input the relevant budget in FNA.';}if(selectedBudgets.indexOf('aRegPremBudget')===-1){return'Please change the selected product/payment mode or input the relevant budget in FNA.';}return true;}"
    },
    "PUL": {
      "checkBudgetFunc": "function(suitability,selectedBudgets,quotation){if(quotation.policyOptions.topUpSelect && selectedBudgets.indexOf('singPrem')===-1){return'Please change the selected product/payment mode or input the relevant budget in FNA.';}if(selectedBudgets.indexOf('aRegPremBudget')===-1){return'Please change the selected product/payment mode or input the relevant budget in FNA.';}return true;}"
    },
    "PVTVUL": {
      "checkClientForProductExtraFunc": "function(suitability, profiles, productList, extraParams) {var returnV = true; profiles.forEach(function(profile) { var residenceCountry = profile.residenceCountry, residenceCity = profile.residenceCity; returnV = returnV && ['R2', 'R9', 'R5', 'R72', 'R14', 'R51', 'R52', 'R3', 'R53', 'R34', 'R1', 'R120', 'R38', 'R134', 'R31', 'R48', 'R4', 'R54', 'R49', 'R50'].indexOf(residenceCountry) >= 0; if (returnV) { if ('R52' === residenceCountry && 'T223' === residenceCity) { returnV = false; } else if ('R53' === residenceCountry && 'T115' === residenceCity) { returnV = false; } else if ('R53' === residenceCountry && 'T222' === residenceCity) { returnV = false; } else if ('R120' === residenceCountry && 'T208' === residenceCity) { returnV = false; } else if ('R134' === residenceCountry && 'T210' === residenceCity) { returnV = false; } else if ('R54' === residenceCountry && 'T125' === residenceCity) { returnV = false; }} }); return returnV; }",
      "budgetRules": {
        "aRegPremBudget": {
          "paymentModes": ["A", "S", "Q", "M"]
        }
      }
    },
     "PVLVUL": {
      "checkClientForProductExtraFunc": "function(suitability, profiles, productList, extraParams) {var returnV = true; profiles.forEach(function(profile) { var residenceCountry = profile.residenceCountry, residenceCity = profile.residenceCity; returnV = returnV && ['R2', 'R9', 'R5', 'R72', 'R14', 'R51', 'R52', 'R3', 'R53', 'R34', 'R1', 'R120', 'R38', 'R134', 'R31', 'R48', 'R4', 'R54', 'R49', 'R50'].indexOf(residenceCountry) >= 0; if (returnV) { if ('R52' === residenceCountry && 'T223' === residenceCity) { returnV = false; } else if ('R53' === residenceCountry && 'T115' === residenceCity) { returnV = false; } else if ('R53' === residenceCountry && 'T222' === residenceCity) { returnV = false; } else if ('R120' === residenceCountry && 'T208' === residenceCity) { returnV = false; } else if ('R134' === residenceCountry && 'T210' === residenceCity) { returnV = false; } else if ('R54' === residenceCountry && 'T125' === residenceCity) { returnV = false; }} }); return returnV; }",
      "budgetRules": {
        "aRegPremBudget": {
          "paymentModes": ["A", "S", "Q", "M"]
        }
      }
    },
    "HER": {
      "requiredQualis": ["HI"],
      "checkSuitForViewFunc": "function(fnaInfo,profiles){var pda=fnaInfo&&fnaInfo.pda;var fna=fnaInfo&&fnaInfo.fna;var productType=_.get(fna,'productType.prodType')||[];var aspects=(fna&&fna.aspects&&fna.aspects.split(','))||[];var getSelectedNeeds=function(tid,p,pda,fna){var dt='';var hasSpouse=_.get(pda,'applicant')==='joint'?true:false;var sp=_.find(_.get(p,'dependants'),d=>d.relationship==='SPO');var sid=_.get(sp,'cid');if(tid===p.cid){dt='owner';}else if(hasSpouse&&sid===tid){dt='spouse';}else if(_.find(_.get(pda,'dependants')&&_.get(pda,'dependants').split(','),dCid=>dCid===tid)){dt='dependants';}if(!dt){return;}var aspects=_.split(_.get(fna,'aspects'),',');var result={};for(var i in aspects){var a=aspects[i];var v=_.get(fna,`${a}.${dt}`);if(dt==='dependants'){for(var _v in v){if(v[_v]&&v[_v].cid===tid){v=v[_v];break;}}}if(!_.get(v,'init')&&_.get(v,'isActive')){result[a]=v;}}return result;};var needs=getSelectedNeeds(profiles[1].cid,profiles[0],pda,fna);return((needs.pcHeadstart&&needs.pcHeadstart.providedFor&&needs.pcHeadstart.providedFor.indexOf('CI')>-1)||needs.ciProtection)&&(productType.indexOf('nonParticipatingPlan')>-1||productType.indexOf('participatingPlans')>-1||productType.indexOf('investLinkedPlans')>-1);}",
      "budgetRules": {
        "aRegPremBudget": {
          "paymentModes": ["A", "S", "Q", "M"]
        }
      }
    },
    "HIM": {
      "requiredQualis": ["HI"],
      "checkSuitForViewFunc": "function(fnaInfo,profiles){var pda=fnaInfo&&fnaInfo.pda;var fna=fnaInfo&&fnaInfo.fna;var productType=_.get(fna,'productType.prodType')||[];var aspects=(fna&&fna.aspects&&fna.aspects.split(','))||[];var getSelectedNeeds=function(tid,p,pda,fna){var dt='';var hasSpouse=_.get(pda,'applicant')==='joint'?true:false;var sp=_.find(_.get(p,'dependants'),d=>d.relationship==='SPO');var sid=_.get(sp,'cid');if(tid===p.cid){dt='owner';}else if(hasSpouse&&sid===tid){dt='spouse';}else if(_.find(_.get(pda,'dependants')&&_.get(pda,'dependants').split(','),dCid=>dCid===tid)){dt='dependants';}if(!dt){return;}var aspects=_.split(_.get(fna,'aspects'),',');var result={};for(var i in aspects){var a=aspects[i];var v=_.get(fna,`${a}.${dt}`);if(dt==='dependants'){for(var _v in v){if(v[_v]&&v[_v].cid===tid){v=v[_v];break;}}}if(!_.get(v,'init')&&_.get(v,'isActive')){result[a]=v;}}return result;};var needs=getSelectedNeeds(profiles[1].cid,profiles[0],pda,fna);return((needs.pcHeadstart&&needs.pcHeadstart.providedFor&&needs.pcHeadstart.providedFor.indexOf('CI')>-1)||needs.ciProtection)&&(productType.indexOf('nonParticipatingPlan')>-1||productType.indexOf('participatingPlans')>-1||productType.indexOf('investLinkedPlans')>-1);}",
      "budgetRules": {
        "aRegPremBudget": {
          "paymentModes": ["A", "S", "Q", "M"]
        }
      }
    },
    "ESC": {
      "checkSuitForViewFunc": "function(fnaInfo,profiles){var pda=fnaInfo&&fnaInfo.pda;var fna=fnaInfo&&fnaInfo.fna;var productType=_.get(fna,'productType.prodType')||[];var aspects=(fna&&fna.aspects&&fna.aspects.split(','))||[];var getSelectedNeeds=function(tid,p,pda,fna){var dt='';var hasSpouse=_.get(pda,'applicant')==='joint'?true:false;var sp=_.find(_.get(p,'dependants'),d=>d.relationship==='SPO');var sid=_.get(sp,'cid');if(tid===p.cid){dt='owner';}else if(hasSpouse&&sid===tid){dt='spouse';}else if(_.find(_.get(pda,'dependants')&&_.get(pda,'dependants').split(','),dCid=>dCid===tid)){dt='dependants';}if(!dt){return;}var aspects=_.split(_.get(fna,'aspects'),',');var result={};for(var i in aspects){var a=aspects[i];var v=_.get(fna,`${a}.${dt}`);if(dt==='dependants'){for(var _v in v){if(v[_v]&&v[_v].cid===tid){v=v[_v];break;}}}if(!_.get(v,'init')&&_.get(v,'isActive')){result[a]=v;}}return result;};var needs=getSelectedNeeds(profiles[1].cid,profiles[0],pda,fna);return((needs.pcHeadstart&&needs.pcHeadstart.providedFor&&needs.pcHeadstart.providedFor.indexOf('CI')>-1)||needs.ciProtection)&&(productType.indexOf('nonParticipatingPlan')>-1||productType.indexOf('participatingPlans')>-1||productType.indexOf('investLinkedPlans')>-1);}",
      "budgetRules": {
        "aRegPremBudget": {
          "paymentModes": ["A", "S", "Q", "M"]
        }
      }
    },
    "RHP": {
		"checkBudgetFunc": "function(suitability,selectedBudgets,quotation){if (quotation.paymentMode==='L'){if (quotation.policyOptions.paymentMethod === 'srs'){if (selectedBudgets.indexOf('srsBudget') === -1){return'Please change the selected product/payment mode or input the relevant budget in FNA.';}} else{if (selectedBudgets.indexOf('singPrem') === -1){return'Please change the selected product/payment mode or input the relevant budget in FNA.';}}} else{if (selectedBudgets.indexOf('aRegPremBudget') === -1){return'Please change the selected product/payment mode or input the relevant budget in FNA.';}} return true; }"
    },
    "NPE": {
      "checkBudgetFunc": "function(suitability,selectedBudgets,quotation){if (quotation.paymentMode==='L'){if (quotation.policyOptions.paymentMethod === 'srs'){if (selectedBudgets.indexOf('srsBudget') === -1){return'Please change the selected product/payment mode or input the relevant budget in FNA.';}} else{if (selectedBudgets.indexOf('singPrem') === -1){return'Please change the selected product/payment mode or input the relevant budget in FNA.';}}} else{if (selectedBudgets.indexOf('aRegPremBudget') === -1){return'Please change the selected product/payment mode or input the relevant budget in FNA.';}} return true; }"
    }
  }
}
