{
	"type": "layout",
	"fields": [{
		"id": 2,
		"type": "SECTION",
		"title": {
			"en": "Client Profile"
		},
		"items": [{
			"id": "gender",
			"title": {
				"en": "Gender"
			},
			"type": "picker",
			"options": [{
				"title": {
					"en": "Male"
				},
				"value": "M"
			}, {
				"title": {
					"en": "Female"
				},
				"value": "F"
			}]
		}, {
			"id": "dob",
			"title": {
				"en": "Date of birth"
			},
			"type": "concatenate",
			"items": [{
				"id": "dob",
				"type": "date"
			}, {
				"id": "age",
				"type": "text",
				"format": "(%s)"
			}],
			"condition": "existing"
		}, {
			"id": "nationality",
			"title": {
				"en": "Nationality"
			},
			"type": "picker",
			"options": "nationality"
		}, {
			"id": "prStatus",
			"title": {
				"en": "Singapore PR status",
				"zh-Hant": "PR status"
			},
			"type": "picker",
			"options": [{
				"title": {
					"en": "Yes"
				},
				"value": "Y"
			}, {
				"title": {
					"en": "No"
				},
				"value": "N"
			}],
			"trigger": {
				"type": "showIfNotEqual",
				"id": "nationality",
				"value": "N1"
			}
		}, {
			"id": "residenceCountry",
			"title": {
				"en": "Country of Residence"
			},
			"type": "picker",
			"options": "residency"
		}, {
			"id": "residenceCity",
			"title": {
				"en": "City/State"
			},
			"type": "picker",
			"options": "city",
			"trigger": {
				"type": "notEmpty",
				"id": "residenceCity"
			}
		}, {
			"id": "idDocType",
			"title": {
				"en": "ID Document Type"
			},
			"type": "picker",
			"options": [{
					"title": {
						"en": "Birth Certificate No."
					},
					"value": "bcNo"
				}, {
					"title": {
						"en": "FIN No."
					},
					"value": "fin"
				},
				{
					"title": {
						"en": "NRIC"
					},
					"value": "nric"
				}, {
					"title": {
						"en": "Passport"
					},
					"value": "passport"
				}, {
					"title": {
						"en": "Others"
					},
					"isOther": true,
					"max": 30,
					"value": "other"
				}
			]
		}, {
			"id": "idCardNo",
			"title": {
				"en": "ID Number"
			},
			"type": "text"
		}, {
			"id": "isSmoker",
			"title": {
				"en": "Smoking Status"
			},
			"type": "picker",
			"options": [{
				"title": {
					"en": "Non-smoker"
				},
				"value": "N"
			}, {
				"title": {
					"en": "Smoker"
				},
				"value": "Y"
			}]
		}, {
			"id": "marital",
			"title": {
				"en": "Marital status"
			},
			"type": "picker",
			"options": "marital"
		}, {
			"id": "language",
			"title": {
				"en": "Language Spoken",
				"zh-Hant": "語言"
			},
			"type": "picker",
			"options": [{
				"title": {
					"en": "English"
				},
				"value": "en"
			}, {
				"title": {
					"en": "Mandarin"
				},
				"value": "zh"
			}, {
				"title": {
					"en": "Malay"
				},
				"value": "ms"
			}, {
				"title": {
					"en": "Tamil"
				},
				"value": "ta"
			}, {
				"title": {
					"en": "Other"
				},
				"isOther": true,
				"value": "other"
			}]
		}]
	}, {
		"id": 2,
		"type": "SECTION",
		"title": {
			"en": "Contact Information"
		},
		"items": [{
			"id": "mobileNoHbox",
			"title": {
				"en": "Mobile No."
			},
			"type": "concatenate",
			"condition": "all",
			"items": [{
				"id": "mobileCountryCode",
				"type": "text"
			}, {
				"id": "mobileNo",
				"type": "text",
				"format": " %s"
			}],
			"icon": "phone"
		}, {
			"id": "otherMobileNoHbox",
			"title": {
				"en": "Other No."
			},
			"type": "concatenate",
			"condition": "all",
			"items": [{
				"id": "otherMobileCountryCode",
				"type": "text"
			}, {
				"id": "otherNo",
				"type": "text",
				"format": " %s"
			}],
			"icon": "phone"
		}, {
			"id": "email",
			"title": {
				"en": "Email"
			},
			"type": "text",
			"icon": "mail"
		}]
	}, {
		"id": 3,
		"type": "SECTION",
		"title": {
			"en": "Residential Address"
		},
		"items": [{
			"id": "address",
			"title": {
				"en": "Address"
			},
			"type": "multiLine",
			"icon": "direction",
			"fullWidth": "Y",
			"condition": "skip",
			"items": [{
					"id": "postalCode",
					"type": "text",
					"format": "%s,"
				},
				{
					"id": "addrBlock",
					"type": "text",
					"format": "%s,"
				},
				{
					"id": "addrStreet",
					"type": "text",
					"format": "%s,"
				},
				{
					"id": "unitNumNCity",
					"type": "concatenate",
					"condition": "skip",
					"items": [{
						"id": "unitNum",
						"type": "text",
						"format": "%s, "
					}, {
						"id": "city",
						"type": "picker",
						"options": "city"
					}]

				},
				{
					"id": "addrEstate",
					"type": "text",
					"format": "%s,"
				},
				{
					"id": "countryNPCode",
					"type": "concatenate",
					"items": [{
						"id": "addrCity",
						"type": "picker",
						"options": "city",
						"format": "%s, "
					}, {
						"id": "addrCountry",
						"type": "picker",
						"options": "residency"
					}]

				}
			]
		}]
	}, {
		"id": 4,
		"type": "section",
		"title": {
			"en": "Education/Work information"
		},
		"items": [{
			"id": "education",
			"title": {
				"en": "Education"
			},
			"type": "picker",
			"options": [{
				"title": {
					"en": "Below GCE ‘N’ or ‘O’ Levels certificate"
				},
				"value": "below"
			}, {
				"title": {
					"en": "GCE ‘N’ or ‘O’ Levels and above certificate"
				},
				"value": "above"
			}]
		}, {
			"id": "employStatus",
			"type": "picker",
			"title": {
				"en": "Employment Status"
			},
			"options": [{
				"title": {
					"en": "Full Time"
				},
				"value": "ft"
			}, {
				"title": {
					"en": "Househusband"
				},
				"value": "hh"
			}, {
				"title": {
					"en": "Housewife"
				},
				"value": "hw"
			}, {
				"title": {
					"en": "Part Time"
				},
				"value": "pt"
			}, {
				"title": {
					"en": "Retired"
				},
				"value": "rt"
			}, {
				"title": {
					"en": "Self Employed"
				},
				"value": "se"
			}, {
				"title": {
					"en": "Student"
				},
				"value": "sd"
			}, {
				"title": {
					"en": "Unemployed"
				},
				"value": "ue"
			}, {
				"title": {
					"en": "Others"
				},
				"isOther": true,
				"max": 30,
				"value": "ot"
			}]
		}, {
			"id": "occupation",
			"title": {
				"en": "Occupation"
			},
			"type": "picker",
			"options": "occupation"
		}, {
			"id": "industry",
			"title": {
				"en": "Industry"
			},
			"type": "picker",
			"options": "industry"
		}, {
			"id": "organization",
			"title": {
				"en": "Name of Employer/Business/School"
			},
			"type": "text"
		}, {
			"id": "organizationCountry",
			"title": {
				"en": "Country of Employer/Organization/School"
			},
			"type": "picker",
			"options": "residency"
		}, {
			"id": "pass",
			"type": "picker",
			"title": {
				"en": "Type of Pass"
			},
			"options": "pass",
			"trigger": {
				"type": "dynamicCondition",
				"id": "nationality",
				"value": "#1 && #1!='N1' && #1!='N2'"
			}
		}, {
			"id": "passExpDate",
			"title": {
				"en": "Pass Expiry Date"
			},
			"type": "date",
			"trigger": {
				"type": "dynamicCondition",
				"id": "nationality",
				"value": "#1 && #1!='N1' && #1!='N2'"
			}
		}, {
			"id": "allowance",
			"title": {
				"en": "Monthly Income/Allowance SGD"
			},
			"type": "currency"
		}]
	}]
}