{
    "type": "layout",
  	"formId":"reviewPage_jfw_Template",
    "items": [
        {
            "type": "CARDCONTAINER",
            "items": [
                {
                    "type": "BLOCK",
                    "title": "Joint Field Work (JFW)",
                    "items": [
                        {
                            "id": "jointFieldWorkCase",
                            "type": "QRADIOGROUP",
                            "title": "Is this a Joint Field Work (JFW) case ?",
                            "horizontal": true,
                            "options": [
                                {
                                    "value": "Y",
                                    "title": "Yes"
                                },
                                {
                                    "value": "N",
                                    "title": "No"
                                }
                            ],
                            "disabled": true
                        },
                        {
                            "type": "textOnly",
                            "id": "cbQuestion",
                            "title": "Please select the purpose of Joint Field Work"
                        },
                        {
                            "id": "jointFieldWorkCBGroup",
                            "type": "checkboxGroup",
                            "mode": "P",
                            "disabled": true,
                            "options": [
                                {
                                    "title": "New Rep requirement",
                                    "value": "New Rep requirement"
                                },
                                {
                                    "title": "BSC Grade E rep",
                                    "value": "BSC Grade E rep"
                                },
                                {
                                    "title": "Close Supervision",
                                    "value": "Close Supervision"
                                },
                                {
                                    "title": "Other Development Needs",
                                    "value": "Other Development Needs"
                                }
                            ],
                            "trigger": {
                                "id": "jointFieldWorkCase",
                                "type": "showIfEqual",
                                "value": "Y"
                            }
                        },
                        {
                            "id": "jfwFileName",
                            "type": "previewObj",
                            "title": "JFW Manual Form",
                            "trigger": {
                                "id": "jointFieldWorkCase",
                                "type": "showIfEqual",
                                "value": "Y"
                            }
                        }
                    ]
                }
            ]
        }
    ]
}