{
	"options": [{
		"title": {
			"en": "Conservative"
		},
		"value": 1
	},
	{
		"title": {
			"en": "Moderately Conservative"
		},
		"value": 2
	},
	{
		"title": {
			"en": "Balanced"
		},
		"value": 3
	},
	{
		"title": {
			"en": "Moderately Aggressive"
		},
		"value": 4
	},
	{
		"title": {
			"en": "Aggressive"
		},
		"value": 5
	}],
	"type": "layout"
}
