{
	"type": "layout",
	"options": [
		{"basicCD":"INC60A1","chargeCD":"TP03"},
		{"basicCD":"INC60A2","chargeCD":"TP03"},
		{"basicCD":"INOA1","chargeCD":"TP04"},
		{"basicCD":"INOA2","chargeCD":"TP04"},
		{"basicCD":"INSA1","chargeCD":"TP04"},
		{"basicCD":"INSA2","chargeCD":"TP04"},
		{"basicCD":"INSRA1","chargeCD":"TP03"},
		{"basicCD":"INSRA2","chargeCD":"TP03"}
	]
}
