{
	"type": "layout",
	"result": [
		{
			"type": "section",
			"detailSeq": 1,
			"items": [
				{
					"title": "Personal Details",
					"type": "menuItem",
					"detailSeq": 1,
					"items": [
						{
							"type": "tabs",
							"items": [
								{
									"title": "Proposer",
									"subType": "proposer",
									"items": [
										{
											"type": "PARAGRAPH",
											"id": "pWarning",
											"content": "<p>“Pursuant to Section 25(5) of the Insurance Act of Singapore (CAP 142), you are to disclose in this proposal form, fully and faithfully, all the facts which you know or ought to know, or the policy issued below may be void.”</p>",
											"mandatory": true,
											"detailSeq": 0,
											"paragraphType": "warning",
											"align": "left"
										},
										{
											"id": "branchInfo",
											"title": "Singpost Branch Details",
											"type": "BLOCK",
											"detailSeq": 1,
											"items": [
												{
													"type": "HBOX",
													"detailSeq": 1,
													"items": [
														{
															"type": "PICKER",
															"id": "branch",
															"title": "Branch",
															"mandatory": true,
															"detailSeq": 1,
															"options": [
																{
																	"value": "br1",
																	"title": "branch 1"
																},
																{
																	"value": "br2",
																	"title": "branch 2"
																}
															]
														},
														{
															"type": "TEXT",
															"id": "bankRefId",
															"title": "Referrer ID",
															"mandatory": true,
															"detailSeq": 2
														}
													]
												}
											]
										},
										{
											"id": "personalInfo",
											"title": "Details of Proposer",
											"type": "BLOCK",
											"detailSeq": 2,
											"items": [
												{
													"type": "HBOX",
													"detailSeq": 1,
													"items": [
														{
															"type": "TEXT",
															"id": "lastName",
															"title": "Surname (as shown in ID)",
															"mandatory": true,
															"detailSeq": 1
														},
														{
															"type": "TEXT",
															"id": "firstName",
															"title": "Given Name (as shown in ID)",
															"mandatory": true,
															"detailSeq": 2
														}
													]
												},
												{
													"type": "HBOX",
													"detailSeq": 2,
													"items": [
														{
															"type": "TEXT",
															"id": "othName",
															"title": "English or other name",
															"mandatory": true,
															"detailSeq": 1
														},
														{
															"type": "TEXT",
															"id": "hanyuPinyinName",
															"title": "Han Yu Pin Yin Name",
															"mandatory": true,
															"detailSeq": 2
														}
													]
												},
												{
													"type": "HBOX",
													"detailSeq": 3,
													"items": [
														{
															"type": "TEXT",
															"id": "fullName",
															"title": "Name",
															"mandatory": true,
															"detailSeq": 1
														},
														{
															"type": "PICKER",
															"id": "nation",
															"title": "Nationality",
															"mandatory": true,
															"detailSeq": 2,
															"options": [
																{
																	"value": "Malaysian",
																	"title": "Malaysian"
																}
															]
														}
													]
												},
												{
													"type": "HBOX",
													"detailSeq": 4,
													"items": [
														{
															"type": "TEXT",
															"id": "prStatus",
															"title": "Singapore PR Status",
															"mandatory": true,
															"detailSeq": 1,
															"options": [
																{
																	"value": "A",
																	"title": "B"
																}
															]
														},
														{
															"type": "PICKER",
															"id": "idDocType",
															"title": "ID Document Type",
															"mandatory": true,
															"detailSeq": 1,
															"value": "nric",
															"options": [
																{
																	"value": "passport",
																	"title": "passport"
																},
																{
																	"value": "nric",
																	"title": "NRIC"
																},
																{
																	"value": "fin",
																	"title": "FIN No"
																},
																{
																	"value": "other",
																	"title": "Other"
																}
															]
														}
													]
												},
												{
													"type": "TEXT",
													"id": "idDocTypeOther",
													"title": "Other ID Type Name",
													"detailSeq": 5,
													"trigger": {
														"id": "idDocType",
														"type": "showIfEqual",
														"value": "other"
													}
												},
												{
													"type": "HBOX",
													"detailSeq": 6,
													"items": [
														{
															"type": "TEXT",
															"id": "idCardNo",
															"title": "ID Number",
															"mandatory": true,
															"detailSeq": 2
														},
														{
															"type": "PICKER",
															"id": "gender",
															"title": "Gender",
															"mandatory": true,
															"detailSeq": 2,
															"options": [
																{
																	"value": "F",
																	"title": "Female"
																},
																{
																	"value": "M",
																	"title": "Male"
																}
															]
														}
													]
												},
												{
													"type": "HBOX",
													"detailSeq": 7,
													"items": [
														{
															"type": "DATEPICKER",
															"id": "dob",
															"title": "Date of Birth(DD/MM/YYYY)",
															"mandatory": true,
															"detailSeq": 1
														},
														{
															"type": "PICKER",
															"id": "marital",
															"title": "Marital Status",
															"mandatory": true,
															"detailSeq": 1,
															"options": [
																{
																	"value": "S",
																	"title": "Single"
																},
																{
																	"value": "M",
																	"title": "Married"
																}
															]
														}
													]
												},
												{
													"type": "HBOX",
													"detailSeq": 8,
													"items": [
														{
															"type": "TEXT",
															"id": "email",
															"title": "Email",
															"mandatory": false,
															"detailSeq": 1
														},
														{
															"type": "HBOX",
															"detailSeq": 2,
															"items": [
																{
																	"type": "PICKER",
																	"id": "mobileCountryCode",
																	"mandatory": false,
																	"detailSeq": 1,
																	"options": [
																		{
																			"value": "65",
																			"title": "+65"
																		}
																	]
																},
																{
																	"type": "TEXT",
																	"id": "mobileNo",
																	"mandatory": false,
																	"detailSeq": 2
																}
															]
														}
													]
												}
											]
										},
										{
											"id": "ProfDetails",
											"title": "Professional Details",
											"type": "BLOCK",
											"detailSeq": 2,
											"items": [
												{
													"type": "HBOX",
													"detailSeq": 1,
													"items": [
														{
															"type": "TEXT",
															"id": "workPlace",
															"title": "Employer/Business/School",
															"mandatory": true,
															"detailSeq": 1
														},
														{
															"type": "PICKER",
															"subType": "limit",
															"id": "occpCountry",
															"title": "Country of Employer/Business/School",
															"mandatory": true,
															"detailSeq": 2,
															"options": [
																{
																	"value": "MA"
																}
															]
														}
													]
												},
												{
													"type": "HBOX",
													"detailSeq": 3,
													"items": [
														{
															"type": "PICKER",
															"id": "pass",
															"title": "Type of Pass",
															"mandatory": true,
															"detailSeq": 1,
															"options": [
																{
																	"value": "employ",
																	"title": "Employment Pass"
																},
																{
																	"value": "workPermit",
																	"title": "Work Permit"
																},
																{
																	"value": "dependent",
																	"title": "Dependent Pass"
																},
																{
																	"value": "student",
																	"title": "Student"
																},
																{
																	"value": "ltVisit",
																	"title": "Long Term Visit Passt"
																},
																{
																	"value": "sVisit",
																	"title": "Social Visit Pass"
																},
																{
																	"value": "other",
																	"title": "Other"
																}
															]
														},
														{
															"type": "DATEPICKER",
															"id": "passExpDate",
															"title": "Pass Expiry Date (DD/MM/YYYY)",
															"mandatory": true,
															"detailSeq": 2
														}
													]
												},
												{
													"type": "TEXT",
													"id": "idPassTypeOther",
													"title": "Type of pass (Other)",
													"detailSeq": 4,
													"trigger": {
														"id": "pass",
														"type": "showIfEqual",
														"value": "other"
													}
												},
												{
													"type": "HBOX",
													"detailSeq": 5,
													"items": [
														{
															"type": "PICKER",
															"id": "occupation",
															"title": "Occupation",
															"mandatory": true,
															"detailSeq": 1,
															"options": [
																{
																	"value": "A",
																	"title": "A"
																}
															]
														},
														{
															"type": "TEXT",
															"id": "mthIncome",
															"title": "Monthly Income/Allowance SGD",
															"mandatory": true,
															"detailSeq": 2
														}
													]
												}
											]
										},
										{
											"id": "residential",
											"title": "Residential Address of Proposer",
											"type": "BLOCK",
											"detailSeq": 3,
											"items": [
												{
													"type": "HBOX",
													"detailSeq": 1,
													"items": [
														{
															"type": "TEXT",
															"id": "addrCountry",
															"title": "Country",
															"detailSeq": 1
														},
														{
															"type": "TEXT",
															"id": "postalCode",
															"title": "Postal Code",
															"detailSeq": 2,
															"subType": "postalcode",
															"countryAllowed": "addrCountry",
															"mapping": {
																"bldgNo": "addrBlock,12",
																"bldgName": "addrEstate,40",
																"streetName": "addrStreet,24"
															}
														}
													]
												},
												{
													"type": "HBOX",
													"detailSeq": 2,
													"items": [
														{
															"type": "TEXT",
															"id": "addrBlock",
															"title": "Block/House Number",
															"detailSeq": 1
														},
														{
															"type": "TEXT",
															"id": "addrStreet",
															"title": "Street/Road Name",
															"detailSeq": 2
														}
													]
												},
												{
													"type": "HBOX",
													"detailSeq": 3,
													"items": [
														{
															"type": "TEXT",
															"id": "addrUnit",
															"title": "Unit Number",
															"detailSeq": 1
														},
														{
															"type": "TEXT",
															"id": "addrEstate",
															"title": "Building/Estate Name",
															"detailSeq": 2
														}
													]
												},
												{
													"type": "HBOX",
													"detailSeq": 3,
													"items": [
														{
															"type": "TEXT",
															"id": "addrCity",
															"title": "City/State",
															"detailSeq": 1
														}
													]
												},
												{
													"type": "QRADIOGROUP",
													"id": "isSameAddr",
													"title": "Is your Residential Address same as mailing address?",
													"options": [
														{
															"value": "Y",
															"title": "Yes"
														},
														{
															"value": "N",
															"title": "No"
														}
													]
												}
											]
										},
										{
											"id": "mailAddrs",
											"title": "Mailing Address of Proposer",
											"type": "BLOCK",
											"detailSeq": 3,
											"trigger": {
												"id": "residential/isSameAddr",
												"type": "showIfEqual",
												"value": "N"
											},
											"items": [
												{
													"type": "HBOX",
													"detailSeq": 1,
													"items": [
														{
															"type": "TEXT",
															"id": "mAddrCountry",
															"title": "Country",
															"detailSeq": 1
														},
														{
															"type": "TEXT",
															"id": "mPostalCode",
															"title": "Postal Code",
															"detailSeq": 2
														}
													]
												},
												{
													"type": "HBOX",
													"detailSeq": 2,
													"items": [
														{
															"type": "TEXT",
															"id": "mAddrBlock",
															"title": "Block/House Number",
															"detailSeq": 1
														},
														{
															"type": "TEXT",
															"id": "mAddrStreet",
															"title": "Street/Road Name",
															"detailSeq": 2
														}
													]
												},
												{
													"type": "HBOX",
													"detailSeq": 3,
													"items": [
														{
															"type": "TEXT",
															"id": "mAddrUnit",
															"title": "Unit Number",
															"detailSeq": 1
														},
														{
															"type": "TEXT",
															"id": "mAddrEstate",
															"title": "Building/Estate Name",
															"detailSeq": 2
														}
													]
												},
												{
													"type": "HBOX",
													"detailSeq": 3,
													"items": [
														{
															"type": "TEXT",
															"id": "mAddrCity",
															"title": "City/State",
															"detailSeq": 1
														}
													]
												}
											]
										}
									]
								},
								{
									"title": "Life Assured",
									"subType": "insured",
									"items": [
										{
											"type": "PARAGRAPH",
											"id": "iWarning",
											"title": "<p>“Pursuant to Section 25(5) of the Insurance Act of Singapore (CAP 142), you are to disclose in this proposal form, fully and faithfully, all the facts which you know or ought to know, or the policy issued below may be void.”</p>",
											"mandatory": true,
											"detailSeq": 0,
											"paragraphType": "warning",
											"align": "left"
										},
										{
											"id": "personalDetails",
											"title": "Details of Life Assured",
											"type": "BLOCK",
											"detailSeq": 1,
											"items": [
												{
													"type": "HBOX",
													"detailSeq": 1,
													"items": [
														{
															"type": "PICKER",
															"id": "relationship",
															"title": "Relationship to Proposer",
															"mandatory": true,
															"detailSeq": 1,
															"options": [
																{
																	"value": "spouse",
																	"title": "Spouse"
																},
																{
																	"value": "child",
																	"title": "Child"
																},
																{
																	"value": "parent",
																	"title": "Parent"
																},
																{
																	"value": "gChild",
																	"title": "Grandchild"
																},
																{
																	"value": "gParent",
																	"title": "Grand parent"
																},
																{
																	"value": "sibling",
																	"title": "Sibling,"
																},
																{
																	"value": "other",
																	"title": "Other"
																}
															]
														},
														{
															"type": "TEXT",
															"id": "iSurName",
															"title": "Surname (as shown in ID)",
															"mandatory": true,
															"detailSeq": 2
														}
													]
												}
											]
										},
										{
											"id": "personalDetails",
											"title": "Details of Proposer",
											"type": "BLOCK",
											"detailSeq": 2,
											"items": [
												{
													"type": "HBOX",
													"detailSeq": 1,
													"items": [
														{
															"type": "TEXT",
															"id": "lastName",
															"title": "Given Name (as shown in ID)",
															"mandatory": true,
															"detailSeq": 1
														},
														{
															"type": "TEXT",
															"id": "othName",
															"title": "English or other name",
															"mandatory": true,
															"detailSeq": 2
														}
													]
												},
												{
													"type": "HBOX",
													"detailSeq": 2,
													"items": [
														{
															"type": "TEXT",
															"id": "hanyuPinyinName",
															"title": "Han Yu Pin Yin Name",
															"mandatory": true,
															"detailSeq": 1
														},
														{
															"type": "TEXT",
															"id": "fullName",
															"title": "Name",
															"mandatory": true,
															"detailSeq": 2
														}
													]
												},
												{
													"type": "HBOX",
													"detailSeq": 3,
													"items": [
														{
															"type": "PICKER",
															"id": "nation",
															"title": "Nationality",
															"mandatory": true,
															"detailSeq": 1,
															"options": [
																{
																	"value": "Malaysian",
																	"title": "Malaysian"
																}
															]
														},
														{
															"type": "TEXT",
															"id": "prStatus",
															"title": "Singapore PR Status",
															"mandatory": true,
															"detailSeq": 2,
															"options": [
																{
																	"value": "A",
																	"title": "B"
																}
															]
														}
													]
												},
												{
													"type": "HBOX",
													"detailSeq": 4,
													"items": [
														{
															"type": "PICKER",
															"id": "pass",
															"title": "ID Document Type",
															"mandatory": true,
															"detailSeq": 1,
															"value": "nric",
															"options": [
																{
																	"value": "passport",
																	"title": "passport"
																},
																{
																	"value": "nric",
																	"title": "NRIC"
																},
																{
																	"value": "fin",
																	"title": "FIN No"
																},
																{
																	"value": "other",
																	"title": "Other"
																}
															]
														},
														{
															"type": "TEXT",
															"id": "idDocTypeOther",
															"title": "Other ID Type Name",
															"detailSeq": 2,
															"trigger": {
																"id": "idType",
																"type": "showIfEqual",
																"value": "other"
															}
														}
													]
												},
												{
													"type": "HBOX",
													"detailSeq": 5,
													"items": [
														{
															"type": "TEXT",
															"id": "idCardNo",
															"title": "ID Number",
															"mandatory": true,
															"detailSeq": 1
														},
														{
															"type": "PICKER",
															"id": "gender",
															"title": "Gender",
															"mandatory": true,
															"detailSeq": 2,
															"options": [
																{
																	"value": "F",
																	"title": "Female"
																},
																{
																	"value": "M",
																	"title": "Male"
																}
															]
														}
													]
												},
												{
													"type": "HBOX",
													"detailSeq": 6,
													"items": [
														{
															"type": "DATEPICKER",
															"id": "dob",
															"title": "Date of Birth(DD/MM/YYYY)",
															"mandatory": true,
															"detailSeq": 1
														},
														{
															"type": "PICKER",
															"id": "marital",
															"title": "Marital Status",
															"mandatory": true,
															"detailSeq": 1,
															"options": [
																{
																	"value": "S",
																	"title": "Single"
																},
																{
																	"value": "M",
																	"title": "Married"
																}
															]
														}
													]
												},
												{
													"type": "HBOX",
													"detailSeq": 7,
													"items": [
														{
															"type": "TEXT",
															"id": "email",
															"title": "Email",
															"mandatory": false,
															"detailSeq": 1
														},
														{
															"type": "HBOX",
															"detailSeq": 2,
															"items": [
																{
																	"type": "PICKER",
																	"id": "mobileCountryCode",
																	"mandatory": false,
																	"detailSeq": 1,
																	"options": [
																		{
																			"value": "65",
																			"title": "+65"
																		}
																	]
																},
																{
																	"type": "TEXT",
																	"id": "mobileNo",
																	"subType": "number",
																	"mandatory": false,
																	"detailSeq": 2
																}
															]
														}
													]
												}
											]
										},
										{
											"id": "profDetails",
											"title": "Professional Details of Life Assured",
											"type": "BLOCK",
											"detailSeq": 2,
											"items": [
												{
													"type": "HBOX",
													"detailSeq": 1,
													"items": [
														{
															"type": "TEXT",
															"id": "workPlace",
															"title": "Employer/Business/School",
															"mandatory": true,
															"detailSeq": 1
														},
														{
															"type": "PICKER",
															"subType": "limit",
															"id": "occpCountry",
															"title": "Country of Employer/Business/School",
															"mandatory": true,
															"detailSeq": 2,
															"options": [
																{
																	"value": "MA"
																}
															]
														}
													]
												},
												{
													"type": "HBOX",
													"detailSeq": 3,
													"items": [
														{
															"type": "PICKER",
															"id": "pass",
															"title": "Type of Pass",
															"mandatory": true,
															"detailSeq": 1,
															"options": [
																{
																	"value": "employ",
																	"title": "Employment Pass"
																},
																{
																	"value": "workPermit",
																	"title": "Work Permit"
																},
																{
																	"value": "dependent",
																	"title": "Dependent Pass"
																},
																{
																	"value": "student",
																	"title": "Student"
																},
																{
																	"value": "ltVisit",
																	"title": "Long Term Visit Passt"
																},
																{
																	"value": "sVisit",
																	"title": "Social Visit Pass"
																},
																{
																	"value": "other",
																	"title": "Other"
																}
															]
														},
														{
															"type": "DATEPICKER",
															"id": "passExpDate",
															"title": "Pass Expiry Date (DD/MM/YYYY)",
															"mandatory": true,
															"detailSeq": 2
														}
													]
												},
												{
													"type": "TEXT",
													"id": "idPassTypeOther",
													"title": "Type of pass (Other)",
													"detailSeq": 4,
													"trigger": {
														"id": "pass",
														"type": "showIfEqual",
														"value": "other"
													}
												},
												{
													"type": "HBOX",
													"detailSeq": 5,
													"items": [
														{
															"type": "PICKER",
															"id": "occupation",
															"title": "Occupation",
															"mandatory": true,
															"detailSeq": 1,
															"options": [
																{
																	"value": "A",
																	"title": "A"
																}
															]
														},
														{
															"type": "TEXT",
															"id": "mthIncome",
															"title": "Monthly Income/Allowance SGD",
															"mandatory": true,
															"detailSeq": 2
														}
													]
												}
											]
										},
										{
											"id": "sectionAdds",
											"title": "Residential Address of Proposer",
											"type": "BLOCK",
											"detailSeq": 3,
											"items": [
												{
													"type": "HBOX",
													"detailSeq": 1,
													"items": [
														{
															"type": "TEXT",
															"id": "mAddrCountry",
															"title": "Country",
															"detailSeq": 1
														},
														{
															"type": "TEXT",
															"id": "postalCode",
															"title": "Postal Code",
															"detailSeq": 2,
															"subType": "postalcode",
															"countryAllowed": "mAddrCountry",
															"mapping": {
																"bldgNo": "mAddrBlock,12",
																"bldgName": "mAddrEstate,40",
																"streetName": "mAddrStreet,24"
															}
														}
													]
												},
												{
													"type": "HBOX",
													"detailSeq": 2,
													"items": [
														{
															"type": "TEXT",
															"id": "mAddrBlock",
															"title": "Block/House Number",
															"detailSeq": 1
														},
														{
															"type": "TEXT",
															"id": "mAddrStreet",
															"title": "PStreet/Road Name",
															"detailSeq": 2
														}
													]
												},
												{
													"type": "HBOX",
													"detailSeq": 3,
													"items": [
														{
															"type": "TEXT",
															"id": "mAddrUnit",
															"title": "Unit Number",
															"detailSeq": 1
														},
														{
															"type": "TEXT",
															"id": "mAddrEstate",
															"title": "Building/Estate Name",
															"detailSeq": 2
														}
													]
												},
												{
													"type": "HBOX",
													"detailSeq": 3,
													"items": [
														{
															"type": "TEXT",
															"id": "mAddrCity",
															"title": "City/State",
															"detailSeq": 1
														}
													]
												},
												{
													"type": "QRADIOGROUP",
													"id": "isSameAddrs",
													"title": "Is your Residential Address same as mailing address?",
													"options": [
														{
															"value": "Y",
															"title": "Yes"
														},
														{
															"value": "N",
															"title": "No"
														}
													]
												}
											]
										},
										{
											"id": "mailAddrs",
											"title": "Mailing Address of Proposer",
											"type": "BLOCK",
											"detailSeq": 3,
											"trigger": {
												"id": "isSameAddrs",
												"type": "showIfEqual",
												"value": "N"
											},
											"items": [
												{
													"type": "HBOX",
													"detailSeq": 1,
													"items": [
														{
															"type": "TEXT",
															"id": "mAddrCountry",
															"title": "Country",
															"detailSeq": 1
														},
														{
															"type": "TEXT",
															"id": "mPostCode",
															"title": "Postal Code",
															"detailSeq": 2
														}
													]
												},
												{
													"type": "HBOX",
													"detailSeq": 2,
													"items": [
														{
															"type": "TEXT",
															"id": "mAddrBlock",
															"title": "Block/House Number",
															"detailSeq": 1
														},
														{
															"type": "TEXT",
															"id": "mAddrStreet",
															"title": "PStreet/Road Name",
															"detailSeq": 2
														}
													]
												},
												{
													"type": "HBOX",
													"detailSeq": 3,
													"items": [
														{
															"type": "TEXT",
															"id": "mAddrUnit",
															"title": "Unit Number",
															"detailSeq": 1
														},
														{
															"type": "TEXT",
															"id": "mAddrEstate",
															"title": "Building/Estate Name",
															"detailSeq": 2
														}
													]
												},
												{
													"type": "HBOX",
													"detailSeq": 3,
													"items": [
														{
															"type": "TEXT",
															"id": "mAddrCity",
															"title": "City/State",
															"detailSeq": 1
														}
													]
												}
											]
										}
									]
								}
							]
						}
					]
				},
				{
					"title": "Residency & Insurance Info",
					"detailSeq": 2,
					"type": "menuItem",
					"items": [
						{
							"type": "tabs",
							"items": [
								{
									"id": "Proposer",
									"title": "Proposer",
									"subType": "proposer",
									"items": [
										{
											"title": "Residency Questions",
											"type": "BLOCK",
											"detailSeq": 1,
											"items": [
												{
													"type": "QTITLE",
													"title": "A <Singapore Citizen>",
													"id": "tSingaporeC"
												},
												{
													"type": "QRADIOGROUP",
													"id": "currentState",
													"title": "I am currently:",
													"options": [
														{
															"value": "resided",
															"title": "i)  residing in Singapore"
														},
														{
															"value": "outside",
															"needToHighlight": true,
															"title": "ii) residing outside Singapore: I have resided outside Singapore continuously for {{less than 5 years}} preceding the date of proposal."
														},
														{
															"value": "outside5",
															"needToHighlight": true,
															"title": "iii) residing outside Singapore: I have resided outside Singapore continuously for {{5 years or more}} preceding the date of proposal. "
														}
													]
												},
												{
													"type": "QTITLE",
													"title": "B <Singapore PR / Employment Pass / Work Permit>",
													"id": "tSiPrB"
												},
												{
													"type": "QRADIOGROUP",
													"id": "resided",
													"title": "1. Have you resided in Singapore for 183 days or more in the last 12 months preceding the date of proposal?",
													"value": "",
													"options": [
														{
															"value": "Y",
															"title": "Yes"
														},
														{
															"value": "N",
															"title": "No"
														}
													]
												},
												{
													"type": "QRADIOGROUP",
													"id": "pReside",
													"title": "2. Do you intend to reside in Singapore on a permanent basis?",
													"value": "Y",
													"options": [
														{
															"value": "Y",
															"title": "Yes"
														},
														{
															"value": "N",
															"title": "No"
														}
													]
												},
												{
													"type": "QTITLE",
													"title": "C <Dependent / Student Pass / Long Term Visit Pass>",
													"id": "tSiPrC"
												},
												{
													"type": "QRADIOGROUP",
													"id": "yReside",
													"title": "1.  Have you resided in Singapore for more than 90 days in the last 12 months preceding the date of proposal?",
													"value": "",
													"options": [
														{
															"value": "Y",
															"title": "Yes"
														},
														{
															"value": "N",
															"title": "No"
														}
													]
												},
												{
													"type": "QTITLE",
													"title": "D <Others>",
													"id": "tSiPrD"
												},
												{
													"type": "CheckBox",
													"id": "oReside",
													"title": "If you do not belong to any of the above categories, please tick here."
												}
											]
										},
										{
											"title": "Foreigner Questions",
											"type": "BLOCK",
											"detailSeq": 2,
											"items": [
												{
													"type": "QTITLE",
													"title": "When did you first arrive in Singapore (excluding holidays of less than 3 months)?"
												},
												{
													"type": "DATEPICKER",
													"id": "faDate"
												},
												{
													"type": "QTITLE",
													"id": "familyResD",
													"title": "2. Where do you immediate family member currently reside?"
												},
												{
													"type": "HBOX",
													"items": [
														{
															"title": "Country",
															"type": "PICKER",
															"id": "familyResCountry",
															"optionsTable": "countryList",
															"options": [
																{
																	"value": "hk",
																	"title": "Hong Kong"
																},
																{
																	"value": "kl",
																	"title": "Kowloon"
																}
															]
														},
														{
															"title": "City",
															"type": "TEXT",
															"id": "familyResCity"
														}
													]
												},
												{
													"type": "QTITLE",
													"id": "5yearDesc",
													"title": "Please provide details of your residence over the last five years:"
												},
												{
													"type": "table",
													"id": "reside5yrs",
													"allowEdit": true,
													"min": 5,
													"title": "Please provide details of your residence over the last five years:",
													"items": [
														{
															"title": "From (mm/yyyy)",
															"presentation": "res5FrmM/res5FrmY",
															"type": "HBOX",
															"items": [
																{
																	"id": "res5FrmM",
																	"type": "PICKER",
																	"optionsTable": "months",
																	"options": [
																		{
																			"value": "01",
																			"title": "01"
																		},
																		{
																			"value": "02",
																			"title": "02"
																		},
																		{
																			"value": "03",
																			"title": "03"
																		},
																		{
																			"value": "04",
																			"title": "04"
																		},
																		{
																			"value": "05",
																			"title": "05"
																		},
																		{
																			"value": "06",
																			"title": "06"
																		},
																		{
																			"value": "07",
																			"title": "07"
																		},
																		{
																			"value": "08",
																			"title": "08"
																		},
																		{
																			"value": "09",
																			"title": "09"
																		},
																		{
																			"value": "10",
																			"title": "10"
																		},
																		{
																			"value": "11",
																			"title": "11"
																		},
																		{
																			"value": "12",
																			"title": "12"
																		}
																	]
																},
																{
																	"id": "res5FrmY",
																	"type": "PICKER",
																	"optionsTable": "years",
																	"options": [
																		{
																			"value": "2017",
																			"title": "2017"
																		},
																		{
																			"value": "2016",
																			"title": "2016"
																		}
																	]
																}
															]
														},
														{
															"title": "From (mm/yyyy)",
															"presentation": "res5ToM/res5ToY",
															"type": "HBOX",
															"detailSeq": 1,
															"items": [
																{
																	"id": "res5ToM",
																	"type": "PICKER",
																	"optionsTable": "months",
																	"options": [
																		{
																			"value": "01",
																			"title": "01"
																		},
																		{
																			"value": "02",
																			"title": "02"
																		},
																		{
																			"value": "03",
																			"title": "03"
																		},
																		{
																			"value": "04",
																			"title": "04"
																		},
																		{
																			"value": "05",
																			"title": "05"
																		},
																		{
																			"value": "06",
																			"title": "06"
																		},
																		{
																			"value": "07",
																			"title": "07"
																		},
																		{
																			"value": "08",
																			"title": "08"
																		},
																		{
																			"value": "09",
																			"title": "09"
																		},
																		{
																			"value": "10",
																			"title": "10"
																		},
																		{
																			"value": "11",
																			"title": "11"
																		},
																		{
																			"value": "12",
																			"title": "12"
																		}
																	]
																},
																{
																	"id": "res5ToY",
																	"type": "PICKER",
																	"optionsTable": "years",
																	"options": [
																		{
																			"value": "2017",
																			"title": "2017"
																		},
																		{
																			"value": "2016",
																			"title": "2016"
																		}
																	]
																}
															]
														},
														{
															"id": "res5Country",
															"type": "PICKER",
															"subtype": "limit",
															"title": "Country of Residence",
															"optionsTable": "countryList",
															"detailSeq": 2,
															"options": [
																{
																	"value": "hk",
																	"title": "Hong Kong"
																},
																{
																	"value": "sg",
																	"title": "Singapore"
																}
															]
														},
														{
															"type": "TABLE-BLOCK",
															"detailSeq": 3,
															"title": "City of Residence",
															"presentation": "res5City",
															"items": [
																{
																	"id": "res5City",
																	"type": "TEXT",
																	"title": "City of Residence",
																	"detailSeq": 1,
																	"length": 50
																},
																{
																	"id": "res5CityDrn",
																	"type": "TEXT",
																	"subType": "number",
																	"title": "Duration of Stay",
																	"detailSeq": 2,
																	"length": 5
																},
																{
																	"id": "res5CityFrq",
																	"type": "TEXT",
																	"subType": "number",
																	"title": "Frequency (per year)",
																	"detailSeq": 3,
																	"length": 5
																}
															]
														},
														{
															"type": "table-block",
															"title": "Reason",
															"presentation": "res5Reason",
															"items": [
																{
																	"id": "res5Reason",
																	"type": "QRADIOGROUP",
																	"detailSeq": 4,
																	"options": [
																		{
																			"title": "Permanent Residence",
																			"value": "permanent"
																		},
																		{
																			"title": "Business / Work",
																			"value": "work"
																		},
																		{
																			"title": "Study",
																			"value": "study"
																		},
																		{
																			"title": "Country of birth",
																			"value": "cob"
																		},
																		{
																			"title": "Place where family members or relatives residing",
																			"value": "family"
																		},
																		{
																			"title": "Immigration",
																			"value": "immigrate"
																		},
																		{
																			"title": "Visit family/relatives/friends",
																			"value": "visit"
																		},
																		{
																			"title": "Others",
																			"value": "others"
																		}
																	]
																},
																{
																	"type": "TEXT",
																	"title": "Please specify reason",
																	"id": "res5ReasonOther",
																	"length": 50,
																	"detailSeq": 4,
																	"trigger": {
																		"id": "res5Reason",
																		"type": "showIfEqual",
																		"value": "others"
																	}
																}
															]
														}
													]
												},
												{
													"type": "QRADIOGROUP",
													"id": "hasTravelPlans",
													"title": "In the next 2 years, do you expect to go abroad (outside the current country of residence) for any future residency or travel plans? ",
													"value": "Y",
													"options": [
														{
															"value": "Y",
															"title": "Yes"
														},
														{
															"value": "N",
															"title": "No"
														}
													]
												},
												{
													"type": "table",
													"id": "travelPlans",
													"allowEdit": true,
													"trigger": {
														"id": "hasTravelPlans",
														"type": "showIfEqual",
														"value": "Y"
													},
													"items": [
														{
															"id": "travlCountry",
															"title": "Country",
															"type": "PICKER",
															"optionsTable": "countryList",
															"detailSeq": 1,
															"options": [
																{
																	"value": "hk",
																	"title": "Hong Kong"
																},
																{
																	"value": "sg",
																	"title": "Singapore"
																}
															]
														},
														{
															"id": "travlCity",
															"type": "TEXT",
															"title": "City",
															"detailSeq": 2,
															"length": 50
														},
														{
															"id": "travlCityDrn",
															"type": "TEXT",
															"subType": "number",
															"title": "Duration of Stay",
															"detailSeq": 3,
															"length": 5
														},
														{
															"id": "travlCityFrq",
															"type": "TEXT",
															"subType": "number",
															"title": "Frequency (per year)",
															"detailSeq": 4,
															"length": 5
														},
														{
															"type": "block",
															"title": "Reason",
															"presentation": "travlReason",
															"items": [
																{
																	"id": "travlReason",
																	"type": "QRADIOGROUP",
																	"detailSeq": 4,
																	"options": [
																		{
																			"title": "Permanent Residence",
																			"value": "permanent"
																		},
																		{
																			"title": "Business / Work",
																			"value": "work"
																		},
																		{
																			"title": "Study",
																			"value": "study"
																		},
																		{
																			"title": "Country of birth",
																			"value": "cob"
																		},
																		{
																			"title": "Place where family members or relatives residing",
																			"value": "family"
																		},
																		{
																			"title": "Immigration",
																			"value": "immigrate"
																		},
																		{
																			"title": "Visit family/relatives/friends",
																			"value": "visit"
																		},
																		{
																			"title": "Others",
																			"value": "others"
																		}
																	]
																},
																{
																	"type": "TEXT",
																	"title": "Please specify reason",
																	"id": "travlReasonOther",
																	"length": 50,
																	"detailSeq": 4,
																	"trigger": {
																		"id": "travlReason",
																		"type": "showIfEqual",
																		"value": "others"
																	}
																}
															]
														}
													]
												}
											]
										},
										{
											"type": "BLOCK",
											"title": "Details of Previous and Concurrent Policies",
											"items": [
												{
													"id": "havExtPlans",
													"title": "1. Do you have any existing life insurance policies or other investment products?",
													"type": "QRADIOGROUP",
													"detailSeq": 1,
													"options": [
														{
															"value": "Y",
															"title": "Yes"
														},
														{
															"value": "N",
															"title": "No"
														}
													]
												},
												{
													"id": "havPndinApp",
													"title": "2. Do you have any pending or concurrent insurance application?",
													"type": "QRADIOGROUP",
													"detailSeq": 2,
													"options": [
														{
															"value": "Y",
															"title": "Yes"
														},
														{
															"value": "N",
															"title": "No"
														}
													]
												},
												{
													"id": "isProslReplace",
													"title": "3. Is this proposal to replace or intended to replace any life insurance policy or other investment product with AXA Insurance Pte Ltd or any other financial institution such as an insurance company or bank?",
													"type": "QRADIOGROUP",
													"detailSeq": 3,
													"options": [
														{
															"value": "Y",
															"title": "Yes"
														},
														{
															"value": "N",
															"title": "No"
														}
													]
												},
												{
													"type": "PARAGRAPH",
													"id": "pWarning",
													"title": "WARNING NOTE:",
													"content": "<p>It is usually disadvantageous to replace an existing life insurance policy or other investment product with a new one. Some of the factors to consider:</p><p>1. You may suffer a penalty for terminating the original policy or other investment product.</p><p>2. You may incur transaction costs without gaining any real benefit from replacing the policy or other investment product.</p><p>3. You may not be insurable on standard terms or may have to pay a higher premium in view of higher age or the financial benefits accumulated over the years may be lost.</p><p>In your own interest, we would advise that you consult your own financial consultant before making a final decision. Hear from both sides and make a careful comparison to ensure that you are making a decision that is in your best interest.</p>",
													"detailSeq": 4,
													"paragraphType": "warningWithNote",
													"align": "left"
												}
											]
										}
									]
								},
								{
									"id": "insured",
									"title": "insurer",
									"subType": "insured",
									"items": [
										{
											"title": "Residency Questions",
											"type": "BLOCK",
											"detailSeq": 1,
											"items": [
												{
													"type": "QRADIOGROUP",
													"id": "resided",
													"title": "1. Have you resided in Singapore for 183 days or more in the last 12 months preceding the date of proposal?",
													"options": [
														{
															"value": "Y",
															"title": "Yes"
														},
														{
															"value": "N",
															"title": "No"
														}
													]
												},
												{
													"type": "QRADIOGROUP",
													"id": "permanentReside",
													"title": "2. Do you intend to reside in Singapore on a permanent basis?",
													"options": [
														{
															"value": "Y",
															"title": "Yes"
														},
														{
															"value": "N",
															"title": "No"
														}
													]
												}
											]
										},
										{
											"title": "Foreigner Questions",
											"type": "BLOCK",
											"detailSeq": 2,
											"items": [
												{
													"type": "QTITLE",
													"id": "curPermResD",
													"title": "1. Where is your current permanent place of residence?"
												},
												{
													"type": "TEXT",
													"id": "curPermRes"
												},
												{
													"type": "QTITLE",
													"id": "familyResD",
													"title": "2. Where do you immediate family member currently reside?"
												},
												{
													"type": "TEXT",
													"id": "familyRes"
												},
												{
													"type": "QTITLE",
													"id": "resCountryD",
													"title": "3. In which country(ies) do you have a permanent residency status?"
												},
												{
													"type": "TEXT",
													"id": "resCountry"
												},
												{
													"type": "QTITLE",
													"id": "arriveDateD",
													"title": "4. When did you first arrive in Singapore(excluding holidays of less than 3 months)?"
												},
												{
													"type": "TEXT",
													"id": "arriveDate"
												},
												{
													"type": "QTITLE",
													"id": "resDetailsD",
													"title": "5. Please provide details of your residence over the last 5 years"
												},
												{
													"type": "TEXT",
													"id": "resDetails"
												},
												{
													"type": "QTITLE",
													"id": "futurePlansD",
													"title": "6. Please provide details of your next destination o any future residency or travel plans in the next 2 years."
												},
												{
													"type": "TEXT",
													"id": "futurePlans"
												}
											]
										}
									]
								}
							]
						}
					]
				},
				{
					"title": "Insurability Information",
					"type": "menuItem",
					"detailSeq": 3
				}
			]
		},
		{
			"type": "section",
			"detailSeq": 1,
			"items": [
				{
					"id": "planDetails",
					"title": " Plan Details",
					"type": "menuItem",
					"detailSeq": 1,
					"items": [
						{
							"type": "BLOCK",
							"title": "",
							"detailSeq": 1,
							"items": [
								{
									"type": "heading",
									"id": "planTypeName",
									"detailSeq": 1
								},
								{
									"type": "table",
									"id": "planList",
									"allowEdit": false,
									"items": [
										{
											"type": "HBOX",
											"title": "Plan / Rider Name",
											"presentation": "planCover@covName",
											"items": [
												{
													"type": "image",
													"id": "planCover"
												},
												{
													"type": "TEXT",
													"id": "covName"
												}
											]
										},
										{
											"type": "TEXT",
											"id": "sumInsured",
											"title": "Sum Assured"
										},
										{
											"type": "TEXT",
											"id": "policyTerm",
											"title": "Cover Term"
										},
										{
											"type": "TEXT",
											"id": "premTerm",
											"title": "Premium Payment Term"
										}
									]
								}
							]
						},
						{
							"type": "block",
							"title": "Other Plan Details",
							"items": [
								{
									"type": "HBOX",
									"items": [
										{
											"id": "ccy",
											"title": "Policy Currency",
											"type": "READONLY",
											"options": [
												{
													"value": "SGD",
													"title": "Singapore Dollor"
												},
												{
													"value": "USD",
													"title": "US Dollor"
												}
											]
										},
										{
											"id": "isBackDate",
											"title": "Backdating",
											"type": "READONLY",
											"options": [
												{
													"value": "Y",
													"title": "Yes"
												},
												{
													"value": "N",
													"title": "No"
												}
											]
										}
									]
								},
								{
									"type": "HBOX",
									"items": [
										{
											"id": "paymentMode",
											"title": "Payment Mode",
											"type": "READONLY",
											"options": [
												{
													"value": "M",
													"title": "month"
												},
												{
													"value": "Q",
													"title": "quartar"
												},
												{
													"value": "S",
													"title": "semi-annual"
												},
												{
													"value": "Y",
													"title": "annual"
												},
												{
													"value": "L",
													"title": "single"
												}
											]
										},
										{
											"id": "comnceDate",
											"title": "Selected Commencement Date (DD/MM/YYYY)",
											"type": "READONLY"
										}
									]
								},
								{
									"type": "HBOX",
									"items": [
										{
											"id": "totalPrem",
											"title": "Total Premium Account (including riders if any)",
											"type": "READONLY"
										},
										{
											"id": "discount",
											"title": "Discount (*)",
											"type": "READONLY",
											"options": [
												{
													"value": "Y",
													"title": "Yes"
												},
												{
													"value": "N",
													"title": "No"
												}
											]
										}
									]
								},
								{
									"id": "discountNote",
									"content": "<p>(*) The discounted premium rate for Early Stage CritiCare is offered only with purchase of a regular/single premium basic policy from AXA Insurance Pte Ltd in the past 12 months. For concurrent purchase, Early Stage CritiCare will not be offered at a discounted rate if the application for regular/single premium basic policy is rejected.</p>",
									"type": "paragraph",
									"paragraphType": "warning",
									"align": "left"
								},
								{
									"type": "HBOX",
									"items": [
										{
											"id": "retireAge",
											"title": "Selected Retirement Age",
											"type": "READONLY"
										},
										{
											"id": "payTerm",
											"title": "Payout Term",
											"type": "READONLY"
										}
									]
								},
								{
									"type": "HBOX",
									"items": [
										{
											"id": "cpOption",
											"title": "Guaranteed Cash Payout Option",
											"type": "READONLY"
										}
									]
								}
							]
						}
					]
				}
			]
		},
		{
			"type": "section",
			"detailSeq": 1,
			"items": [
				{
					"title": "Declaration",
					"type": "menuItem",
					"detailSeq": 1,
					"items": [
						{
							"type": "tabs",
							"items": [
								{
									"title": "Proposer",
									"subType": "proposer",
									"items": [
										{
											"type": "BLOCK",
											"title": "Bankruptcy",
											"detailSeq": 1,
											"items": [
												{
													"type": "QRADIOGROUP",
													"id": "BANKRUPTCY01",
													"title": "Are you an undischarged bankrupt? ",
													"detailSeq": 1,
													"options": [
														{
															"value": "Y",
															"title": "Yes"
														},
														{
															"value": "N",
															"title": "No"
														}
													]
												}
											]
										},
										{
											"type": "BLOCK",
											"title": "Politically Exposed Person (PEP)",
											"detailSeq": 2,
											"items": [
												{
													"type": "QRADIOGROUP",
													"id": "PEP01",
													"title": "Are you a current/former Political Exposed Person (PEP) or a family member (parent, step parent, child, step-child, adopted child, spouse, sibling, step-sibling and adopted sibling) or close associate (closely connected either socially or professionally) of a PEP?  ",
													"detailSeq": 1,
													"options": [
														{
															"value": "Y",
															"title": "Yes"
														},
														{
															"value": "N",
															"title": "No"
														}
													]
												},
												{
													"type": "table",
													"allowEdit": true,
													"hasBorder": true,
													"items": [
														{
															"id": "PEP01a",
															"type": "TEXT",
															"title": "Relationship with the PEP"
														},
														{
															"id": "PEP01b",
															"type": "TEXT",
															"title": "Full Name of the PEP"
														},
														{
															"id": "PEP01c",
															"type": "TEXT",
															"title": "Position held by the PEP"
														},
														{
															"id": "PEP01d",
															"type": "TEXT",
															"optionsTable": "countryList",
															"title": "Country where he/she is the PEP"
														},
														{
															"type": "TABLE-BLOCK-T",
															"title": "Source of Funds",
															"presentation": "PEP01e1$PEP01e2$PEP01e3$PEP01e4$PEP01e5$PEP01e7",
															"items": [
																{
																	"title": "Salary/Commission",
																	"id": "PEP01e1",
																	"type": "CHECKBOX"
																},
																{
																	"type": "CHECKBOX",
																	"title": "Gift/Inheritance",
																	"id": "PEP01e2"
																},
																{
																	"type": "CHECKBOX",
																	"title": "Proceeds from sale of assets ",
																	"id": "PEP01e3"
																},
																{
																	"type": "CHECKBOX",
																	"title": "Business Income",
																	"id": "PEP01e4"
																},
																{
																	"type": "CHECKBOX",
																	"title": "Proceeds from maturity/surrender of a policy",
																	"id": "PEP01e5"
																},
																{
																	"type": "CHECKBOX",
																	"title": "Others",
																	"id": "PEP01e6"
																},
																{
																	"id": "PEP01e7",
																	"type": "text",
																	"max": 50,
																	"title": "Please specify the Source of Funds",
																	"trigger": {
																		"id": "PEP01e6",
																		"type": "showIfEqual",
																		"value": "Y"
																	}
																}
															]
														},
														{
															"type": "TABLE-BLOCK-T",
															"title": "Source of Wealth",
															"presentation": "PEP01f1$PEP01f2$PEP01f3$PEP01f4$PEP01f5$PEP01f7",
															"items": [
																{
																	"title": "Salary/Commission",
																	"id": "PEP01f1",
																	"type": "CHECKBOX"
																},
																{
																	"type": "CHECKBOX",
																	"title": "Gift/Inheritance",
																	"id": "PEP01f2"
																},
																{
																	"type": "CHECKBOX",
																	"title": "Proceeds from sale of assets ",
																	"id": "PEP01f3"
																},
																{
																	"type": "CHECKBOX",
																	"title": "Business Income",
																	"id": "PEP01f4"
																},
																{
																	"type": "CHECKBOX",
																	"title": "Proceeds from maturity/surrender of a policy",
																	"id": "PEP01f5"
																},
																{
																	"type": "CHECKBOX",
																	"title": "Others",
																	"id": "PEP01f6"
																},
																{
																	"id": "PEP01f7",
																	"type": "text",
																	"max": 50,
																	"title": "Please specify the Source of Funds",
																	"trigger": {
																		"id": "PEP01f6",
																		"type": "showIfEqual",
																		"value": "Y"
																	}
																}
															]
														}
													]
												}
											]
										},
										{
											"type": "BLOCK",
											"title": "Foreign Account Tax Compliance Act (FATCA) and Common Reporting Standard (CRS) Tax Residency",
											"detailSeq": 3,
											"items": [
												{
													"id": "FATCA01",
													"type": "QRADIOGROUP",
													"title": "Is the Proposer a tax resident of Singapore?",
													"detailSeq": 1,
													"options": [
														{
															"value": "Y",
															"title": "Yes"
														},
														{
															"value": "N",
															"title": "No"
														}
													]
												},
												{
													"id": "FATCA02",
													"type": "QRADIOGROUP",
													"title": "Is the Proposer a citizen or tax resident of United States (US)?",
													"detailSeq": 2,
													"options": [
														{
															"value": "Y",
															"title": "Yes"
														},
														{
															"value": "N",
															"title": "No"
														}
													]
												},
												{
													"id": "FATCA03",
													"type": "TEXT",
													"max": 15,
													"title": "Please provide Taxpayer Identification Number (TIN)",
													"detailSeq": 3,
													"trigger": [
														{
															"id": "FATCA02",
															"type": "showIfEqual",
															"value": "Y"
														},
														{
															"id": "FATCA03",
															"type": "showIfEqual",
															"value": "Y"
														}
													]
												},
												{
													"id": "CRS01",
													"type": "QRADIOGROUP",
													"title": "Other than Singapore and US, is the Proposer a tax resident of other countries/jurisdictions?",
													"detailSeq": 4,
													"options": [
														{
															"value": "Y",
															"title": "Yes"
														},
														{
															"value": "N",
															"title": "No"
														}
													]
												},
												{
													"type": "table",
													"allowEdit": true,
													"hasBorder": true,
													"id": "CRS01Table",
													"trigger": {
														"id": "CRS01",
														"type": "showIfEqual",
														"value": "Y"
													},
													"items": [
														{
															"id": "CRS01a",
															"type": "picker",
															"subType": "limit",
															"title": "Country/Jurisdiction of Tax Residency",
															"optionsTable": "countryList",
															"detailSeq": 1,
															"options": [
																{
																	"value": "HK",
																	"title": "Hong Kong"
																},
																{
																	"value": "usa",
																	"title": "United State"
																}
															]
														},
														{
															"id": "CRS01b",
															"type": "text",
															"detailSeq": 2,
															"title": "Tax Identification Number (TIN)"
														},
														{
															"id": "CRS01c",
															"type": "QRADIOGROUP",
															"title": "Reason (if TIN is not available, please select appropriate Reason)",
															"detailSeq": 3,
															"trigger": {
																"id": "CRS01b",
																"type": "empty"
															},
															"options": [
																{
																	"value": "A",
																	"title": "Reason A – The country/jurisdiction where the Proposer is resident does not issue TINs to its residents. "
																},
																{
																	"value": "B",
																	"title": "Reason B – The Proposer is otherwise unable to obtain a TIN or equivalent number due to reason/s. Reasons to be provided."
																}
															]
														},
														{
															"id": "CRS01d",
															"type": "text",
															"title": "Please provide further details if Reason B is selected",
															"trigger": {
																"id": "CRS01c",
																"type": "showIfEqual",
																"value": "B"
															}
														}
													]
												}
											]
										},
										{
											"type": "BLOCK",
											"title": "Trusted Individual",
											"detailSeq": 4,
											"items": [
												{
													"id": "TRUSTED_IND01",
													"title": "Language the Financial Consultant has conversed to conduct the Financial Needs Analysis and explained the recommendations and application form(s).",
													"type": "picker",
													"options": [
														{
															"value": "en",
															"title": "English"
														},
														{
															"value": "mandarin",
															"title": "Mandarin"
														},
														{
															"value": "malay",
															"title": "Malay"
														},
														{
															"value": "tamil",
															"title": "Tamil"
														},
														{
															"value": "other",
															"title": "Other"
														}
													]
												},
												{
													"id": "TRUSTED_IND02",
													"type": "text",
													"title": "Please specify the Language if other",
													"trigger": {
														"id": "TRUSTED_IND01",
														"type": "showIfEqual",
														"value": "Y"
													}
												},

												{
													"type":"FBOX",
													"items":[
														{
															"id": "TRUSTED_IND04",
															"type": "checkbox"
														},
														{
															"id": "TRUSTED_IND031",
															"type": "subText",
															"trigger": {
																"id": "TRUSTED_IND01",
																"type": "showIfEqual",
																"value": "other"
															},
															"content": "I, <fna/trustIndName> of NRIC/Passport: <fna/trustIndIc> acknowledge that I have fulfilled the definition of a Trusted Individual and I am a Trusted Individual to <personalInfo/firstName> <personalInfo/lastName>. I confirm that the Financial Consultant has conversed in <TRUSTED_IND02>  to conduct the Financial Needs Analysis and explained the recommendations and application form(s). I confirm that I understand the explanations and recommendations made by the Financial Consultant and I have translated and explained them to [personalInfo/firstName] <personalInfo/lastName> . "
														},
														{
															"id": "TRUSTED_IND032",
															"type": "subText",
															"trigger": {
																"id": "TRUSTED_IND01",
																"type": "showIfNotEqual",
																"value": "other"
															},
															"content": "I, <fna/trustIndName> of NRIC/Passport: <fna/trustIndIc> acknowledge that I have fulfilled the definition of a Trusted Individual and I am a Trusted Individual to <personalInfo/firstName> <personalInfo/lastName>. I confirm that the Financial Consultant has conversed in <TRUSTED_IND01>  to conduct the Financial Needs Analysis and explained the recommendations and application form(s). I confirm that I understand the explanations and recommendations made by the Financial Consultant and I have translated and explained them to <personalInfo/firstName> <personalInfo/lastName> . "
														}
													]
												}
											]
										},
										{
											"type": "BLOCK",
											"title": "e-policy",
											"detailSeq": 5,
											"items": [
												{
													"id": "EPOLICY01",
													"type": "checkbox",
													"title": "I would also like to receive a copy of my policy documents by mail, aside from my e-policy in MyAXA"
												}
											]
										},
										{
											"type": "BLOCK",
											"title": "Roadshow Declaration",
											"detailSeq": 6,
											"items": [
												{
													"id": "ROADSHOW01",
													"type": "checkbox",
													"detailSeq": 1,
													"title": "Is this case closed at the venue of the roadshow/canvassing or seminar event? "
												},
												{
													"id": "ROADSHOW02",
													"type": "datepicker",
													"detailSeq": 2,
													"title": "Date of Roadshow/Canvassing/Seminar",
													"trigger": {
														"id": "ROADSHOW01",
														"type": "showIfEqual",
														"value": "Y"
													}
												},
												{
													"id": "ROADSHOW03",
													"type": "text",
													"max": 15,
													"detailSeq": 3,
													"title": "Venue where case was closed  ",
													"trigger": {
														"id": "ROADSHOW01",
														"type": "showIfEqual",
														"value": "Y"
													}
												}
											]
										},
										{
											"type": "BLOCK",
											"title": "Source of Funds",
											"detailSeq": 7,
											"items": [
												{
													"id": "FUND_SRC01",
													"type": "QRADIOGROUP",
													"detailSeq": 1,
													"title": "1. Source of Payment",
													"options": [
														{
															"value": "sg",
															"title": "Singapore (e.g. Singapore banks/credit cards)"
														},
														{
															"value": "foreign",
															"title": "Foreign (e.g. overseas banks/credit cards)"
														}
													]
												},
												{
													"id": "FUND_SRC02",
													"type": "picker",
													"detailSeq": 2,
													"optionsTable":"payors",
													"title": "2. Payor's Details",
													"options": [
														{
															"value": "proposal",
															"title": "Peter"
														},
														{
															"value": "insured",
															"title": "Kelvin"
														},
														{
															"value": "other",
															"title": "other"
														}
													]
												},
												{
													"type": "block",
													"detailSeq": 3,
													"trigger": {
														"id": "FUND_SRC02",
														"type": "showIfEqual",
														"value": "other"
													},
													"items": [
														{
															"type": "hbox",
															"detailSeq": 1,
															"items": [
																{
																	"id": "FUND_SRC03",
																	"type": "text",
																	"max": 30,
																	"title": "Surname of Payor (as shown in ID)"
																},
																{
																	"id": "FUND_SRC04",
																	"type": "text",
																	"max": 30,
																	"title": "Given Name of Payor (as shown in ID)"
																}
															]
														},
														{
															"type": "hbox",
															"detailSeq": 2,
															"items": [
																{
																	"id": "FUND_SRC05",
																	"type": "text",
																	"max": 30,
																	"title": "English or other Name of Payor "
																},
																{
																	"id": "FUND_SRC06",
																	"type": "text",
																	"max": 30,
																	"title": "Han Yu Pin Yin Name of Payor"
																}
															]
														},
														{
															"type": "hbox",
															"detailSeq": 3,
															"items": [
																{
																	"id": "FUND_SRC07",
																	"type": "text",
																	"max": 30,
																	"title": "Payor's ID No. "
																},
																{
																	"id": "FUND_SRC08",
																	"type": "picker",
																	"max": 30,
																	"title": "Payor's Nationality or Country of Incorporation",
																	"optionsTable": "masterCountryList",
																	"options": []
																}
															]
														},
														{
															"type": "HBOX",
															"detailSeq": 4,
															"items": [
																{
																	"type": "picker",
																	"id": "FUND_SRC09",
																	"title": "Relationship of Payor to Proposer",
																	"mandatory": false,
																	"detailSeq": 1,
																	"options": [
																		{
																			"value": "spouse",
																			"title": "Spouse"
																		},
																		{
																			"value": "child",
																			"title": "Child"
																		},
																		{
																			"value": "parent",
																			"title": "Parent"
																		},
																		{
																			"value": "gChild",
																			"title": "Grandchild"
																		},
																		{
																			"value": "gParent",
																			"title": "Grand parent"
																		},
																		{
																			"value": "sibling",
																			"title": "Sibling,"
																		},
																		{
																			"value": "other",
																			"title": "Other"
																		}
																	]
																},
																{
																	"type": "HBOX",
																	"detailSeq": 2,
																	"items": [
																		{
																			"type": "PICKER",
																			"id": "FUND_SRC11",
																			"mandatory": false,
																			"detailSeq": 1,
																			"options": [
																				{
																					"value": "65",
																					"title": "+65"
																				}
																			]
																		},
																		{
																			"type": "TEXT",
																			"id": "FUND_SRC12",
																			"subType": "number",
																			"mandatory": false,
																			"detailSeq": 2
																		}
																	]
																}
															]
														},
														{
															"type": "text",
															"id": "FUND_SRC10",
															"detailSeq": 5,
															"maxLength": 20,
															"title": "Other Relationship",
															"trigger": {
																"id": "FUND_SRC09",
																"type": "showIfEqual",
																"value": "other"
															}
														},
														{
															"id": "FUND_SRC13title",
															"title": "Residential/Registered Address",
															"detailSeq": 7
														},
														{
															"type": "hbox",
															"detailSeq": 8,
															"items": [
																{
																	"id": "FUND_SRC13",
																	"type": "PICKER",
																	"title": "Country",
																	"optionsTable": "masterCountryList",
																	"value": "sg",
																	"options": [
																		{
																			"value": "sg",
																			"title": "Singapore"
																		},
																		{
																			"value": "hk",
																			"title": "Hong Kong"
																		}
																	]
																},
																{
																	"id": "FUND_SRC14",
																	"type": "text",
																	"max": 10,
																	"title": "Postal Code"
																}
															]
														},
														{
															"type": "hbox",
															"detailSeq": 9,
															"items": [
																{
																	"id": "FUND_SRC15",
																	"type": "text",
																	"title": "Block/House Number",
																	"max": 12
																},
																{
																	"id": "FUND_SRC16",
																	"type": "text",
																	"max": 24,
																	"title": "Street/Road Name"
																}
															]
														},
														{
															"type": "hbox",
															"detailSeq": 10,
															"items": [
																{
																	"id": "FUND_SRC17",
																	"type": "text",
																	"title": "Unit Number",
																	"value": "#",
																	"max": 11
																},
																{
																	"id": "FUND_SRC18",
																	"type": "text",
																	"max": 11,
																	"title": "Building/ Estate Name"
																}
															]
														},
														{
															"type": "hbox",
															"detailSeq": 11,
															"items": [
																{
																	"id": "FUND_SRC19",
																	"type": "text",
																	"max": 12,
																	"title": "City/State"
																}
															]
														},
														{
															"id": "FUND_SRC20",
															"type": "text",
															"detailSeq": 11,
															"max": 100,
															"title": "Reason for payment by third party"
														},
														{
															"id": "FUND_SRC20_fn",
															"type": "paragraph",
															"detailSeq": 12,
															"paragraphType": "warning",
															"align": "left",
															"content": "<p>For Individual 3rd party payor: Please furnish copy of ID and Proof of Address<br/>For Corporate 3rd party payor: Please furnish copy of business profile showing the shareholders and directors.</p> "
														},
														{
															"type": "BLOCK",
															"detailSeq": 13,
															"items": [
																{
																	"type": "QTITLE",
																	"title": "3. Source of Funds",
																	"id": "FUND_SRC31"
																},
																{
																	"title": "Salary/Commission",
																	"id": "FUND_SRC31a",
																	"type": "CHECKBOX"
																},
																{
																	"type": "CHECKBOX",
																	"title": "Gift/Inheritance",
																	"id": "FUND_SRC31b"
																},
																{
																	"type": "CHECKBOX",
																	"title": "Proceeds from sale of assets ",
																	"id": "FUND_SRC31c"
																},
																{
																	"type": "CHECKBOX",
																	"title": "Business Income",
																	"id": "FUND_SRC31d"
																},
																{
																	"type": "CHECKBOX",
																	"title": "Proceeds from maturity/surrender of a policy",
																	"id": "FUND_SRC31e"
																},
																{
																	"type": "CHECKBOX",
																	"title": "Others",
																	"id": "FUND_SRC31g"
																},
																{
																	"id": "PEP01e7",
																	"type": "text",
																	"max": 50,
																	"title": "Please specify the Source of Funds",
																	"trigger": {
																		"id": "FUND_SRC31f",
																		"type": "showIfEqual",
																		"value": "Y"
																	}
																}
															]
														},
														{
															"type": "BLOCK",
															"title": "4. Source of Wealth",
															"detailSeq": 1,
															"items": [
																{
																	"type": "QTITLE",
																	"title": "Source of Wealth",
																	"id": "FUND_SRC31"
																},
																{
																	"title": "Salary/Commission",
																	"id": "FUND_SRC41a",
																	"type": "CHECKBOX"
																},
																{
																	"type": "CHECKBOX",
																	"title": "Gift/Inheritance",
																	"id": "FUND_SRC41b"
																},
																{
																	"type": "CHECKBOX",
																	"title": "Proceeds from sale of assets ",
																	"id": "FUND_SRC41c"
																},
																{
																	"type": "CHECKBOX",
																	"title": "Business Income",
																	"id": "FUND_SRC41d"
																},
																{
																	"type": "CHECKBOX",
																	"title": "Proceeds from maturity/surrender of a policy",
																	"id": "FUND_SRC41e"
																},
																{
																	"type": "CHECKBOX",
																	"title": "Others",
																	"id": "FUND_SRC41f"
																},
																{
																	"id": "FUND_SRC41g",
																	"type": "text",
																	"max": 50,
																	"title": "Please specify the Source of Funds",
																	"trigger": {
																		"id": "FUND_SRC41f",
																		"type": "showIfEqual",
																		"value": "Y"
																	}
																}
															]
														},
														{
															"id": "LIFESTYLE03c",
															"type": "MonthYearPicker",
															"title": "Date Ceased (MM/YYYY)",
															"optionsTable": "years",
															"options": [
																{
																	"value": "2017",
																	"title": "2017"
																},
																{
																	"value": "2016",
																	"title": "2016"
																},
																{
																	"value": "2015",
																	"title": "2015"
																}
															]
														}
													]
												}
											]
										}
									]
								}
							]
						}
					]
				}
			]
		}
	]
}
