{ 
    "type":"agent",
    "compCode":	"AG",
    "agentCode": "888888",
    "role":	"02",
    "name":	"F8707887Q Synergy",
    "profileId":	"F8707887Q",
    "channel":	"SYNERGY",
    "createDate": "1/7/2017",
    "lastUpdateDate":	"14/7/2017",
    "company":	"Synergy Company",
    "tel": "99888888",
    "mobile": "66888888",
    "email":	"F8707887Q@eabsystems.com",
    "position":	"Financial Advisor",
    "manager": "F8707887Q Synergy(M)",
    "managerCode": "000222"
}
