{
  "annualManageFee": "0.3",
  "releaseDate": "2019-01-02 09:11:59",
  "upd": "SHIRLEY.CHEUNG  on 2019-01-02 09:01:58.0",
  "ref_no": "SGDF",
  "launchDate": "2019-01-02 03:29:10.0",
  "assetClass": "money_market_sgd",
  "type": "fund",
  "version": 1,
  "isMixedAsset": "N",
  "riskRating": 1,
  "expDate": "2047-06-30 23:59:59",
  "compCode": "08",
  "effDate": "2017-07-01 00:00:00",
  "fundCode": "SGDF",
  "ccy": "SGD",
  "create": "SHIRLEY.CHEUNG  on 2019-01-02 03:29:10.0",
  "paymentMethod": ["cash"],
  "fundName": { "zh-Hant": "", "en": "AXA Singapore Dollar Fund (SGD)" },
  "status": "A"
}
