{
	"compCode": "08",
	"create": "johntest22  on 22 May 2017 14:28:42",
	"effDate": "2017-05-22 14:10:34",
	"expDate": "2118-05-22 14:19:47",
	"launchDate": "2017-05-22 14:13:51",
	"type": "fund",
	"releaseDate": "2017-08-16 14:55:59",
	"status": "A",
	"task_desc": "ABFD",
	"upd": "SYSTEM  on 08 Aug 2017 10:33:14",
	"version": 1,
	"ccy": "SGD",
	"ref_no": "DSAF",
	"fundName": {
		"en": "AXA Dynamic Strategies Aggressive Fund (SGD)",
		"zh-Hant": ""
	},
	"fundCode": "DSAF",
	"paymentMethod": ["cash", "srs"],
	"annualManageFee": 1.5,
	"assetClass": "mixed_assets_global",
	"riskRating": 4,
	"isMixedAsset": "Y"
}
