{
	"TYPE": "agent",
	"compCode": "AG",
	"agentCode": "100044",
	"role": "02",
	"name": "F5655869P BROKER",
	"profileId": "F5655869P",
	"channel": "BROKER",
	"createDate": "7/1/2017",
	"lastUpdateDate": "7/14/2017",
	"company": "IFA Singapore",
	"tel": "99100044",
	"mobile": "66100044",
	"email": "hongxu.shao@axa.com.sg",
	"position": "Financial Advisor",
	"manager": "F5655869P BROKER(M)",
	"managerCode": "999999",
	"achievements": "AXA Signature, MDRT, SUPER MDRT",
	"authorised": "M9A, M9, M5, HI, M8, M8A"
}