{
	"TYPE": "agent",
	"compCode": "AG",
	"agentCode": "888866",
	"role": "02",
	"name": "F9707887Q SYNERGY",
	"profileId": "F9707887Q",
	"channel": "SYNERGY",
	"createDate": "7/1/2017",
	"lastUpdateDate": "7/14/2017",
	"company": "Synergy Company",
	"tel": "99888866",
	"mobile": "66888866",
	"email": "ishu.gupta@axa.com.sg",
	"position": "Financial Advisor",
	"manager": "F9707887Q SYNERGY(M)",
	"managerCode": "000222",
	"achievements": "AXA Signature, MDRT, SUPER MDRT",
	"authorised": "M9A, M9, M5, HI, M8"
}