{
	"TYPE": "agent",
	"compCode": "AG",
	"agentCode": "000005",
	"role": "02",
	"name": "G1966837T Broker",
	"profileId": "",
	"channel": "BROKER",
	"createDate": "7/1/2017",
	"lastUpdateDate": "7/14/2017",
	"company": "IFA Singapore",
	"tel": "99000005",
	"mobile": "66000005",
	"email": "@eabsystems.com",
	"position": "Financial Advisor",
	"manager": "G1966837T Broker(M)",
	"managerCode": "999999",
	"achievements": "AXA Signature, MDRT, SUPER MDRT",
	"authorised": "M9A, M9, M5, HI, M8"
}