{
	"TYPE": "agent",
	"compCode": "AG",
	"agentCode": "222222",
	"role": "02",
	"name": "G1130972R AXA@Post",
	"profileId": "",
	"channel": "SINGPOST",
	"createDate": "7/1/2017",
	"lastUpdateDate": "7/14/2017",
	"company": "AXA@Post",
	"tel": "99222222",
	"mobile": "66222222",
	"email": "@eabsystems.com",
	"position": "Agent",
	"manager": "G1130972R AXA@Post(M)",
	"managerCode": "000002",
	"achievements": "AXA Signature, MDRT",
	"authorised": "M9A, M9, M5, HI"
}