{
	"TYPE": "agent",
	"compCode": "AG",
	"agentCode": "225522",
	"role": "02",
	"name": "G2130963D SINGPOST",
	"profileId": "G2130963D",
	"channel": "SINGPOST",
	"createDate": "7/1/2017",
	"lastUpdateDate": "7/14/2017",
	"company": "AXA@Post",
	"tel": "99225522",
	"mobile": "66225522",
	"email": "yeeling.loh@axa.com.sg",
	"position": "Agent",
	"manager": "G2130963D SINGPOST(M)",
	"managerCode": "000002",
	"achievements": "AXA Signature, MDRT",
	"authorised": "M9A, M9, M5, HI"
}