{
	"TYPE": "agent",
	"compCode": "AG",
	"agentCode": "999977",
	"role": "02",
	"name": "G6220328M SYNERGY",
	"profileId": "G6220328M",
	"channel": "SYNERGY",
	"createDate": "7/1/2017",
	"lastUpdateDate": "7/14/2017",
	"company": "Synergy Company",
	"tel": "99999977",
	"mobile": "66999977",
	"email": "ishu.gupta@axa.com.sg",
	"position": "Financial Advisor",
	"manager": "G6220328M SYNERGY(M)",
	"managerCode": "000224",
	"achievements": "AXA Signature, MDRT, SUPER MDRT",
	"authorised": "M9A, M9, M5, HI, M8"
}