{
	"acceptDate":"2018-02-12T09:45:33.072Z",
	"acceptTermVersion":"1.0",
	"achievements":"MDRT, AXA ACHIEVEMENT",
	"agentCode":"000002",
	"authorised":"M9A,M9,M5,HI,M8, M8A,IFAST",
	"channel":"FUSION",
	"compCode":"AG",
	"company":"I am JPK",
	"createDate":"1/7/2017",
	"email":"S2195576J@eabsystems.com",
	"lastUpdateDate":"14/7/2017",
	"lastUpdatedTime":"2018-09-03T09:23:15.383Z",
	"manager":"S2195576J IAM / JPK(M)",
	"managerCode":"888888",
	"mobile":"66000002",
	"name":"S2195576J IAM / JPK",
	"position":"Agent",
	"profileId":"S2195576J",
	"role":"02",
	"tel":"99000002",
	"type":"agent",
	"updatedBy":"mandy"
 }