{
	"TYPE": "agent",
	"compCode": "AG",
	"agentCode": "333302",
	"role": "02",
	"name": "S9302703D DIRECT",
	"profileId": "S9302703D",
	"channel": "DIRECT",
	"createDate": "7/1/2017",
	"lastUpdateDate": "7/14/2017",
	"company": "AXA Direct",
	"tel": "99433334",
	"mobile": "66433334",
	"email": "saakshi.jham@axa.com.sg",
	"position": "Agent",
	"manager": "S6302703D DIRECT(M)",
	"managerCode": "900001",
	"achievements": "MDRT, SUPER MDRT",
	"authorised": "M9A, M9, M5, HI"
}