{
	"TYPE": "agent",
	"compCode": "AG",
	"agentCode": "015015",
	"role": "02",
	"name": "Sam Lam",
	"profileId": "sam.lam",
	"channel": "AGENCY",
	"createDate": "7/1/2031",
	"lastUpdateDate": "7/14/2031",
	"company": "EAB Systems Company Limited",
	"tel": "98765432",
	"mobile": "28765432",
	"email": "sam.lam@eabsystems.com",
	"position": "Agent",
	"manager": "Cherrie Hung",
	"managerCode": "100015",
	"achievements": "MDRT, SUPER MDRT",
	"authorised": "M9A, M9, M5, HI, M8, M8A, IFAST"
}