{
	"TYPE": "agent",
	"compCode": "AG",
	"agentCode": "333305",
	"role": "02",
	"name": "T9807921A DIRECT",
	"profileId": "T9807921A",
	"channel": "DIRECT",
	"createDate": "7/1/2017",
	"lastUpdateDate": "7/14/2017",
	"company": "AXA Direct",
	"tel": "99444444",
	"mobile": "66444444",
	"email": "T2807926A@eabsystems.com",
	"position": "Agent",
	"manager": "T2807926A Direct(M)",
	"managerCode": "900002",
	"achievements": "MDRT, SUPER MDRT",
	"authorised": "M9A, M9, HI"
}